<?xml version="1.0" encoding="UTF-8" standalone="no"?>
<!-- Created with Inkscape (http://www.inkscape.org/) -->

<svg
   xmlns:dc="http://purl.org/dc/elements/1.1/"
   xmlns:cc="http://creativecommons.org/ns#"
   xmlns:rdf="http://www.w3.org/1999/02/22-rdf-syntax-ns#"
   xmlns:svg="http://www.w3.org/2000/svg"
   xmlns="http://www.w3.org/2000/svg"
   xmlns:sodipodi="http://sodipodi.sourceforge.net/DTD/sodipodi-0.dtd"
   xmlns:inkscape="http://www.inkscape.org/namespaces/inkscape"
   width="210mm"
   height="297mm"
   viewBox="0 0 210 297"
   version="1.1"
   id="svg9600"
   inkscape:version="0.92.3 (2405546, 2018-03-11)"
   sodipodi:docname="brownRock1.svg">
  <defs
     id="defs9594" />
  <sodipodi:namedview
     id="base"
     pagecolor="#ffffff"
     bordercolor="#666666"
     borderopacity="1.0"
     inkscape:pageopacity="0.0"
     inkscape:pageshadow="2"
     inkscape:zoom="0.35"
     inkscape:cx="400"
     inkscape:cy="560"
     inkscape:document-units="mm"
     inkscape:current-layer="layer1"
     showgrid="false"
     inkscape:window-width="2736"
     inkscape:window-height="1699"
     inkscape:window-x="-13"
     inkscape:window-y="-13"
     inkscape:window-maximized="1" />
  <metadata
     id="metadata9597">
    <rdf:RDF>
      <cc:Work
         rdf:about="">
        <dc:format>image/svg+xml</dc:format>
        <dc:type
           rdf:resource="http://purl.org/dc/dcmitype/StillImage" />
        <dc:title></dc:title>
      </cc:Work>
    </rdf:RDF>
  </metadata>
  <g
     inkscape:label="Layer 1"
     inkscape:groupmode="layer"
     id="layer1">
    <path
       d="m 33.701871,11.130935 6.733646,10.080625 0.07937,0.251354 -0.03969,0.264583 -3.929063,8.519584 -0.238125,0.238125 -0.330729,0.06615 -6.019271,-0.886355 -8.162395,3.095625 -0.304271,0.01323 q -0.15875,-0.03969 -0.264583,-0.15875 l -7.170201,-7.8449 -0.132291,-0.238125 q -0.02646,-0.145521 0.01323,-0.277813 l 4.246562,-12.991041 q 0.05292,-0.171979 0.198438,-0.264583 0.132291,-0.105834 0.304271,-0.105834 H 33.25208 l 0.251354,0.06615 0.198437,0.171979 M 33.25208,11.421977 H 18.686768 l -4.246563,12.991041 7.170208,7.844896 8.281458,-3.135312 6.164792,0.899583 3.929063,-8.519583 -6.733646,-10.080625"
       id="path8765"
       inkscape:connector-curvature="0"
       style="fill:#5c4434;stroke:none;stroke-width:0.26458332" />
    <path
       d="m 33.25208,11.421977 6.733646,10.080625 -3.929063,8.519583 -6.164792,-0.899583 -8.281458,3.135312 -7.170208,-7.844896 4.246563,-12.991041 H 33.25208 m 2.209271,8.281458 -1.508125,0.9525 v -3.175 l -2.368021,-3.4925 -3.4925,0.277813 -0.886354,0.899583 -3.241146,-0.582083 -2.685521,0.198437 -2.354791,8.506354 1.997604,1.785938 2.315104,-0.582084 -0.939271,1.812396 1.785937,1.5875 3.915834,-2.579687 6.720416,0.674687 2.116667,-4.259792 -1.375833,-2.024062 m -8.982605,-1.825625 -0.727604,1.785938 -1.918229,1.124479 -1.058333,-0.396875 1.521354,-2.513542 h 2.182812 m -0.529166,3.175 0.926041,-1.5875 1.455209,0.264584 v 1.124479 L 26.941767,21.714268 25.94958,21.05281"
       id="path8767"
       inkscape:connector-curvature="0"
       style="fill:#836049;stroke:none;stroke-width:0.26458332" />
    <path
       d="m 25.94958,21.05281 0.992187,0.661458 1.389063,-0.859895 v -1.124479 l -1.455209,-0.264584 -0.926041,1.5875 m 9.511771,-1.349375 1.375833,2.024062 -2.116667,4.259792 -6.720416,-0.674687 -3.915834,2.579687 -1.785937,-1.5875 0.939271,-1.812396 -2.315104,0.582084 -1.997604,-1.785938 2.354791,-8.506354 2.685521,-0.198437 3.241146,0.582083 0.886354,-0.899583 3.4925,-0.277813 2.368021,3.4925 v 3.175 l 1.508125,-0.9525 M 26.478746,17.87781 h -2.182812 l -1.521354,2.513542 1.058333,0.396875 1.918229,-1.124479 0.727604,-1.785938"
       id="path8769"
       inkscape:connector-curvature="0"
       style="fill:#997055;stroke:none;stroke-width:0.26458332" />
  </g>
</svg>
