<?xml version="1.0" encoding="UTF-8" standalone="no"?>
<!-- Created with Inkscape (http://www.inkscape.org/) -->

<svg
   xmlns:dc="http://purl.org/dc/elements/1.1/"
   xmlns:cc="http://creativecommons.org/ns#"
   xmlns:rdf="http://www.w3.org/1999/02/22-rdf-syntax-ns#"
   xmlns:svg="http://www.w3.org/2000/svg"
   xmlns="http://www.w3.org/2000/svg"
   xmlns:sodipodi="http://sodipodi.sourceforge.net/DTD/sodipodi-0.dtd"
   xmlns:inkscape="http://www.inkscape.org/namespaces/inkscape"
   width="210mm"
   height="297mm"
   viewBox="0 0 210 297"
   version="1.1"
   id="svg9629"
   inkscape:version="0.92.3 (2405546, 2018-03-11)"
   sodipodi:docname="brownRock2.svg">
  <defs
     id="defs9623" />
  <sodipodi:namedview
     id="base"
     pagecolor="#ffffff"
     bordercolor="#666666"
     borderopacity="1.0"
     inkscape:pageopacity="0.0"
     inkscape:pageshadow="2"
     inkscape:zoom="0.35"
     inkscape:cx="400"
     inkscape:cy="560"
     inkscape:document-units="mm"
     inkscape:current-layer="layer1"
     showgrid="false"
     inkscape:window-width="2736"
     inkscape:window-height="1699"
     inkscape:window-x="-13"
     inkscape:window-y="-13"
     inkscape:window-maximized="1" />
  <metadata
     id="metadata9626">
    <rdf:RDF>
      <cc:Work
         rdf:about="">
        <dc:format>image/svg+xml</dc:format>
        <dc:type
           rdf:resource="http://purl.org/dc/dcmitype/StillImage" />
        <dc:title></dc:title>
      </cc:Work>
    </rdf:RDF>
  </metadata>
  <g
     inkscape:label="Layer 1"
     inkscape:groupmode="layer"
     id="layer1">
    <path
       d="m 31.456236,12.81983 13.520208,4.788958 q 0.185208,0.06615 0.291042,0.251354 0.0926,0.185208 0.03969,0.396875 l -3.505729,11.919479 -0.145521,0.224896 q -0.0926,0.0926 -0.224896,0.132291 l -14.247815,3.876146 -4.193646,3.889375 q -0.145521,0.119063 -0.330729,0.132292 -0.198438,0.01323 -0.343959,-0.105833 l -7.051146,-5.463646 q -0.171979,-0.132292 -0.198437,-0.330729 l -1.415521,-8.056563 q -0.03969,-0.185208 0.05292,-0.343958 l 5.106458,-9.154583 0.15875,-0.171979 q 0.0926,-0.07937 0.224896,-0.0926 l 11.998854,-1.91823 0.264584,0.02646 m 13.335,5.278437 -13.520209,-4.788958 -11.998854,1.918229 -5.106458,9.154583 1.41552,8.056562 7.051146,5.463646 4.28625,-3.96875 14.366875,-3.915833 3.50573,-11.919479"
       id="path8771"
       inkscape:connector-curvature="0"
       style="fill:#5c4434;stroke:none;stroke-width:0.26458332" />
    <path
       d="m 44.791236,18.098267 -3.50573,11.919479 -14.366875,3.915833 -4.28625,3.96875 -7.051146,-5.463646 -1.41552,-8.056562 5.106458,-9.154583 11.998854,-1.918229 13.520209,4.788958 m -10.689167,-0.05292 -3.175,-1.164167 -6.482292,0.727605 -0.03969,2.751666 -3.995209,-1.203854 -3.664479,4.630208 0.568854,3.955521 0.727604,0.436563 -0.582083,0.47625 0.304271,2.209271 4.960937,2.262187 3.902605,-3.65125 1.640416,-0.224896 3.069167,-1.600729 4.1275,0.661458 3.558646,-0.46302 1.984375,-7.3025 -5.291667,-1.931459 -1.084791,1.124479 -0.529167,-1.693333 m -7.858125,5.423958 -0.661458,1.230313 -1.627188,0.07938 0.264583,-1.640417 2.024063,0.330729 m -3.942292,2.050521 -1.217083,0.05292 -0.833438,-1.005417 0.224896,-1.42875 1.759479,-0.926041 1.098021,1.521354 -1.031875,1.785937"
       id="path8773"
       inkscape:connector-curvature="0"
       style="fill:#836049;stroke:none;stroke-width:0.26458332" />
    <path
       d="m 22.301652,25.519829 1.031875,-1.785937 -1.098021,-1.521354 -1.759479,0.926041 -0.224896,1.42875 0.833438,1.005417 1.217083,-0.05292 m 11.800417,-7.474479 0.529167,1.693334 1.084791,-1.124479 5.291667,1.931458 -1.984375,7.3025 -3.558646,0.46302 -4.1275,-0.661458 -3.069167,1.600729 -1.640416,0.224896 -3.902605,3.65125 -4.960937,-2.262187 -0.304271,-2.209271 0.582083,-0.47625 -0.727604,-0.436563 -0.568854,-3.955521 3.664479,-4.630208 3.995209,1.203855 0.03969,-2.751667 6.482292,-0.727604 3.175,1.164166 m -7.858125,5.423958 -2.024063,-0.330729 -0.264583,1.640417 1.627188,-0.07938 0.661458,-1.230313"
       id="path8775"
       inkscape:connector-curvature="0"
       style="fill:#997055;stroke:none;stroke-width:0.26458332" />
  </g>
</svg>
