<?xml version="1.0" encoding="UTF-8" standalone="no"?>
<!-- Created with Inkscape (http://www.inkscape.org/) -->

<svg
   xmlns:dc="http://purl.org/dc/elements/1.1/"
   xmlns:cc="http://creativecommons.org/ns#"
   xmlns:rdf="http://www.w3.org/1999/02/22-rdf-syntax-ns#"
   xmlns:svg="http://www.w3.org/2000/svg"
   xmlns="http://www.w3.org/2000/svg"
   xmlns:sodipodi="http://sodipodi.sourceforge.net/DTD/sodipodi-0.dtd"
   xmlns:inkscape="http://www.inkscape.org/namespaces/inkscape"
   width="210mm"
   height="297mm"
   viewBox="0 0 210 297"
   version="1.1"
   id="svg9687"
   inkscape:version="0.92.3 (2405546, 2018-03-11)"
   sodipodi:docname="greyRock1.svg">
  <defs
     id="defs9681" />
  <sodipodi:namedview
     id="base"
     pagecolor="#ffffff"
     bordercolor="#666666"
     borderopacity="1.0"
     inkscape:pageopacity="0.0"
     inkscape:pageshadow="2"
     inkscape:zoom="0.35"
     inkscape:cx="400"
     inkscape:cy="560"
     inkscape:document-units="mm"
     inkscape:current-layer="layer1"
     showgrid="false"
     inkscape:window-width="2736"
     inkscape:window-height="1699"
     inkscape:window-x="-13"
     inkscape:window-y="-13"
     inkscape:window-maximized="1" />
  <metadata
     id="metadata9684">
    <rdf:RDF>
      <cc:Work
         rdf:about="">
        <dc:format>image/svg+xml</dc:format>
        <dc:type
           rdf:resource="http://purl.org/dc/dcmitype/StillImage" />
        <dc:title></dc:title>
      </cc:Work>
    </rdf:RDF>
  </metadata>
  <g
     inkscape:label="Layer 1"
     inkscape:groupmode="layer"
     id="layer1">
    <path
       d="m 19.404919,10.602716 q 0.0926,-0.0926 0.224896,-0.119063 l 13.335,-3.4660415 q 0.145521,-0.052917 0.291041,0 l 0.238125,0.1455209 8.069792,8.9561456 0.119063,0.251354 -0.01323,0.277813 -4.709583,13.784791 -0.171979,0.238125 q -0.119063,0.105834 -0.277813,0.119063 l -12.660312,1.349375 -0.251354,-0.03969 -0.211666,-0.15875 -7.500938,-9.300104 -0.105833,-0.224896 q -0.02646,-0.132291 0.01323,-0.251354 l 3.466042,-11.324166 0.07938,-0.15875 0.06614,-0.07938 m 0.357188,0.383645 -3.466042,11.324167 7.500938,9.300104 12.660312,-1.349375 4.709583,-13.784791 -8.069792,-8.9561461 -13.334999,3.4660411"
       id="path8821"
       inkscape:connector-curvature="0"
       style="fill:#737e83;stroke:none;stroke-width:0.26458332" />
    <path
       d="m 25.490336,12.944278 1.375833,1.336146 0.806979,-1.812396 4.193646,-0.912812 5.595937,5.265208 -3.01625,10.080625 -1.997604,0.238125 -1.812396,-2.209271 -1.124479,2.553229 -4.709583,0.542396 -1.838854,-2.619375 0.264584,-1.071563 -1.349375,-0.47625 -1.891771,-2.672291 2.579687,-7.62 2.923646,-0.621771 m 6.402916,6.892396 1.455209,-0.992188 -0.33073,-1.5875 -1.521354,-0.46302 -0.926041,1.785937 1.322916,1.256771"
       id="path8823"
       inkscape:connector-curvature="0"
       style="fill:#9aaab1;stroke:none;stroke-width:0.26458332" />
    <path
       d="m 31.893252,19.836674 -1.322916,-1.256771 0.926041,-1.785937 1.521354,0.46302 0.33073,1.5875 -1.455209,0.992188 m -6.402916,-6.892396 -2.923646,0.621771 -2.579687,7.62 1.891771,2.672291 1.349375,0.47625 -0.264584,1.071563 1.838854,2.619375 4.709583,-0.542396 1.124479,-2.553229 1.812396,2.209271 1.997604,-0.238125 3.01625,-10.080625 -5.595937,-5.265208 -4.193646,0.912812 -0.806979,1.812396 -1.375833,-1.336146 m -5.728229,-1.957917 13.334999,-3.4660411 8.069792,8.9561461 -4.709583,13.784791 -12.660312,1.349375 -7.500938,-9.300104 3.466042,-11.324167"
       id="path8825"
       inkscape:connector-curvature="0"
       style="fill:#8b979c;stroke:none;stroke-width:0.26458332" />
  </g>
</svg>
