<?xml version="1.0" encoding="UTF-8" standalone="no"?>
<!-- Created with Inkscape (http://www.inkscape.org/) -->

<svg
   xmlns:dc="http://purl.org/dc/elements/1.1/"
   xmlns:cc="http://creativecommons.org/ns#"
   xmlns:rdf="http://www.w3.org/1999/02/22-rdf-syntax-ns#"
   xmlns:svg="http://www.w3.org/2000/svg"
   xmlns="http://www.w3.org/2000/svg"
   xmlns:sodipodi="http://sodipodi.sourceforge.net/DTD/sodipodi-0.dtd"
   xmlns:inkscape="http://www.inkscape.org/namespaces/inkscape"
   width="210mm"
   height="297mm"
   viewBox="0 0 210 297"
   version="1.1"
   id="svg246"
   inkscape:version="0.92.3 (2405546, 2018-03-11)"
   sodipodi:docname="homeHub2.svg">
  <defs
     id="defs240" />
  <sodipodi:namedview
     id="base"
     pagecolor="#ffffff"
     bordercolor="#666666"
     borderopacity="1.0"
     inkscape:pageopacity="0.0"
     inkscape:pageshadow="2"
     inkscape:zoom="3.959798"
     inkscape:cx="221.07174"
     inkscape:cy="963.99708"
     inkscape:document-units="mm"
     inkscape:current-layer="layer1"
     showgrid="false"
     inkscape:window-width="2736"
     inkscape:window-height="1699"
     inkscape:window-x="-13"
     inkscape:window-y="-13"
     inkscape:window-maximized="1" />
  <metadata
     id="metadata243">
    <rdf:RDF>
      <cc:Work
         rdf:about="">
        <dc:format>image/svg+xml</dc:format>
        <dc:type
           rdf:resource="http://purl.org/dc/dcmitype/StillImage" />
        <dc:title></dc:title>
      </cc:Work>
    </rdf:RDF>
  </metadata>
  <g
     inkscape:label="Layer 1"
     inkscape:groupmode="layer"
     id="layer1">
    <g
       transform="matrix(0.07000434,0,0,0.07000434,-151.16362,-56.913794)"
       id="use20084-3">
      <path
         style="fill:#afc6cb;stroke:none"
         inkscape:connector-curvature="0"
         d="m 2318,1217 h 24 v -24 h -24 v 24 m 16,-8 h 4 v 4 h -4 v -4 m -4,-12 v 4 h -8 v -4 h 8 m -76,-264 v -4 h -4 v 4 h -4 v 8 h 4 v 4 h 4 v -4 -8 m 88,188 -8,32 16,-32 h -8 m -16,56 -8,8 h 24 l -8,-8 h -8 m -8,-56 h -8 l 16,32 -8,-32 m 16,-72 v -4 h -8 v 4 h 8 m 8,-24 h -3 -1 l 5.6,28 2.4,12 h 4 l -8,-40 m 0,-4 v -4 h -3 v 4 h 3 m -21,4 h -3 l -8,40 h 4 l 2.4,-12 5.6,-28 h -1 m 0,-8 h -3 v 4 h 3 v -4 m 0,-16 h -3 v 4 h 3 v -4 m -3,8 v 4 h 3 v -4 h -3 m 3,-12 v -4 h -3 v 4 h 3 m 21,16 v -4 h -3 v 4 h 3 m 0,-12 h -3 v 4 h 3 v -4 m 0,-8 h -3 v 4 h 3 v -4 m 40,-46.65 V 949 h 40 v -3 h -40 v 0.35 M 2422,928 v -3 h -40 v 2.7 0.3 h 40 m -100,-3 h -4 v 4 h 4 z"
         id="path23044" />
      <path
         style="fill:#a1b6bb;stroke:none"
         inkscape:connector-curvature="0"
         d="m 2330,1201 v -4 h -8 v 4 h 8 m -12,16 v 8 h 24 v -8 h -24 m -88,-296 v 4 h 4 v 4 h -4 v 4 4 h -16 v 4 h 16 v 4 h 4 v 4 h -4 v 4 h 16 l 4,-8 v -4 h -4 -4 v -8 h 4 4 v -4 l -4,-8 h -16 m 112,264 h -24 v 8 h 24 v -8 m -20,-64 h 4 v -4 h -4 v 4 m -8,-8 h -4 v 8 h 8 v -8 h -4 m 32,0 h -4 v 8 h 8 v -8 h -4 m -8,-88 h -16 l -5.6,28 h 27.2 l -5.6,-28 m -4,20 v 4 h -8 v -4 h 8 m 8,-20 v -4 h -3 v 4 h 3 m -21,-8 v 4 h 18 v -4 h -18 m -3,8 h 3 v -4 h -3 v 4 m 3,-12 h -3 v 4 h 3 v -4 m -3,-8 v 4 h 3 v -4 h -3 m 3,-4 v -4 h -3 v 4 h 3 m 18,4 v -4 h -18 v 4 h 18 m 3,8 h -3 v 4 h 3 v -4 m -3,0 v -4 h -18 v 4 h 18 m 3,-4 v -4 h -3 v 4 h 3 m -3,-12 v -4 h -18 v 4 h 18 m 0,4 h 3 v -4 h -3 v 4 m 43,-60 v 5 h 40 v -5 h -20 v 4 h -4 v -4 h -16 m 20,-12 v 4 h 20 v -5 h -40 v 5 h 16 v -4 h 4 m -60,60 h -3 v 4 h 3 v -4 m -21,0 h -3 v 4 h 3 v -4 m -3,-72 -8,8 v 24 l 8,8 h 24 l 8,-8 v -24 l -8,-8 h -24 m 0,8 h 4 v 4 h -4 v -4 m 24,12 h -8 v -4 h 8 v 4 m 0,4 v 8 h -8 v -8 h 8 m 8,-72 v -4 h -4 v -4 h -32 v 4 h -4 v 4 h 40 m 0,-16 v -4 h -4 v 4 h -32 v -4 h -4 v 4 h -4 v 4 h 48 v -4 z"
         id="path23046" />
      <path
         style="fill:#c3dce2;stroke:none"
         inkscape:connector-curvature="0"
         d="m 2338,1209 h -4 v 4 h 4 z"
         id="path23048" />
      <path
         style="fill:#93a6aa;stroke:none"
         inkscape:connector-curvature="0"
         d="m 2318,1225 8,8 h 8 l 8,-8 h -24 m -88,-280 v 4 h 4 v -4 h -4 m 24,0 h -4 l -4,8 h -16 v 4 h 16 l 8,-8 v -3 -1 m -8,-12 h -4 v 8 h 4 v -8 m -16,4 v -4 h -16 v 4 h 16 m 4,-12 h -4 v 4 h 4 v -4 m -4,-8 v 4 h 16 l 4,8 h 4 v -1 -3 l -8,-8 h -16 m 112,196 h -24 v 8 l 8,32 h 8 l 8,-32 v -8 m -16,8 h -4 v -4 h 4 v 4 m -9.6,-68 -2.4,12 h 32 l -2.4,-12 h -27.2 m 4.6,-40 v 4 h 18 v -4 h -18 m 0,8 v 4 h 1 16 1 v -4 h -18 m 18,-12 v -4 h -18 v 4 h 18 m 0,-8 v -4 h -18 v 4 h 18 m 11,-44 v -8 l -8,8 h 8 m 0,-32 v -8 h -8 l 8,8 m 52,8 v -4 h -4 v 4 h -16 v 8 h 16 v 4 h 4 v -4 h 20 v -8 h -20 m -80,56 h -1 v 4 h 18 v -4 h -1 -16 m -12,-32 h 8 l -8,-8 v 4 4 m 32,-8 v -8 h -8 v 8 h 8 m -8,-12 h 8 v -4 h -8 v 4 m -24,-12 8,-8 h -8 v 4 4 m 40,-60 4,-8 h -48 l 4,8 h 4 v -4 h 32 v 4 z"
         id="path23050" />
      <path
         style="fill:#78888c;stroke:none"
         inkscape:connector-curvature="0"
         d="M 2254,951.85 V 951 949 l -8,8 h -16 v 2 h 16 q 0.85,0 1.45,-0.55 l 6.55,-6.6 M 2212,935 v 4 2 h 2 v -4 -4 h -2 v 2 m 34,-20 h -16 v 2 h 16 l 8,8 v -2 -0.85 l -6.55,-6.55 q -0.6,-0.6 -1.45,-0.6 m 72,270 8,-8 h -2.85 l -6.55,6.6 q -0.6,0.55 -0.6,1.4 v 40 q 0,0.85 0.6,1.45 l 8,8 q 0.55,0.55 1.4,0.55 h 8 q 0.85,0 1.45,-0.55 l 8,-8 q 0.55,-0.6 0.55,-1.45 v -40 q 0,-0.85 -0.55,-1.4 l -6.6,-6.6 H 2334 l 8,8 v 8 24 8 l -8,8 h -8 l -8,-8 v -8 -24 -8 m 16,-32 h 2.25 l 15.55,-31.1 q 0.2,-0.45 0.2,-0.9 v -8 h -2 v 8 l -16,32 m -24,-32 v -8 h -2 v 8 q 0,0.45 0.2,0.9 l 15.55,31.1 h 2.25 l -16,-32 m 72,-172 v 2 h 40 v -2 h -40 m 40,-24 v -2 h -40 v 2 h 40 m -78,64 h -2 v 4 4 4 4 4 4 4 4 4 l 8,40 h 2 q 0,-0.2 -0.05,-0.4 l -7.9,-39.6 H 2344 v -36 m -26,0 h -2 v 36 l -7.95,39.6 q -0.05,0.2 -0.05,0.4 h 2 l 8,-40 v -4 -4 -4 -4 -4 -4 -4 -4 -4 m -12,-136 h -2 v 4 q 0,0.45 0.2,0.9 l 3.8,7.6 v 3.5 h 2 v -4 l -4,-8 v -4 m 50,0 h -2 v 4 l -4,8 v 4 h 2 v -3.5 l 3.8,-7.6 q 0.2,-0.45 0.2,-0.9 z"
         id="path23052" />
      <path
         style="fill:#707070;stroke:none"
         inkscape:connector-curvature="0"
         d="m 2194,941 h -4 v 8 l 16,8 h 24 v -4 h -24 l -12,-6 v -6 m 36,-20 v -4 h -24 l -16,8 v 8 h 4 v -6 l 12,-6 h 24 m 88,188 h -4 v 4 h 4 v -4 m 24,4 h 4 v -4 h -4 v 4 m 0,-32 h -4 v 16 h 4 v -16 m -20,0 h -4 v 16 h 4 v -16 m 28,-12 v -4 h -4 -32 -4 v 4 h 40 m 32,-120 v -2.65 l -24,2.65 v 8 l 24,-8 m -24,-32 v 8 l 24,2.7 V 925 l -24,-8 m -19,72 h 3 v -16 h -4 v 16 h 1 m -17,-16 h -4 v 16 h 3 1 v -16 m -28,-24 8,8 h 8 v -4 l -16,-8 v 1 h -40 v 3 h 40 m 16,-28 v -4 h -8 l -8,8 h -40 v 3 h 40 v 1 l 16,-8 m 8,-20 -8,8 h 40 l -8,-8 h -24 m 136,16 h -24 l -8,8 v 3 5 8 5 3 l 8,8 h 24 l 8,-8 v -24 l -8,-8 m -24,8 h 24 v 24 h -24 z"
         id="path23054" />
      <path
         style="fill:#666666;stroke:none"
         inkscape:connector-curvature="0"
         d="m 2214,941 h -2 -18 v 6 l 12,6 h 24 v -4 -4 -4 h -16 m 16,-16 v -4 h -24 l -12,6 v 6 h 18 2 16 v -4 -4 m 96,252 h 8 v -24 h -8 v 24 m 16,-64 v -4 h 4 v 4 h 4 v -8 h -40 v 8 h 4 v -4 h 4 v 4 h 24 m 8,-32 v -12 h -40 v 12 h 6 2 4 v 16 h 16 v -16 h 4 2 6 m -36,-8 h 4 v 4 h -4 v -4 m 44,-140 h 4 v 8 h -4 v 8 l 24,-2.65 v -0.35 -5 -8 -5 -0.3 l -24,-2.7 v 8 m 16,0 h 4 v 8 h -4 v -8 m -52,40 v 16 h 16 v -16 h -16 m 8,12 v -4 h 4 v 4 h -4 m -20,-28 v 8 h 40 v -8 h -8 -24 -8 m 0,-32 v -4 l -16,8 v -1 h -40 v 1 4 h 8 v -4 h 4 v 4 h 16 v -4 h 4 v 4 h 8 v 8 h -8 v 4 h -4 v -4 h -16 v 4 h -4 v -4 h -8 v 4 1 h 40 v -1 l 16,8 v -4 -24 m 0,-8 h 8 24 8 v -8 h -40 v 8 m 32,-32 h -24 v 16 h 24 v -16 m -20,4 h 4 v 8 h -4 v -8 m 28,-12 v -8 h -40 v 8 h 40 m 104,48 h -24 v 24 h 24 v -24 m -20,16 h 4 v 4 h -4 z"
         id="path23056" />
      <path
         style="fill:#4a4a4a;stroke:none"
         inkscape:connector-curvature="0"
         d="m 2190,939 q -0.85,0 -1.4,0.6 -0.6,0.55 -0.6,1.4 v 8 q 0,0.55 0.3,1.05 0.3,0.5 0.8,0.75 l 16,8 q 0.45,0.2 0.9,0.2 h 24 v -2 h -24 l -16,-8 v -8 h 4 18 v -2 h -22 m 40,-22 v -2 h -24 q -0.45,0 -0.9,0.2 l -16,8 q -0.5,0.25 -0.8,0.75 -0.3,0.5 -0.3,1.05 v 8 q 0,0.85 0.6,1.45 0.55,0.55 1.4,0.55 h 22 v -2 h -18 -4 v -8 l 16,-8 h 24 m 96,236 h -2.25 l 0.25,0.5 v 22.65 l -0.85,0.85 h 2.85 v -24 m 10.25,0 H 2334 v 24 h 2.85 l -0.85,-0.85 v -22.65 l 0.25,-0.5 m 7.75,-72 h -2 v 16 l 8,8 v 8 h 2 v -8 q 0,-0.85 -0.55,-1.45 l -7.45,-7.4 V 1081 m -26,0 h -2 v 15.15 l -7.4,7.4 q -0.6,0.6 -0.6,1.45 v 8 h 2 v -8 l 8,-8 v -16 m -10,-16 v 16 h 2 v -12 -4 h -2 m 44,16 v -16 h -2 v 4 12 h 2 m 26,-148 h -4 v 8 h 4 v -8 m -36,56 h 2 v -15.15 l 7.45,-7.4 q 0.55,-0.6 0.55,-1.45 v -6 h 6 q 0.3,0 0.65,-0.1 l 23.35,-7.8 v -0.1 -2 l -24,8 h -8 v 8 l -8,8 v 16 m -40,-32 -8,-8 h -40 v 2 h 40 v 0.85 l 6.6,6.6 q 0.55,0.55 1.4,0.55 h 6 v 6 q 0,0.85 0.6,1.45 l 7.4,7.4 V 989 h 2 v -16 l -8,-8 v -8 h -8 m 24,-68 h -4 v 8 h 4 v -8 m -18,-20 v 8 q 0,0.85 0.6,1.45 l 7.4,7.4 v 14.3 l -7.4,7.45 q -0.6,0.55 -0.6,1.4 v 6 h -6 q -0.85,0 -1.4,0.6 l -6.6,6.55 V 923 h -40 v 2 h 40 l 8,-8 h 8 v -8 l 8,-8 v -16 l -8,-8 v -8 h -2 m 43.45,9.45 q 0.55,-0.6 0.55,-1.45 v -8 h -2 v 8 l -8,8 v 16 l 8,8 v 8 h 8 l 24,8 v -2 -0.1 l -23.35,-7.8 Q 2358.3,915 2358,915 h -6 v -6 q 0,-0.85 -0.55,-1.4 l -7.45,-7.45 v -14.3 l 7.45,-7.4 M 2454,915 h -24 q -0.85,0 -1.4,0.6 l -6.6,6.55 v 0.85 2 l 8,-8 h 24 l 8,8 v 24 l -8,8 h -24 l -8,-8 v 2 0.85 l 6.6,6.6 q 0.55,0.55 1.4,0.55 h 24 q 0.85,0 1.45,-0.55 l 8,-8 q 0.55,-0.6 0.55,-1.45 v -24 q 0,-0.85 -0.55,-1.4 l -8,-8 q -0.6,-0.6 -1.45,-0.6 z"
         id="path23058" />
      <path
         style="fill:#5d5d5d;stroke:none"
         inkscape:connector-curvature="0"
         d="m 2342,1097 h -4 -16 -4 l -8,8 h 40 l -8,-8 m -24,-24 h -4 v 4 h 4 v -4 m 40,-148 v -8 h -8 v 8 24 8 h 8 v -8 -8 h 4 v -8 h -4 v -8 m -28,56 v 4 h 4 v -4 h -4 m -12,-8 h 4 16 4 l 8,-8 h -40 l 8,8 m -36,-44 v 4 h -16 v -4 h -4 v 4 h -8 v 8 h 8 v 4 h 4 v -4 h 16 v 4 h 4 v -4 h 8 v -8 h -8 v -4 h -4 m 28,-52 8,8 h 24 l 8,-8 h -40 m 128,64 h -4 v 4 h 4 z"
         id="path23060" />
      <path
         style="fill:#ffffff;stroke:none"
         inkscape:connector-curvature="0"
         d="m 2346,837 h -32 l -8,8 h 48 z"
         id="path23062" />
      <path
         style="fill:#cccccc;stroke:none"
         inkscape:connector-curvature="0"
         d="m 2356,845 q 0,-0.85 -0.55,-1.4 l -8,-8 q -0.6,-0.6 -1.45,-0.6 h -32 q -0.85,0 -1.4,0.6 l -8,8 q -0.6,0.55 -0.6,1.4 v 8 h 2 v -8 l 8,-8 h 32 l 8,8 v 8 h 2 z"
         id="path23064" />
      <path
         style="fill:#f5f5f5;stroke:none"
         inkscape:connector-curvature="0"
         d="m 2350,849 v 4 h 4 v -8 h -48 v 8 h 4 v -4 h 4 v 4 h 32 v -4 z"
         id="path23066" />
    </g>
    <g
       transform="matrix(0.04161726,0,0,0.04161726,-30.06819,-28.422802)"
       id="g19594">
      <g
         transform="translate(1e-5)"
         id="use19592">
        <path
           style="fill:#78888c;stroke:none"
           inkscape:connector-curvature="0"
           d="m 970,999 v -4 -4 h -2 v 2 4 2 z"
           id="path23095" />
        <path
           style="fill:#666666;stroke:none"
           inkscape:connector-curvature="0"
           d="m 986,991 v -12 h -24 l -12,6 v 6 h 18 2 16 m 0,20 v -12 h -16 -2 -18 v 6 l 12,6 z"
           id="path23097" />
        <path
           style="fill:#93a6aa;stroke:none"
           inkscape:connector-curvature="0"
           d="m 986,995 v -4 h -16 v 4 z"
           id="path23099" />
        <path
           style="fill:#4a4a4a;stroke:none"
           inkscape:connector-curvature="0"
           d="m 986,1017 v -2 h -24 l -16,-8 v -8 h 4 18 v -2 h -22 q -0.85,0 -1.4,0.6 -0.6,0.55 -0.6,1.4 v 8 q 0,0.55 0.3,1.05 0.3,0.5 0.8,0.75 l 16,8 q 0.45,0.2 0.9,0.2 h 24 m 0,-42 v -2 h -24 q -0.45,0 -0.9,0.2 l -16,8 q -0.5,0.25 -0.8,0.75 -0.3,0.5 -0.3,1.05 v 8 q 0,0.85 0.6,1.45 0.55,0.55 1.4,0.55 h 22 v -2 h -18 -4 v -8 l 16,-8 z"
           id="path23101" />
        <path
           style="fill:#707070;stroke:none"
           inkscape:connector-curvature="0"
           d="m 986,1015 v -4 h -24 l -12,-6 v -6 h -4 v 8 l 16,8 h 24 m 0,-36 v -4 h -24 l -16,8 v 8 h 4 v -6 l 12,-6 z"
           id="path23103" />
        <path
           style="fill:#a1b6bb;stroke:none"
           inkscape:connector-curvature="0"
           d="m 986,999 v -4 h -16 v 4 z"
           id="path23105" />
      </g>
    </g>
    <g
       transform="matrix(0.04161726,0,0,0.04161726,-30.040189,-25.274276)"
       id="g19594-3">
      <g
         transform="translate(1e-5)"
         id="use19592-6">
        <path
           style="fill:#78888c;stroke:none"
           inkscape:connector-curvature="0"
           d="m 970,999 v -4 -4 h -2 v 2 4 2 z"
           id="path23095-4" />
        <path
           style="fill:#666666;stroke:none"
           inkscape:connector-curvature="0"
           d="m 986,991 v -12 h -24 l -12,6 v 6 h 18 2 16 m 0,20 v -12 h -16 -2 -18 v 6 l 12,6 z"
           id="path23097-8" />
        <path
           style="fill:#93a6aa;stroke:none"
           inkscape:connector-curvature="0"
           d="m 986,995 v -4 h -16 v 4 z"
           id="path23099-0" />
        <path
           style="fill:#4a4a4a;stroke:none"
           inkscape:connector-curvature="0"
           d="m 986,1017 v -2 h -24 l -16,-8 v -8 h 4 18 v -2 h -22 q -0.85,0 -1.4,0.6 -0.6,0.55 -0.6,1.4 v 8 q 0,0.55 0.3,1.05 0.3,0.5 0.8,0.75 l 16,8 q 0.45,0.2 0.9,0.2 h 24 m 0,-42 v -2 h -24 q -0.45,0 -0.9,0.2 l -16,8 q -0.5,0.25 -0.8,0.75 -0.3,0.5 -0.3,1.05 v 8 q 0,0.85 0.6,1.45 0.55,0.55 1.4,0.55 h 22 v -2 h -18 -4 v -8 l 16,-8 z"
           id="path23101-0" />
        <path
           style="fill:#707070;stroke:none"
           inkscape:connector-curvature="0"
           d="m 986,1015 v -4 h -24 l -12,-6 v -6 h -4 v 8 l 16,8 h 24 m 0,-36 v -4 h -24 l -16,8 v 8 h 4 v -6 l 12,-6 z"
           id="path23103-7" />
        <path
           style="fill:#a1b6bb;stroke:none"
           inkscape:connector-curvature="0"
           d="m 986,999 v -4 h -16 v 4 z"
           id="path23105-8" />
      </g>
    </g>
    <g
       transform="matrix(0.04161726,0,0,0.04161726,-29.879113,-22.481811)"
       id="g19594-3-5">
      <g
         transform="translate(1e-5)"
         id="use19592-6-8">
        <path
           style="fill:#78888c;stroke:none"
           inkscape:connector-curvature="0"
           d="m 970,999 v -4 -4 h -2 v 2 4 2 z"
           id="path23095-4-7" />
        <path
           style="fill:#666666;stroke:none"
           inkscape:connector-curvature="0"
           d="m 986,991 v -12 h -24 l -12,6 v 6 h 18 2 16 m 0,20 v -12 h -16 -2 -18 v 6 l 12,6 z"
           id="path23097-8-3" />
        <path
           style="fill:#93a6aa;stroke:none"
           inkscape:connector-curvature="0"
           d="m 986,995 v -4 h -16 v 4 z"
           id="path23099-0-2" />
        <path
           style="fill:#4a4a4a;stroke:none"
           inkscape:connector-curvature="0"
           d="m 986,1017 v -2 h -24 l -16,-8 v -8 h 4 18 v -2 h -22 q -0.85,0 -1.4,0.6 -0.6,0.55 -0.6,1.4 v 8 q 0,0.55 0.3,1.05 0.3,0.5 0.8,0.75 l 16,8 q 0.45,0.2 0.9,0.2 h 24 m 0,-42 v -2 h -24 q -0.45,0 -0.9,0.2 l -16,8 q -0.5,0.25 -0.8,0.75 -0.3,0.5 -0.3,1.05 v 8 q 0,0.85 0.6,1.45 0.55,0.55 1.4,0.55 h 22 v -2 h -18 -4 v -8 l 16,-8 z"
           id="path23101-0-4" />
        <path
           style="fill:#707070;stroke:none"
           inkscape:connector-curvature="0"
           d="m 986,1015 v -4 h -24 l -12,-6 v -6 h -4 v 8 l 16,8 h 24 m 0,-36 v -4 h -24 l -16,8 v 8 h 4 v -6 l 12,-6 z"
           id="path23103-7-8" />
        <path
           style="fill:#a1b6bb;stroke:none"
           inkscape:connector-curvature="0"
           d="m 986,999 v -4 h -16 v 4 z"
           id="path23105-8-3" />
      </g>
    </g>
    <g
       transform="matrix(0.04161726,0,0,0.04161726,-29.508154,-16.907088)"
       id="g19594-3-5-4">
      <g
         transform="translate(1e-5)"
         id="use19592-6-8-7">
        <path
           style="fill:#78888c;stroke:none"
           inkscape:connector-curvature="0"
           d="m 970,999 v -4 -4 h -2 v 2 4 2 z"
           id="path23095-4-7-3" />
        <path
           style="fill:#666666;stroke:none"
           inkscape:connector-curvature="0"
           d="m 986,991 v -12 h -24 l -12,6 v 6 h 18 2 16 m 0,20 v -12 h -16 -2 -18 v 6 l 12,6 z"
           id="path23097-8-3-4" />
        <path
           style="fill:#93a6aa;stroke:none"
           inkscape:connector-curvature="0"
           d="m 986,995 v -4 h -16 v 4 z"
           id="path23099-0-2-9" />
        <path
           style="fill:#4a4a4a;stroke:none"
           inkscape:connector-curvature="0"
           d="m 986,1017 v -2 h -24 l -16,-8 v -8 h 4 18 v -2 h -22 q -0.85,0 -1.4,0.6 -0.6,0.55 -0.6,1.4 v 8 q 0,0.55 0.3,1.05 0.3,0.5 0.8,0.75 l 16,8 q 0.45,0.2 0.9,0.2 h 24 m 0,-42 v -2 h -24 q -0.45,0 -0.9,0.2 l -16,8 q -0.5,0.25 -0.8,0.75 -0.3,0.5 -0.3,1.05 v 8 q 0,0.85 0.6,1.45 0.55,0.55 1.4,0.55 h 22 v -2 h -18 -4 v -8 l 16,-8 z"
           id="path23101-0-4-5" />
        <path
           style="fill:#707070;stroke:none"
           inkscape:connector-curvature="0"
           d="m 986,1015 v -4 h -24 l -12,-6 v -6 h -4 v 8 l 16,8 h 24 m 0,-36 v -4 h -24 l -16,8 v 8 h 4 v -6 l 12,-6 z"
           id="path23103-7-8-2" />
        <path
           style="fill:#a1b6bb;stroke:none"
           inkscape:connector-curvature="0"
           d="m 986,999 v -4 h -16 v 4 z"
           id="path23105-8-3-3" />
      </g>
    </g>
    <g
       transform="matrix(0.04161726,0,0,0.04161726,-29.92818,-13.793567)"
       id="g19594-3-5-4-2">
      <g
         transform="translate(1e-5)"
         id="use19592-6-8-7-2">
        <path
           style="fill:#78888c;stroke:none"
           inkscape:connector-curvature="0"
           d="m 970,999 v -4 -4 h -2 v 2 4 2 z"
           id="path23095-4-7-3-2" />
        <path
           style="fill:#666666;stroke:none"
           inkscape:connector-curvature="0"
           d="m 986,991 v -12 h -24 l -12,6 v 6 h 18 2 16 m 0,20 v -12 h -16 -2 -18 v 6 l 12,6 z"
           id="path23097-8-3-4-6" />
        <path
           style="fill:#93a6aa;stroke:none"
           inkscape:connector-curvature="0"
           d="m 986,995 v -4 h -16 v 4 z"
           id="path23099-0-2-9-2" />
        <path
           style="fill:#4a4a4a;stroke:none"
           inkscape:connector-curvature="0"
           d="m 986,1017 v -2 h -24 l -16,-8 v -8 h 4 18 v -2 h -22 q -0.85,0 -1.4,0.6 -0.6,0.55 -0.6,1.4 v 8 q 0,0.55 0.3,1.05 0.3,0.5 0.8,0.75 l 16,8 q 0.45,0.2 0.9,0.2 h 24 m 0,-42 v -2 h -24 q -0.45,0 -0.9,0.2 l -16,8 q -0.5,0.25 -0.8,0.75 -0.3,0.5 -0.3,1.05 v 8 q 0,0.85 0.6,1.45 0.55,0.55 1.4,0.55 h 22 v -2 h -18 -4 v -8 l 16,-8 z"
           id="path23101-0-4-5-8" />
        <path
           style="fill:#707070;stroke:none"
           inkscape:connector-curvature="0"
           d="m 986,1015 v -4 h -24 l -12,-6 v -6 h -4 v 8 l 16,8 h 24 m 0,-36 v -4 h -24 l -16,8 v 8 h 4 v -6 l 12,-6 z"
           id="path23103-7-8-2-4" />
        <path
           style="fill:#a1b6bb;stroke:none"
           inkscape:connector-curvature="0"
           d="m 986,999 v -4 h -16 v 4 z"
           id="path23105-8-3-3-7" />
      </g>
    </g>
    <g
       transform="matrix(-0.04161726,0,0,0.04161726,53.821163,-13.793567)"
       id="g19594-3-5-4-2-9">
      <g
         transform="translate(1e-5)"
         id="use19592-6-8-7-2-9">
        <path
           style="fill:#78888c;stroke:none"
           inkscape:connector-curvature="0"
           d="m 970,999 v -4 -4 h -2 v 2 4 2 z"
           id="path23095-4-7-3-2-4" />
        <path
           style="fill:#666666;stroke:none"
           inkscape:connector-curvature="0"
           d="m 986,991 v -12 h -24 l -12,6 v 6 h 18 2 16 m 0,20 v -12 h -16 -2 -18 v 6 l 12,6 z"
           id="path23097-8-3-4-6-7" />
        <path
           style="fill:#93a6aa;stroke:none"
           inkscape:connector-curvature="0"
           d="m 986,995 v -4 h -16 v 4 z"
           id="path23099-0-2-9-2-9" />
        <path
           style="fill:#4a4a4a;stroke:none"
           inkscape:connector-curvature="0"
           d="m 986,1017 v -2 h -24 l -16,-8 v -8 h 4 18 v -2 h -22 q -0.85,0 -1.4,0.6 -0.6,0.55 -0.6,1.4 v 8 q 0,0.55 0.3,1.05 0.3,0.5 0.8,0.75 l 16,8 q 0.45,0.2 0.9,0.2 h 24 m 0,-42 v -2 h -24 q -0.45,0 -0.9,0.2 l -16,8 q -0.5,0.25 -0.8,0.75 -0.3,0.5 -0.3,1.05 v 8 q 0,0.85 0.6,1.45 0.55,0.55 1.4,0.55 h 22 v -2 h -18 -4 v -8 l 16,-8 z"
           id="path23101-0-4-5-8-4" />
        <path
           style="fill:#707070;stroke:none"
           inkscape:connector-curvature="0"
           d="m 986,1015 v -4 h -24 l -12,-6 v -6 h -4 v 8 l 16,8 h 24 m 0,-36 v -4 h -24 l -16,8 v 8 h 4 v -6 l 12,-6 z"
           id="path23103-7-8-2-4-2" />
        <path
           style="fill:#a1b6bb;stroke:none"
           inkscape:connector-curvature="0"
           d="m 986,999 v -4 h -16 v 4 z"
           id="path23105-8-3-3-7-7" />
      </g>
    </g>
    <g
       transform="matrix(-0.04161726,0,0,0.04161726,53.405042,-16.916883)"
       id="g19594-3-5-4-2-9-5">
      <g
         transform="translate(1e-5)"
         id="use19592-6-8-7-2-9-7">
        <path
           style="fill:#78888c;stroke:none"
           inkscape:connector-curvature="0"
           d="m 970,999 v -4 -4 h -2 v 2 4 2 z"
           id="path23095-4-7-3-2-4-1" />
        <path
           style="fill:#666666;stroke:none"
           inkscape:connector-curvature="0"
           d="m 986,991 v -12 h -24 l -12,6 v 6 h 18 2 16 m 0,20 v -12 h -16 -2 -18 v 6 l 12,6 z"
           id="path23097-8-3-4-6-7-7" />
        <path
           style="fill:#93a6aa;stroke:none"
           inkscape:connector-curvature="0"
           d="m 986,995 v -4 h -16 v 4 z"
           id="path23099-0-2-9-2-9-2" />
        <path
           style="fill:#4a4a4a;stroke:none"
           inkscape:connector-curvature="0"
           d="m 986,1017 v -2 h -24 l -16,-8 v -8 h 4 18 v -2 h -22 q -0.85,0 -1.4,0.6 -0.6,0.55 -0.6,1.4 v 8 q 0,0.55 0.3,1.05 0.3,0.5 0.8,0.75 l 16,8 q 0.45,0.2 0.9,0.2 h 24 m 0,-42 v -2 h -24 q -0.45,0 -0.9,0.2 l -16,8 q -0.5,0.25 -0.8,0.75 -0.3,0.5 -0.3,1.05 v 8 q 0,0.85 0.6,1.45 0.55,0.55 1.4,0.55 h 22 v -2 h -18 -4 v -8 l 16,-8 z"
           id="path23101-0-4-5-8-4-5" />
        <path
           style="fill:#707070;stroke:none"
           inkscape:connector-curvature="0"
           d="m 986,1015 v -4 h -24 l -12,-6 v -6 h -4 v 8 l 16,8 h 24 m 0,-36 v -4 h -24 l -16,8 v 8 h 4 v -6 l 12,-6 z"
           id="path23103-7-8-2-4-2-1" />
        <path
           style="fill:#a1b6bb;stroke:none"
           inkscape:connector-curvature="0"
           d="m 986,999 v -4 h -16 v 4 z"
           id="path23105-8-3-3-7-7-7" />
      </g>
    </g>
    <g
       transform="matrix(-0.04161726,0,0,0.04161726,53.855331,-22.473459)"
       id="g19594-3-5-4-2-9-5-6">
      <g
         transform="translate(1e-5)"
         id="use19592-6-8-7-2-9-7-0">
        <path
           style="fill:#78888c;stroke:none"
           inkscape:connector-curvature="0"
           d="m 970,999 v -4 -4 h -2 v 2 4 2 z"
           id="path23095-4-7-3-2-4-1-7" />
        <path
           style="fill:#666666;stroke:none"
           inkscape:connector-curvature="0"
           d="m 986,991 v -12 h -24 l -12,6 v 6 h 18 2 16 m 0,20 v -12 h -16 -2 -18 v 6 l 12,6 z"
           id="path23097-8-3-4-6-7-7-1" />
        <path
           style="fill:#93a6aa;stroke:none"
           inkscape:connector-curvature="0"
           d="m 986,995 v -4 h -16 v 4 z"
           id="path23099-0-2-9-2-9-2-8" />
        <path
           style="fill:#4a4a4a;stroke:none"
           inkscape:connector-curvature="0"
           d="m 986,1017 v -2 h -24 l -16,-8 v -8 h 4 18 v -2 h -22 q -0.85,0 -1.4,0.6 -0.6,0.55 -0.6,1.4 v 8 q 0,0.55 0.3,1.05 0.3,0.5 0.8,0.75 l 16,8 q 0.45,0.2 0.9,0.2 h 24 m 0,-42 v -2 h -24 q -0.45,0 -0.9,0.2 l -16,8 q -0.5,0.25 -0.8,0.75 -0.3,0.5 -0.3,1.05 v 8 q 0,0.85 0.6,1.45 0.55,0.55 1.4,0.55 h 22 v -2 h -18 -4 v -8 l 16,-8 z"
           id="path23101-0-4-5-8-4-5-5" />
        <path
           style="fill:#707070;stroke:none"
           inkscape:connector-curvature="0"
           d="m 986,1015 v -4 h -24 l -12,-6 v -6 h -4 v 8 l 16,8 h 24 m 0,-36 v -4 h -24 l -16,8 v 8 h 4 v -6 l 12,-6 z"
           id="path23103-7-8-2-4-2-1-0" />
        <path
           style="fill:#a1b6bb;stroke:none"
           inkscape:connector-curvature="0"
           d="m 986,999 v -4 h -16 v 4 z"
           id="path23105-8-3-3-7-7-7-1" />
      </g>
    </g>
    <g
       transform="matrix(-0.04161726,0,0,0.04161726,53.940164,-25.279034)"
       id="g19594-3-5-4-2-9-5-6-5">
      <g
         transform="translate(1e-5)"
         id="use19592-6-8-7-2-9-7-0-0">
        <path
           style="fill:#78888c;stroke:none"
           inkscape:connector-curvature="0"
           d="m 970,999 v -4 -4 h -2 v 2 4 2 z"
           id="path23095-4-7-3-2-4-1-7-5" />
        <path
           style="fill:#666666;stroke:none"
           inkscape:connector-curvature="0"
           d="m 986,991 v -12 h -24 l -12,6 v 6 h 18 2 16 m 0,20 v -12 h -16 -2 -18 v 6 l 12,6 z"
           id="path23097-8-3-4-6-7-7-1-9" />
        <path
           style="fill:#93a6aa;stroke:none"
           inkscape:connector-curvature="0"
           d="m 986,995 v -4 h -16 v 4 z"
           id="path23099-0-2-9-2-9-2-8-7" />
        <path
           style="fill:#4a4a4a;stroke:none"
           inkscape:connector-curvature="0"
           d="m 986,1017 v -2 h -24 l -16,-8 v -8 h 4 18 v -2 h -22 q -0.85,0 -1.4,0.6 -0.6,0.55 -0.6,1.4 v 8 q 0,0.55 0.3,1.05 0.3,0.5 0.8,0.75 l 16,8 q 0.45,0.2 0.9,0.2 h 24 m 0,-42 v -2 h -24 q -0.45,0 -0.9,0.2 l -16,8 q -0.5,0.25 -0.8,0.75 -0.3,0.5 -0.3,1.05 v 8 q 0,0.85 0.6,1.45 0.55,0.55 1.4,0.55 h 22 v -2 h -18 -4 v -8 l 16,-8 z"
           id="path23101-0-4-5-8-4-5-5-1" />
        <path
           style="fill:#707070;stroke:none"
           inkscape:connector-curvature="0"
           d="m 986,1015 v -4 h -24 l -12,-6 v -6 h -4 v 8 l 16,8 h 24 m 0,-36 v -4 h -24 l -16,8 v 8 h 4 v -6 l 12,-6 z"
           id="path23103-7-8-2-4-2-1-0-1" />
        <path
           style="fill:#a1b6bb;stroke:none"
           inkscape:connector-curvature="0"
           d="m 986,999 v -4 h -16 v 4 z"
           id="path23105-8-3-3-7-7-7-1-1" />
      </g>
    </g>
    <g
       transform="matrix(-0.04161726,0,0,0.04161726,53.961172,-28.422802)"
       id="g19594-3-5-4-2-9-5-6-5-5">
      <g
         transform="translate(1e-5)"
         id="use19592-6-8-7-2-9-7-0-0-1">
        <path
           style="fill:#78888c;stroke:none"
           inkscape:connector-curvature="0"
           d="m 970,999 v -4 -4 h -2 v 2 4 2 z"
           id="path23095-4-7-3-2-4-1-7-5-6" />
        <path
           style="fill:#666666;stroke:none"
           inkscape:connector-curvature="0"
           d="m 986,991 v -12 h -24 l -12,6 v 6 h 18 2 16 m 0,20 v -12 h -16 -2 -18 v 6 l 12,6 z"
           id="path23097-8-3-4-6-7-7-1-9-2" />
        <path
           style="fill:#93a6aa;stroke:none"
           inkscape:connector-curvature="0"
           d="m 986,995 v -4 h -16 v 4 z"
           id="path23099-0-2-9-2-9-2-8-7-5" />
        <path
           style="fill:#4a4a4a;stroke:none"
           inkscape:connector-curvature="0"
           d="m 986,1017 v -2 h -24 l -16,-8 v -8 h 4 18 v -2 h -22 q -0.85,0 -1.4,0.6 -0.6,0.55 -0.6,1.4 v 8 q 0,0.55 0.3,1.05 0.3,0.5 0.8,0.75 l 16,8 q 0.45,0.2 0.9,0.2 h 24 m 0,-42 v -2 h -24 q -0.45,0 -0.9,0.2 l -16,8 q -0.5,0.25 -0.8,0.75 -0.3,0.5 -0.3,1.05 v 8 q 0,0.85 0.6,1.45 0.55,0.55 1.4,0.55 h 22 v -2 h -18 -4 v -8 l 16,-8 z"
           id="path23101-0-4-5-8-4-5-5-1-7" />
        <path
           style="fill:#707070;stroke:none"
           inkscape:connector-curvature="0"
           d="m 986,1015 v -4 h -24 l -12,-6 v -6 h -4 v 8 l 16,8 h 24 m 0,-36 v -4 h -24 l -16,8 v 8 h 4 v -6 l 12,-6 z"
           id="path23103-7-8-2-4-2-1-0-1-2" />
        <path
           style="fill:#a1b6bb;stroke:none"
           inkscape:connector-curvature="0"
           d="m 986,999 v -4 h -16 v 4 z"
           id="path23105-8-3-3-7-7-7-1-1-1" />
      </g>
    </g>
    <g
       transform="matrix(-0.069494,0,0,0.069494,87.925745,-60.484936)"
       id="g19594-3-5-4-2-9-5-6-5-2">
      <g
         transform="translate(1e-5)"
         id="use19592-6-8-7-2-9-7-0-0-7">
        <path
           style="fill:#78888c;stroke:none"
           inkscape:connector-curvature="0"
           d="m 970,999 v -4 -4 h -2 v 2 4 2 z"
           id="path23095-4-7-3-2-4-1-7-5-68" />
        <path
           style="fill:#666666;stroke:none"
           inkscape:connector-curvature="0"
           d="m 986,991 v -12 h -24 l -12,6 v 6 h 18 2 16 m 0,20 v -12 h -16 -2 -18 v 6 l 12,6 z"
           id="path23097-8-3-4-6-7-7-1-9-6" />
        <path
           style="fill:#93a6aa;stroke:none"
           inkscape:connector-curvature="0"
           d="m 986,995 v -4 h -16 v 4 z"
           id="path23099-0-2-9-2-9-2-8-7-9" />
        <path
           style="fill:#4a4a4a;stroke:none"
           inkscape:connector-curvature="0"
           d="m 986,1017 v -2 h -24 l -16,-8 v -8 h 4 18 v -2 h -22 q -0.85,0 -1.4,0.6 -0.6,0.55 -0.6,1.4 v 8 q 0,0.55 0.3,1.05 0.3,0.5 0.8,0.75 l 16,8 q 0.45,0.2 0.9,0.2 h 24 m 0,-42 v -2 h -24 q -0.45,0 -0.9,0.2 l -16,8 q -0.5,0.25 -0.8,0.75 -0.3,0.5 -0.3,1.05 v 8 q 0,0.85 0.6,1.45 0.55,0.55 1.4,0.55 h 22 v -2 h -18 -4 v -8 l 16,-8 z"
           id="path23101-0-4-5-8-4-5-5-1-0" />
        <path
           style="fill:#707070;stroke:none"
           inkscape:connector-curvature="0"
           d="m 986,1015 v -4 h -24 l -12,-6 v -6 h -4 v 8 l 16,8 h 24 m 0,-36 v -4 h -24 l -16,8 v 8 h 4 v -6 l 12,-6 z"
           id="path23103-7-8-2-4-2-1-0-1-7" />
        <path
           style="fill:#a1b6bb;stroke:none"
           inkscape:connector-curvature="0"
           d="m 986,999 v -4 h -16 v 4 z"
           id="path23105-8-3-3-7-7-7-1-1-3" />
      </g>
    </g>
  </g>
</svg>
