<?xml version="1.0" encoding="UTF-8" standalone="no"?>
<!-- Created with Inkscape (http://www.inkscape.org/) -->

<svg
   xmlns:dc="http://purl.org/dc/elements/1.1/"
   xmlns:cc="http://creativecommons.org/ns#"
   xmlns:rdf="http://www.w3.org/1999/02/22-rdf-syntax-ns#"
   xmlns:svg="http://www.w3.org/2000/svg"
   xmlns="http://www.w3.org/2000/svg"
   xmlns:sodipodi="http://sodipodi.sourceforge.net/DTD/sodipodi-0.dtd"
   xmlns:inkscape="http://www.inkscape.org/namespaces/inkscape"
   width="210mm"
   height="297mm"
   viewBox="0 0 210 297"
   version="1.1"
   id="svg6556"
   inkscape:version="0.92.3 (2405546, 2018-03-11)"
   sodipodi:docname="yellowEngine.svg">
  <defs
     id="defs6550">
    <linearGradient
       gradientUnits="userSpaceOnUse"
       x1="-819.20001"
       x2="819.20001"
       spreadMethod="pad"
       gradientTransform="matrix(0,0.00571671,-0.00545832,0,3.225554,5.4375337)"
       id="gradient18">
      <stop
         offset="0"
         stop-color="#FF7E00"
         stop-opacity="0.5019607843137255"
         id="stop212" />
      <stop
         offset="0.3568627450980392"
         stop-color="#FFCC00"
         stop-opacity="0.30196078431372547"
         id="stop214" />
      <stop
         offset="1"
         stop-color="#FFCC00"
         stop-opacity="0"
         id="stop216" />
    </linearGradient>
  </defs>
  <sodipodi:namedview
     id="base"
     pagecolor="#ffffff"
     bordercolor="#666666"
     borderopacity="1.0"
     inkscape:pageopacity="0.0"
     inkscape:pageshadow="2"
     inkscape:zoom="7.9195959"
     inkscape:cx="72.176729"
     inkscape:cy="1035.1257"
     inkscape:document-units="mm"
     inkscape:current-layer="layer1"
     showgrid="false"
     inkscape:window-width="2736"
     inkscape:window-height="1699"
     inkscape:window-x="-13"
     inkscape:window-y="-13"
     inkscape:window-maximized="1" />
  <metadata
     id="metadata6553">
    <rdf:RDF>
      <cc:Work
         rdf:about="">
        <dc:format>image/svg+xml</dc:format>
        <dc:type
           rdf:resource="http://purl.org/dc/dcmitype/StillImage" />
        <dc:title></dc:title>
      </cc:Work>
    </rdf:RDF>
  </metadata>
  <g
     inkscape:label="Layer 1"
     inkscape:groupmode="layer"
     id="layer1">
    <path
       inkscape:connector-curvature="0"
       style="fill:url(#gradient18);stroke:none;stroke-width:0.26458332"
       d="m 3.529825,1.4026377 1.362604,5.87375 q 0.0926,0.396875 0.0926,0.79375 0,0.767292 -0.529167,1.296458 -0.515937,0.515938 -1.230312,0.542396 -0.714375,-0.02646 -1.230313,-0.542396 -0.529166,-0.529166 -0.529166,-1.296458 0,-0.396875 0.0926,-0.79375 l 1.362604,-5.87375 q 0.251354,-0.87312501 0.608542,0"
       id="path2540" />
  </g>
</svg>
