%YAML 1.1
%TAG !u! tag:unity3d.com,2011:
--- !u!21 &2100000
Material:
  serializedVersion: 6
  m_ObjectHideFlags: 0
  m_CorrespondingSourceObject: {fileID: 0}
  m_PrefabInstance: {fileID: 0}
  m_PrefabAsset: {fileID: 0}
  m_Name: Space
  m_Shader: {fileID: 4800000, guid: 79edd80bc4eb3884f80a5e174fce6bff, type: 3}
  m_ShaderKeywords: NEBULA_EFFECT
  m_LightmapFlags: 4
  m_EnableInstancingVariants: 0
  m_DoubleSidedGI: 0
  m_CustomRenderQueue: -1
  stringTagMap: {}
  disabledShaderPasses: []
  m_SavedProperties:
    serializedVersion: 3
    m_TexEnvs:
    - _Background:
        m_Texture: {fileID: 2800000, guid: 406e04e6cb6d3b7459a8a9a6824677d0, type: 3}
        m_Scale: {x: 1, y: 1}
        m_Offset: {x: 0, y: 0}
    - _BumpMap:
        m_Texture: {fileID: 0}
        m_Scale: {x: 1, y: 1}
        m_Offset: {x: 0, y: 0}
    - _DetailAlbedoMap:
        m_Texture: {fileID: 0}
        m_Scale: {x: 1, y: 1}
        m_Offset: {x: 0, y: 0}
    - _DetailMask:
        m_Texture: {fileID: 0}
        m_Scale: {x: 1, y: 1}
        m_Offset: {x: 0, y: 0}
    - _DetailNormalMap:
        m_Texture: {fileID: 0}
        m_Scale: {x: 1, y: 1}
        m_Offset: {x: 0, y: 0}
    - _EmissionMap:
        m_Texture: {fileID: 0}
        m_Scale: {x: 1, y: 1}
        m_Offset: {x: 0, y: 0}
    - _Foreground:
        m_Texture: {fileID: 2800000, guid: 4c952c2dbcb2ba449bc495ee501b08cb, type: 3}
        m_Scale: {x: 1, y: 1}
        m_Offset: {x: 0, y: 0}
    - _MainTex:
        m_Texture: {fileID: 0}
        m_Scale: {x: 1, y: 1}
        m_Offset: {x: 0, y: 0}
    - _MetallicGlossMap:
        m_Texture: {fileID: 0}
        m_Scale: {x: 1, y: 1}
        m_Offset: {x: 0, y: 0}
    - _NebulaTexture:
        m_Texture: {fileID: 2800000, guid: e34263a0309cf6647ae64fdb571877b1, type: 3}
        m_Scale: {x: 1, y: 1}
        m_Offset: {x: 0, y: 0}
    - _OcclusionMap:
        m_Texture: {fileID: 0}
        m_Scale: {x: 1, y: 1}
        m_Offset: {x: 0, y: 0}
    - _ParallaxMap:
        m_Texture: {fileID: 0}
        m_Scale: {x: 1, y: 1}
        m_Offset: {x: 0, y: 0}
    - _TextureSample0:
        m_Texture: {fileID: 2800000, guid: 406e04e6cb6d3b7459a8a9a6824677d0, type: 3}
        m_Scale: {x: 1, y: 1}
        m_Offset: {x: 0, y: 0}
    - _texcoord:
        m_Texture: {fileID: 0}
        m_Scale: {x: 1, y: 1}
        m_Offset: {x: 0, y: 0}
    m_Floats:
    - _BackSpeed: 1
    - _BumpScale: 1
    - _CameraSize: 0.5
    - _Cutoff: 0.5
    - _DetailNormalMapScale: 1
    - _DstBlend: 0
    - _ForeScale: 2
    - _ForeSpeed: 0.5
    - _GlossMapScale: 1
    - _Glossiness: 0.5
    - _GlossyReflections: 1
    - _Metallic: 0
    - _Mode: 0
    - _NebulaEffect: 1
    - _NebulaEffectOffset: 0
    - _NebulaGlow: 0.5
    - _NebulaMoveMult: 0.008
    - _OcclusionStrength: 1
    - _Parallax: 0.02
    - _SmoothnessTextureChannel: 0
    - _SpecularHighlights: 1
    - _SrcBlend: 1
    - _TestMult: 0.008
    - _UVSec: 0
    - _ZWrite: 1
    m_Colors:
    - _BaseColour: {r: 0, g: 0, b: 0, a: 1}
    - _Color: {r: 0.1650708, g: 0.13105199, b: 0.1792453, a: 1}
    - _EmissionColor: {r: 0, g: 0, b: 0, a: 1}
    - _NebulaColour0: {r: 0, g: 0.25490198, b: 1, a: 1}
    - _NebulaColour1: {r: 0.9764706, g: 0, b: 1, a: 1}
    - _Position: {r: 22.43805, g: -12.6812725, b: -10, a: 0}
    - _PrimaryOffset: {r: 0, g: -1.33, b: 0, a: 0}
  m_BuildTextureStacks: []
