<?xml version="1.0" encoding="UTF-8" standalone="no"?>
<!-- Created with Inkscape (http://www.inkscape.org/) -->

<svg
   xmlns:dc="http://purl.org/dc/elements/1.1/"
   xmlns:cc="http://creativecommons.org/ns#"
   xmlns:rdf="http://www.w3.org/1999/02/22-rdf-syntax-ns#"
   xmlns:svg="http://www.w3.org/2000/svg"
   xmlns="http://www.w3.org/2000/svg"
   xmlns:sodipodi="http://sodipodi.sourceforge.net/DTD/sodipodi-0.dtd"
   xmlns:inkscape="http://www.inkscape.org/namespaces/inkscape"
   width="210mm"
   height="297mm"
   viewBox="0 0 210 297"
   version="1.1"
   id="svg27726"
   inkscape:version="0.92.3 (2405546, 2018-03-11)"
   sodipodi:docname="char_goldwing.svg">
  <defs
     id="defs27720">
    <clipPath
       id="clipPath2630"
       clipPathUnits="userSpaceOnUse">
      <path
         inkscape:connector-curvature="0"
         id="path2628"
         d="M 0,8812.578 H 3677 V 0 H 0 Z" />
    </clipPath>
  </defs>
  <sodipodi:namedview
     id="base"
     pagecolor="#ffffff"
     bordercolor="#666666"
     borderopacity="1.0"
     inkscape:pageopacity="0.0"
     inkscape:pageshadow="2"
     inkscape:zoom="1.979899"
     inkscape:cx="224.26407"
     inkscape:cy="1075.989"
     inkscape:document-units="mm"
     inkscape:current-layer="layer1"
     showgrid="false"
     inkscape:window-width="2736"
     inkscape:window-height="1699"
     inkscape:window-x="-13"
     inkscape:window-y="-13"
     inkscape:window-maximized="1" />
  <metadata
     id="metadata27723">
    <rdf:RDF>
      <cc:Work
         rdf:about="">
        <dc:format>image/svg+xml</dc:format>
        <dc:type
           rdf:resource="http://purl.org/dc/dcmitype/StillImage" />
        <dc:title></dc:title>
      </cc:Work>
    </rdf:RDF>
  </metadata>
  <g
     inkscape:label="Layer 1"
     inkscape:groupmode="layer"
     id="layer1">
    <g
       id="g2632"
       transform="matrix(0.35277777,0,0,-0.35277777,28.85065,5.5663675)">
      <path
         d="M 0,0 C -1.591,2.913 -0.514,6.585 2.398,8.175 5.336,9.766 8.984,8.689 10.574,5.776 L 52.92,-72.013 c 1.616,-2.913 0.539,-6.584 -2.399,-8.175 -2.913,-1.591 -6.583,-0.514 -8.175,2.424 z"
         style="fill:#513c07;fill-opacity:1;fill-rule:nonzero;stroke:none"
         id="path2634"
         inkscape:connector-curvature="0" />
    </g>
    <g
       id="g2640"
       transform="matrix(0.35277777,0,0,-0.35277777,2.3068742,20.323803)">
      <path
         d="m 0,0 75.928,43.839 c 2.668,1.542 6.119,0.611 7.662,-2.056 l 3.549,-6.169 c 1.542,-2.691 0.636,-6.144 -2.057,-7.685 L 9.179,-15.886 c -2.668,-1.541 -6.12,-0.635 -7.661,2.056 l -3.575,6.168 C -3.599,-4.994 -2.668,-1.542 0,0"
         style="fill:#513c07;fill-opacity:1;fill-rule:evenodd;stroke:none"
         id="path2642"
         inkscape:connector-curvature="0" />
    </g>
    <g
       id="g2644"
       transform="matrix(0.35277777,0,0,-0.35277777,9.2577255,25.504874)">
      <path
         d="M 0,0 70.764,40.876 79.869,24.942 9.18,-15.886 c -2.668,-1.541 -6.12,-0.612 -7.686,2.056 l -3.55,6.168 C -3.598,-4.994 -2.668,-1.541 0,0"
         style="fill:#513c07;fill-opacity:1;fill-rule:evenodd;stroke:none"
         id="path2646"
         inkscape:connector-curvature="0" />
    </g>
    <g
       id="g2648"
       transform="matrix(0.35277777,0,0,-0.35277777,19.412822,28.768738)">
      <path
         d="M 0,0 53.116,30.646 62.222,14.734 9.179,-15.911 c -2.693,-1.542 -6.145,-0.61 -7.686,2.057 l -3.55,6.168 C -3.599,-5.018 -2.692,-1.567 0,0"
         style="fill:#513c07;fill-opacity:1;fill-rule:evenodd;stroke:none"
         id="path2650"
         inkscape:connector-curvature="0" />
    </g>
    <g
       id="g2664"
       transform="matrix(0.35277777,0,0,-0.35277777,53.944051,29.761984)">
      <path
         d="m 0,0 c -1.615,5.997 -5.531,11.383 -11.333,14.761 -5.825,3.352 -12.434,4.037 -18.456,2.422 -5.996,-1.615 -11.405,-5.507 -14.76,-11.332 -3.353,-5.802 -4.037,-12.435 -2.423,-18.455 1.617,-5.999 5.507,-11.409 11.333,-14.761 5.801,-3.353 12.435,-4.039 18.432,-2.424 6.021,1.616 11.406,5.509 14.76,11.334 C 0.931,-12.653 1.591,-6.021 0,0 M -5.287,25.235 C 3.427,20.194 9.253,12.116 11.676,3.108 c 2.398,-8.982 1.395,-18.921 -3.648,-27.61 -5.016,-8.714 -13.094,-14.562 -22.102,-16.963 -9.008,-2.422 -18.92,-1.394 -27.611,3.623 -8.713,5.042 -14.563,13.121 -16.961,22.127 -2.424,8.985 -1.397,18.921 3.621,27.612 5.018,8.712 13.121,14.563 22.103,16.961 9.008,2.424 18.921,1.397 27.635,-3.623"
         style="fill:#513c07;fill-opacity:1;fill-rule:nonzero;stroke:none"
         id="path2666"
         inkscape:connector-curvature="0" />
    </g>
    <g
       id="g2668"
       transform="matrix(0.35277777,0,0,-0.35277777,51.008128,22.707452)">
      <path
         d="m 0,0 c 14.539,-8.396 19.509,-26.949 11.113,-41.488 -8.371,-14.515 -26.949,-19.483 -41.465,-11.113 -14.515,8.396 -19.484,26.95 -11.113,41.489 C -33.068,3.403 -14.515,8.372 0,0"
         style="fill:#fcca09;fill-opacity:1;fill-rule:evenodd;stroke:none"
         id="path2670"
         inkscape:connector-curvature="0" />
    </g>
    <g
       id="g2672"
       transform="matrix(0.35277777,0,0,-0.35277777,40.395867,38.172488)">
      <path
         d="m 0,0 c -8.322,7.05 -10.672,19.264 -5.018,29.054 5.629,9.766 17.379,13.83 27.659,10.183 z M 29.838,35.076 C 38.135,28.002 40.485,15.813 34.855,6.021 29.201,-3.745 17.452,-7.832 7.195,-4.16 Z"
         style="fill:#513c07;fill-opacity:1;fill-rule:evenodd;stroke:none"
         id="path2674"
         inkscape:connector-curvature="0" />
    </g>
    <g
       id="g2784"
       transform="matrix(0.35277777,0,0,-0.35277777,74.906249,-3.9282484)">
      <path
         d="m 0,0 c 11.938,0 27.857,7.562 42.714,15.256 24.938,12.867 25.469,13.265 50.408,0.397 l 0.795,-0.397 C 108.774,7.562 124.825,0 136.631,0 c 23.878,0 43.377,19.367 43.377,43.378 0,81.713 -223.253,81.713 -223.253,0 C -43.245,19.367 -23.877,0 0,0"
         style="fill:#fefefe;fill-opacity:1;fill-rule:evenodd;stroke:none"
         id="path2786"
         inkscape:connector-curvature="0" />
    </g>
  </g>
</svg>
