<?xml version="1.0" encoding="UTF-8" standalone="no"?>
<!-- Created with Inkscape (http://www.inkscape.org/) -->

<svg
   xmlns:dc="http://purl.org/dc/elements/1.1/"
   xmlns:cc="http://creativecommons.org/ns#"
   xmlns:rdf="http://www.w3.org/1999/02/22-rdf-syntax-ns#"
   xmlns:svg="http://www.w3.org/2000/svg"
   xmlns="http://www.w3.org/2000/svg"
   xmlns:sodipodi="http://sodipodi.sourceforge.net/DTD/sodipodi-0.dtd"
   xmlns:inkscape="http://www.inkscape.org/namespaces/inkscape"
   width="210mm"
   height="297mm"
   viewBox="0 0 210 297"
   version="1.1"
   id="svg26759"
   inkscape:version="0.92.3 (2405546, 2018-03-11)"
   sodipodi:docname="char_pinkBody.svg">
  <defs
     id="defs26753">
    <clipPath
       id="clipPath2838"
       clipPathUnits="userSpaceOnUse">
      <path
         inkscape:connector-curvature="0"
         id="path2836"
         d="M 0,8812.578 H 3677 V 0 H 0 Z" />
    </clipPath>
  </defs>
  <sodipodi:namedview
     id="base"
     pagecolor="#ffffff"
     bordercolor="#666666"
     borderopacity="1.0"
     inkscape:pageopacity="0.0"
     inkscape:pageshadow="2"
     inkscape:zoom="0.98994949"
     inkscape:cx="316.73887"
     inkscape:cy="718.92141"
     inkscape:document-units="mm"
     inkscape:current-layer="layer1"
     showgrid="false"
     inkscape:window-width="2736"
     inkscape:window-height="1699"
     inkscape:window-x="-13"
     inkscape:window-y="-13"
     inkscape:window-maximized="1" />
  <metadata
     id="metadata26756">
    <rdf:RDF>
      <cc:Work
         rdf:about="">
        <dc:format>image/svg+xml</dc:format>
        <dc:type
           rdf:resource="http://purl.org/dc/dcmitype/StillImage" />
        <dc:title></dc:title>
      </cc:Work>
    </rdf:RDF>
  </metadata>
  <g
     inkscape:label="Layer 1"
     inkscape:groupmode="layer"
     id="layer1">
    <g
       id="g2840"
       transform="matrix(0.35277777,0,0,-0.35277777,43.966415,149.94762)">
      <path
         d="m 0,0 c -3.146,-7.625 -5.754,-15.931 -7.257,-24.037 -1.36,-7.455 -1.558,-16.895 5.953,-21.26 7.512,-4.338 15.619,0.567 21.373,5.471 6.293,5.357 12.133,11.764 17.206,18.311 5.585,6.69 11.368,15.222 12.984,23.925 C 51.987,11.877 48.416,21.26 39.94,26.164 31.465,31.068 21.572,29.452 14.23,23.216 7.483,17.462 2.977,8.192 0,0"
         style="fill:#6d1945;fill-opacity:1;fill-rule:evenodd;stroke:none"
         id="path2842"
         inkscape:connector-curvature="0" />
    </g>
    <g
       id="g2844"
       transform="matrix(0.35277777,0,0,-0.35277777,56.476585,143.45778)">
      <path
         d="m 0,0 c -4.819,2.807 -10.63,2.041 -15.421,-2.012 -4.648,-3.968 -8.589,-11.112 -11.679,-19.616 -3.429,-8.333 -5.669,-16.327 -6.802,-22.45 -1.106,-6.067 -0.823,-10.432 1.615,-11.849 2.438,-1.389 6.378,0.538 11.084,4.535 4.733,4.026 10.516,9.978 16.016,17.093 5.838,6.945 10.062,13.918 11.167,19.928 C 7.114,-8.191 4.818,-2.777 0,0"
         style="fill:#f185b9;fill-opacity:1;fill-rule:evenodd;stroke:none"
         id="path2846"
         inkscape:connector-curvature="0" />
    </g>
    <g
       id="g2848"
       transform="matrix(0.35277777,0,0,-0.35277777,48.80642,161.91762)">
      <path
         d="M 0,0 C 0.511,-0.283 1.162,-0.113 1.446,0.397 1.758,0.907 1.588,1.56 1.077,1.843 l -12.699,7.342 c -0.51,0.283 -1.162,0.113 -1.474,-0.397 -0.283,-0.511 -0.113,-1.162 0.397,-1.446 z"
         style="fill:#6d1945;fill-opacity:1;fill-rule:nonzero;stroke:none"
         id="path2850"
         inkscape:connector-curvature="0" />
    </g>
    <g
       id="g2852"
       transform="matrix(0.35277777,0,0,-0.35277777,69.046374,154.88757)">
      <path
         d="m 0,0 c 1.106,-8.163 2.977,-16.667 5.755,-24.435 2.522,-7.143 7.087,-15.419 15.761,-15.419 8.702,0 13.265,8.276 15.789,15.419 2.777,7.768 4.62,16.272 5.725,24.463 1.532,8.589 2.268,18.851 -0.709,27.185 C 39.09,36.284 31.295,42.634 21.516,42.634 11.735,42.634 3.969,36.284 0.737,27.213 -2.239,18.879 -1.502,8.617 0,0"
         style="fill:#6d1945;fill-opacity:1;fill-rule:evenodd;stroke:none"
         id="path2854"
         inkscape:connector-curvature="0" />
    </g>
    <g
       id="g2856"
       transform="matrix(0.35277777,0,0,-0.35277777,76.6366,143.00749)">
      <path
         d="m 0,0 c -5.556,0 -10.233,-3.544 -12.331,-9.468 -2.041,-5.754 -1.899,-13.918 -0.312,-22.818 1.191,-8.93 3.232,-16.951 5.33,-22.819 2.069,-5.812 4.535,-9.468 7.313,-9.468 2.806,0 5.272,3.656 7.342,9.468 2.097,5.868 4.138,13.889 5.329,22.819 1.587,8.9 1.757,17.064 -0.313,22.818 C 10.261,-3.544 5.584,0 0,0"
         style="fill:#f185b9;fill-opacity:1;fill-rule:evenodd;stroke:none"
         id="path2858"
         inkscape:connector-curvature="0" />
    </g>
    <g
       id="g2860"
       transform="matrix(0.35277777,0,0,-0.35277777,79.226624,162.82747)">
      <path
         d="M 0,0 C 0.595,0 1.077,0.481 1.077,1.077 1.077,1.645 0.595,2.126 0,2.126 h -14.655 c -0.596,0 -1.077,-0.481 -1.077,-1.049 0,-0.596 0.481,-1.077 1.077,-1.077 z"
         style="fill:#6d1945;fill-opacity:1;fill-rule:nonzero;stroke:none"
         id="path2862"
         inkscape:connector-curvature="0" />
    </g>
    <g
       id="g2864"
       transform="matrix(0.35277777,0,0,-0.35277777,90.114863,120.1851)">
      <path
         d="m 0,0 c 0.17,-0.227 0.369,-0.426 0.539,-0.652 5.386,-6.549 10.857,-14.797 12.416,-23.274 1.757,-9.467 -1.814,-18.849 -10.29,-23.724 -8.476,-4.905 -18.397,-3.29 -25.71,2.947 -2.778,2.353 -5.074,5.217 -7.03,8.25 -3.005,4.619 -5.329,9.779 -7.2,14.937 -3.147,7.655 -5.784,15.932 -7.257,24.067 -1.389,7.426 -1.587,16.894 5.953,21.23 7.512,4.338 15.591,-0.537 21.373,-5.441 C -10.913,12.953 -5.045,6.547 0,0"
         style="fill:#6d1945;fill-opacity:1;fill-rule:evenodd;stroke:none"
         id="path2866"
         inkscape:connector-curvature="0" />
    </g>
    <g
       id="g2868"
       transform="matrix(0.35277777,0,0,-0.35277777,81.994765,116.1254)">
      <path
         d="m 0,0 c 4.734,-4.053 10.517,-9.979 16.017,-17.121 0.226,-0.227 0.424,-0.483 0.623,-0.736 5.499,-6.69 9.467,-13.352 10.516,-19.192 1.134,-6.18 -1.134,-11.564 -5.953,-14.371 -4.818,-2.777 -10.658,-2.041 -15.42,2.041 -1.899,1.615 -3.685,3.742 -5.329,6.293 -2.409,3.713 -4.535,8.277 -6.35,13.322 -3.429,8.307 -5.698,16.299 -6.803,22.422 -1.134,6.067 -0.822,10.461 1.616,11.85 C -8.674,5.924 -4.705,3.998 0,0"
         style="fill:#f185b9;fill-opacity:1;fill-rule:evenodd;stroke:none"
         id="path2870"
         inkscape:connector-curvature="0" />
    </g>
    <g
       id="g2872"
       transform="matrix(0.35277777,0,0,-0.35277777,89.90503,125.29555)">
      <path
         d="M 0,0 C 0.481,0.369 1.134,0.256 1.474,-0.227 1.813,-0.707 1.7,-1.389 1.247,-1.729 l -22.592,-16.242 c -0.482,-0.34 -1.134,-0.226 -1.474,0.256 -0.368,0.481 -0.255,1.133 0.226,1.473 z"
         style="fill:#6d1945;fill-opacity:1;fill-rule:nonzero;stroke:none"
         id="path2874"
         inkscape:connector-curvature="0" />
    </g>
    <g
       id="g2876"
       transform="matrix(0.35277777,0,0,-0.35277777,65.772667,157.44623)">
      <path
         d="m 0,0 c 27.751,0 55.474,10.035 78.406,30.104 3.232,2.834 3.855,6.236 2.523,10.035 -10.006,28.601 -19.786,58.989 -34.554,85.55 l -0.114,0.226 -0.141,0.227 C 35.546,142.838 17.773,151.2 0,151.2 c -17.802,0 -35.575,-8.362 -46.148,-25.058 l -0.114,-0.227 -0.141,-0.226 C -61.172,99.128 -70.951,68.74 -80.958,40.139 -82.29,36.34 -81.667,32.938 -78.407,30.104 -55.502,10.035 -27.751,0 0,0"
         style="fill:#6d1945;fill-opacity:1;fill-rule:evenodd;stroke:none"
         id="path2878"
         inkscape:connector-curvature="0" />
    </g>
    <g
       id="g2880"
       transform="matrix(0.35277777,0,0,-0.35277777,52.212595,114.66603)">
      <path
         d="m 0,0 c -13.975,-25.115 -24.718,-59.386 -33.987,-84.303 42.378,-37.077 102.359,-37.162 144.821,0 C 101.565,-59.386 90.822,-25.115 76.875,0 59.244,27.864 17.49,27.694 0,0"
         style="fill:#f9b1d6;fill-opacity:1;fill-rule:evenodd;stroke:none"
         id="path2882"
         inkscape:connector-curvature="0" />
    </g>
    <g
       id="g2884"
       transform="matrix(0.35277777,0,0,-0.35277777,87.042521,129.57608)">
      <path
         d="M 0,0 C 0.652,0 1.163,0.51 1.163,1.134 1.163,1.757 0.652,2.268 0,2.268 h -26.787 c -0.312,0 -0.595,-0.114 -0.794,-0.341 l -13.72,-13.719 c -0.226,-0.228 -0.34,-0.511 -0.34,-0.794 v -0.028 -8.561 c 0,-0.312 0.114,-0.624 0.34,-0.822 l 17.689,-17.689 c 0.311,-0.311 0.765,-0.396 1.162,-0.283 l 33.364,8.957 c 0.595,0.171 0.963,0.794 0.794,1.39 -0.143,0.623 -0.766,0.964 -1.39,0.821 l -32.797,-8.787 -16.866,16.866 v 7.654 L -26.305,0 Z m -120.614,0 c -0.624,0 -1.134,0.51 -1.134,1.134 0,0.623 0.51,1.134 1.134,1.134 h 26.787 c 0.312,0 0.596,-0.114 0.823,-0.341 l 13.719,-13.719 c 0.227,-0.228 0.312,-0.511 0.312,-0.794 v -0.028 -8.561 c 0,-0.312 -0.113,-0.624 -0.312,-0.822 l -17.688,-17.689 c -0.312,-0.311 -0.765,-0.396 -1.162,-0.283 l -33.364,8.957 c -0.624,0.171 -0.992,0.794 -0.822,1.39 0.17,0.623 0.794,0.964 1.389,0.821 l 32.797,-8.787 16.894,16.866 v 7.654 L -94.309,0 Z"
         style="fill:#6d1945;fill-opacity:1;fill-rule:evenodd;stroke:none"
         id="path2886"
         inkscape:connector-curvature="0" />
    </g>
    <g
       id="g2888"
       transform="matrix(0.35277777,0,0,-0.35277777,65.772667,145.48625)">
      <path
         d="M 0,0 C 15.534,0 28.205,12.671 28.205,28.205 28.205,43.767 15.534,56.438 0,56.438 -15.563,56.438 -28.233,43.767 -28.233,28.205 -28.233,12.671 -15.563,0 0,0"
         style="fill:#fefefe;fill-opacity:1;fill-rule:evenodd;stroke:none"
         id="path2890"
         inkscape:connector-curvature="0" />
    </g>
    <g
       id="g2892"
       transform="matrix(0.35277777,0,0,-0.35277777,72.522647,128.77612)">
      <path
         d="m 0,0 c -4.904,4.903 -11.679,7.937 -19.134,7.937 -7.484,0 -14.258,-3.034 -19.162,-7.937 -4.876,-4.904 -7.909,-11.679 -7.909,-19.162 0,-7.455 3.033,-14.231 7.909,-19.134 4.904,-4.904 11.678,-7.937 19.162,-7.937 7.455,0 14.23,3.033 19.134,7.937 4.904,4.903 7.937,11.679 7.937,19.134 C 7.937,-11.679 4.904,-4.904 0,0 m -19.134,10.204 c 8.107,0 15.449,-3.288 20.75,-8.589 5.301,-5.329 8.589,-12.671 8.589,-20.777 0,-8.079 -3.288,-15.421 -8.589,-20.75 -5.329,-5.301 -12.643,-8.589 -20.75,-8.589 -8.107,0 -15.449,3.288 -20.778,8.589 -5.301,5.329 -8.589,12.642 -8.589,20.75 0,8.106 3.288,15.448 8.589,20.777 5.329,5.301 12.671,8.589 20.778,8.589"
         style="fill:#6d1945;fill-opacity:1;fill-rule:evenodd;stroke:none"
         id="path2894"
         inkscape:connector-curvature="0" />
    </g>
    <g
       id="g2896"
       transform="matrix(0.35277777,0,0,-0.35277777,71.672558,141.4262)">
      <path
         d="m 0,0 c 1.786,1.758 4.677,1.758 6.435,0 1.786,-1.786 1.786,-4.677 0,-6.463 -3.033,-3.061 -6.662,-5.471 -10.63,-7.115 -3.969,-1.615 -8.221,-2.494 -12.529,-2.494 -4.338,0 -8.589,0.879 -12.529,2.494 -3.969,1.644 -7.597,4.054 -10.659,7.115 -1.786,1.786 -1.786,4.677 0,6.463 1.786,1.758 4.678,1.758 6.463,0 2.211,-2.239 4.847,-3.969 7.654,-5.159 2.835,-1.162 5.896,-1.786 9.071,-1.786 3.146,0 6.236,0.624 9.071,1.786 2.806,1.19 5.414,2.92 7.653,5.159 m -33.449,33.421 c -1.785,-1.786 -4.677,-1.786 -6.463,0 -1.786,1.785 -1.786,4.677 0,6.463 3.062,3.061 6.69,5.471 10.659,7.114 3.94,1.616 8.191,2.495 12.529,2.495 4.308,0 8.56,-0.879 12.529,-2.495 3.968,-1.643 7.597,-4.053 10.658,-7.114 1.758,-1.786 1.758,-4.678 0,-6.463 -1.786,-1.786 -4.677,-1.786 -6.463,0 -2.239,2.239 -4.847,3.968 -7.653,5.13 -2.835,1.19 -5.925,1.814 -9.071,1.814 -3.175,0 -6.236,-0.624 -9.071,-1.814 -2.807,-1.162 -5.414,-2.891 -7.654,-5.13"
         style="fill:#6d1945;fill-opacity:1;fill-rule:evenodd;stroke:none"
         id="path2898"
         inkscape:connector-curvature="0" />
    </g>
    <g
       id="g2900"
       transform="matrix(0.35277777,0,0,-0.35277777,103.54712,15.671229)">
      <path
         d="M 0,0 V 0 C 13.208,7.626 30.22,3.047 37.831,-10.137 L 63.145,-53.98 c 7.61,-13.183 3.056,-30.182 -10.151,-37.807 -13.183,-7.611 -30.206,-3.07 -37.817,10.112 l -25.314,43.844 C -17.748,-24.647 -13.183,-7.61 0,0"
         style="fill:#6d1945;fill-opacity:1;fill-rule:evenodd;stroke:none"
         id="path2902"
         inkscape:connector-curvature="0" />
    </g>
    <g
       id="g2904"
       transform="matrix(0.35277777,0,0,-0.35277777,27.986676,15.66883)">
      <path
         d="m 0,0 v 0 c 13.208,-7.625 17.748,-24.647 10.137,-37.831 l -25.314,-43.844 c -7.611,-13.182 -24.609,-17.738 -37.817,-10.112 -13.182,7.61 -17.761,24.624 -10.151,37.807 l 25.314,43.843 C -30.22,3.047 -13.183,7.611 0,0"
         style="fill:#6d1945;fill-opacity:1;fill-rule:evenodd;stroke:none"
         id="path2906"
         inkscape:connector-curvature="0" />
    </g>
    <g
       id="g2908"
       transform="matrix(0.35277777,0,0,-0.35277777,115.59907,6.5159052)">
      <path
         d="m 0,0 v 0 c 2.579,0 4.677,-2.098 4.677,-4.677 v -68.174 c 0,-2.55 -2.098,-4.677 -4.677,-4.677 -2.579,0 -4.677,2.127 -4.677,4.677 V -4.677 C -4.677,-2.098 -2.579,0 0,0"
         style="fill:#6d1945;fill-opacity:1;fill-rule:evenodd;stroke:none"
         id="path2910"
         inkscape:connector-curvature="0" />
    </g>
    <g
       id="g2912"
       transform="matrix(0.35277777,0,0,-0.35277777,15.936598,6.5159052)">
      <path
         d="m 0,0 v 0 c 2.579,0 4.677,-2.098 4.677,-4.677 v -68.174 c 0,-2.55 -2.098,-4.677 -4.677,-4.677 -2.579,0 -4.677,2.127 -4.677,4.677 V -4.677 C -4.677,-2.098 -2.579,0 0,0"
         style="fill:#6d1945;fill-opacity:1;fill-rule:evenodd;stroke:none"
         id="path2914"
         inkscape:connector-curvature="0" />
    </g>
    <g
       id="g2916"
       transform="matrix(0.35277777,0,0,-0.35277777,102.19905,24.336686)">
      <path
         d="m 0,0 c -26.398,26.397 -63.01,42.714 -103.336,42.714 -40.326,0 -76.805,-16.317 -103.335,-42.714 -26.398,-26.53 -42.714,-63.01 -42.714,-103.336 0,-40.326 16.316,-76.937 42.714,-103.335 26.53,-26.397 63.009,-42.847 103.335,-42.847 40.326,0 76.938,16.45 103.336,42.847 26.397,26.398 42.846,63.009 42.846,103.335 C 42.846,-63.01 26.397,-26.53 0,0 m -103.336,59.826 c 45.102,0 85.826,-18.174 115.407,-47.755 29.581,-29.581 47.887,-70.305 47.887,-115.407 0,-45.101 -18.306,-85.825 -47.887,-115.406 -29.581,-29.582 -70.305,-47.755 -115.407,-47.755 -45.101,0 -85.826,18.173 -115.407,47.755 -29.448,29.581 -47.755,70.305 -47.755,115.406 0,45.102 18.307,85.826 47.755,115.407 29.581,29.581 70.306,47.755 115.407,47.755"
         style="fill:#6d1945;fill-opacity:1;fill-rule:nonzero;stroke:none"
         id="path2918"
         inkscape:connector-curvature="0" />
    </g>
    <g
       id="g2920"
       transform="matrix(0.35277777,0,0,-0.35277777,65.74441,115.3561)">
      <path
         d="m 0,0 c 85.163,0 154.672,69.51 154.672,154.672 0,85.163 -69.509,154.672 -154.672,154.672 -85.162,0 -154.672,-69.509 -154.672,-154.672 C -154.672,69.51 -85.162,0 0,0"
         style="fill:#f9b1d6;fill-opacity:1;fill-rule:evenodd;stroke:none"
         id="path2922"
         inkscape:connector-curvature="0" />
    </g>
    <g
       id="g2924"
       transform="matrix(0.35277777,0,0,-0.35277777,57.087067,8.8468491)">
      <path
         d="m 0,0 c -0.265,-1.062 0.531,-2.123 1.592,-2.388 1.194,-0.265 2.255,0.531 2.52,1.724 C 4.245,0.397 3.582,1.459 2.388,1.725 1.327,1.989 0.133,1.193 0,0 m -2.388,-16.847 c -0.398,-1.061 0.265,-2.256 1.327,-2.653 1.061,-0.398 2.255,0.266 2.653,1.326 0.398,1.062 -0.265,2.255 -1.327,2.653 -1.061,0.398 -2.255,-0.265 -2.653,-1.326 m -4.51,-16.449 c -0.53,-1.061 0,-2.388 0.929,-2.786 1.061,-0.53 2.387,-0.132 2.785,0.929 0.531,1.061 0.133,2.255 -0.928,2.786 -1.061,0.53 -2.255,0 -2.786,-0.929 m -6.632,-15.785 c -0.531,-1.062 -0.266,-2.256 0.663,-2.919 0.929,-0.663 2.255,-0.265 2.918,0.663 0.531,0.929 0.265,2.256 -0.663,2.919 -0.929,0.53 -2.255,0.265 -2.918,-0.663 m -8.49,-14.857 c -0.796,-0.796 -0.664,-2.123 0.265,-2.918 0.929,-0.665 2.123,-0.665 2.919,0.264 0.795,0.929 0.663,2.256 -0.266,2.919 -0.928,0.796 -2.122,0.663 -2.918,-0.265 m -10.347,-13.531 c -0.928,-0.796 -0.928,-2.123 -0.133,-2.919 0.796,-0.927 2.123,-0.927 2.919,-0.132 0.928,0.796 0.928,2.123 0.132,2.918 -0.796,0.796 -2.122,0.929 -2.918,0.133 m -12.071,-12.204 c -0.929,-0.663 -1.062,-1.99 -0.398,-2.918 0.663,-0.929 1.857,-1.061 2.785,-0.398 1.062,0.663 1.195,1.857 0.531,2.919 -0.663,0.927 -1.99,1.06 -2.918,0.397 m -13.398,-10.479 c -1.061,-0.531 -1.459,-1.858 -0.929,-2.786 0.531,-1.061 1.857,-1.459 2.919,-0.928 0.928,0.53 1.326,1.856 0.796,2.785 -0.531,1.061 -1.858,1.459 -2.786,0.929 m -14.725,-8.755 c -1.061,-0.399 -1.591,-1.592 -1.193,-2.654 0.398,-1.061 1.591,-1.591 2.653,-1.193 1.061,0.398 1.592,1.592 1.194,2.652 -0.398,1.062 -1.592,1.592 -2.654,1.195 m -15.652,-6.766 c -1.194,-0.265 -1.857,-1.326 -1.592,-2.388 0.265,-1.193 1.326,-1.856 2.52,-1.591 1.061,0.265 1.857,1.327 1.592,2.52 -0.265,1.062 -1.459,1.725 -2.52,1.459 m -16.449,-4.642 c -1.194,-0.133 -1.99,-1.194 -1.857,-2.255 0.132,-1.195 1.061,-1.991 2.255,-1.858 1.194,0.133 1.99,1.062 1.857,2.255 -0.133,1.194 -1.194,1.99 -2.255,1.858 m -16.98,-2.521 c -1.061,0 -1.989,-0.929 -2.122,-2.122 0,-1.062 0.929,-1.99 2.122,-2.123 1.062,0 2.123,0.929 2.123,2.123 0,1.061 -0.929,2.122 -2.123,2.122 M 49.081,0 c 0.266,-1.062 -0.53,-2.123 -1.592,-2.388 -1.194,-0.265 -2.255,0.531 -2.387,1.724 -0.266,1.061 0.53,2.123 1.591,2.389 C 47.887,1.989 48.949,1.193 49.081,0 m 2.388,-16.847 c 0.398,-1.061 -0.265,-2.256 -1.326,-2.653 -1.062,-0.398 -2.256,0.266 -2.654,1.326 -0.265,1.062 0.266,2.255 1.46,2.653 1.061,0.398 2.255,-0.265 2.52,-1.326 m 4.51,-16.449 c 0.531,-1.061 0.133,-2.388 -0.929,-2.786 -1.061,-0.53 -2.255,-0.132 -2.785,0.929 -0.531,1.061 0,2.255 0.928,2.786 1.061,0.53 2.388,0 2.786,-0.929 m 6.633,-15.785 c 0.663,-1.062 0.265,-2.256 -0.664,-2.919 -0.928,-0.663 -2.255,-0.265 -2.918,0.663 -0.53,0.929 -0.265,2.256 0.663,2.919 1.061,0.53 2.255,0.265 2.919,-0.663 m 8.49,-14.857 c 0.795,-0.796 0.663,-2.123 -0.266,-2.918 -0.796,-0.665 -2.123,-0.665 -2.919,0.264 -0.663,0.929 -0.53,2.256 0.266,2.919 0.929,0.796 2.255,0.663 2.919,-0.265 m 10.346,-13.531 c 0.929,-0.796 0.929,-2.123 0.133,-2.919 -0.796,-0.927 -1.99,-0.927 -2.918,-0.132 -0.796,0.796 -0.929,2.123 -0.133,2.918 0.796,0.796 2.122,0.929 2.918,0.133 M 93.52,-89.673 c 0.928,-0.663 1.193,-1.99 0.53,-2.918 -0.663,-0.929 -1.989,-1.061 -2.918,-0.398 -0.929,0.663 -1.194,1.857 -0.531,2.919 0.664,0.927 1.99,1.06 2.919,0.397 m 13.397,-10.479 c 1.062,-0.531 1.459,-1.858 0.929,-2.786 -0.531,-1.061 -1.857,-1.459 -2.786,-0.928 -1.061,0.53 -1.459,1.856 -0.928,2.785 0.53,1.061 1.857,1.459 2.785,0.929 m 14.725,-8.755 c 1.061,-0.399 1.724,-1.592 1.193,-2.654 -0.397,-1.061 -1.591,-1.591 -2.652,-1.193 -1.062,0.398 -1.592,1.592 -1.194,2.652 0.398,1.062 1.592,1.592 2.653,1.195 m 15.785,-6.766 c 1.061,-0.265 1.725,-1.326 1.459,-2.388 -0.265,-1.193 -1.326,-1.856 -2.52,-1.591 -1.061,0.265 -1.724,1.327 -1.459,2.52 0.265,1.062 1.326,1.725 2.52,1.459 m 16.316,-4.642 c 1.194,-0.133 1.99,-1.194 1.858,-2.255 0,-1.195 -1.062,-1.991 -2.256,-1.858 -1.061,0.133 -1.99,1.062 -1.857,2.255 0.133,1.194 1.194,1.99 2.255,1.858 m 16.98,-2.521 c 1.061,0 2.122,-0.929 2.122,-2.122 0,-1.062 -0.928,-1.99 -1.99,-2.123 -1.193,0 -2.122,0.929 -2.254,2.123 0,1.061 0.928,2.122 2.122,2.122 m 11.408,-13 c 0.663,0 1.194,0.531 1.194,1.062 0,0.663 -0.531,1.194 -1.194,1.194 -39.53,0 -75.479,16.051 -101.479,42.05 -26,26 -42.05,61.948 -42.05,101.611 0,0.663 -0.531,1.194 -1.194,1.194 -0.663,0 -1.194,-0.531 -1.194,-1.194 0,-40.326 16.316,-76.806 42.847,-103.203 26.397,-26.398 62.876,-42.714 103.07,-42.714 m -315.181,0 c -0.663,0 -1.194,0.531 -1.194,1.062 0,0.663 0.531,1.194 1.194,1.194 39.663,0 75.479,16.051 101.479,42.05 26,26 42.05,61.948 42.05,101.611 0,0.663 0.531,1.194 1.194,1.194 0.663,0 1.194,-0.531 1.194,-1.194 0,-40.326 -16.316,-76.806 -42.714,-103.203 -26.397,-26.398 -62.877,-42.714 -103.203,-42.714"
         style="fill:#6d1945;fill-opacity:1;fill-rule:nonzero;stroke:none"
         id="path2926"
         inkscape:connector-curvature="0" />
    </g>
    <g
       id="g2928"
       transform="matrix(0.35277777,0,0,-0.35277777,41.644255,68.746715)">
      <path
         d="m 0,0 c 11.938,0 27.857,7.562 42.714,15.256 24.938,12.867 25.469,13.265 50.408,0.397 l 0.795,-0.397 C 108.774,7.562 124.825,0 136.631,0 c 23.877,0 43.377,19.367 43.377,43.378 0,81.713 -223.253,81.713 -223.253,0 C -43.245,19.367 -23.877,0 0,0"
         style="fill:#fefefe;fill-opacity:1;fill-rule:evenodd;stroke:none"
         id="path2930"
         inkscape:connector-curvature="0" />
    </g>
    <g
       id="g2932"
       transform="matrix(0.35277777,0,0,-0.35277777,85.897722,78.365413)">
      <path
         d="m 0,0 c 6.066,5.471 13.748,-0.228 16.045,-8.845 2.324,-8.617 0.481,-19.899 -5.868,-29.083 -5.839,-8.447 -16.214,-14.627 -28.148,-18.113 -12.104,-2.949 -23.953,-3.09 -33.024,0.027 -9.553,3.317 -16.271,9.723 -18.028,16.243 -1.757,6.52 1.729,14.626 9.893,14.117 C -37.615,-27.043 -16.044,-14.486 0,0"
         style="fill:#6d1945;fill-opacity:1;fill-rule:evenodd;stroke:none"
         id="path2934"
         inkscape:connector-curvature="0" />
    </g>
    <g
       id="g2936"
       transform="matrix(0.35277777,0,0,-0.35277777,34.907893,58.637092)">
      <path
         d="m 0,0 c 0.992,-3.714 -1.219,-7.541 -4.933,-8.562 -3.741,-0.991 -7.568,1.22 -8.56,4.961 -0.368,1.389 -0.68,2.892 -0.878,4.479 -0.228,1.617 -0.341,3.146 -0.341,4.537 0,9.58 3.912,18.282 10.233,24.603 v 0.029 c 6.293,6.294 14.996,10.206 24.633,10.206 9.61,0 18.312,-3.912 24.633,-10.206 0.113,-0.143 0.256,-0.283 0.369,-0.426 6.094,-6.264 9.836,-14.825 9.836,-24.206 0,-3.886 -3.146,-7.003 -7.002,-7.003 -3.883,0 -7.029,3.117 -7.029,7.003 0,5.61 -2.183,10.685 -5.755,14.427 -0.113,0.086 -0.227,0.199 -0.34,0.312 -3.77,3.741 -8.985,6.095 -14.712,6.095 -5.754,0 -10.969,-2.354 -14.74,-6.095 H 5.386 C 1.645,16.383 -0.68,11.168 -0.68,5.415 -0.68,4.366 -0.623,3.457 -0.538,2.665 -0.425,1.842 -0.255,0.963 0,0"
         style="fill:#6d1945;fill-opacity:1;fill-rule:nonzero;stroke:none"
         id="path2938"
         inkscape:connector-curvature="0" />
    </g>
    <g
       id="g2940"
       transform="matrix(0.35277777,0,0,-0.35277777,37.857927,51.847496)">
      <path
         d="m 0,0 c 3.628,0 6.576,2.949 6.576,6.576 0,3.602 -2.948,6.549 -6.576,6.549 -3.6,0 -6.548,-2.947 -6.548,-6.549 C -6.548,2.949 -3.6,0 0,0"
         style="fill:#ffffff;fill-opacity:1;fill-rule:evenodd;stroke:none"
         id="path2942"
         inkscape:connector-curvature="0" />
    </g>
    <g
       id="g2944"
       transform="matrix(0.35277777,0,0,-0.35277777,89.767941,63.236961)">
      <path
         d="M 0,0 C 15.335,0 27.836,12.501 27.836,27.835 27.836,43.171 15.335,55.672 0,55.672 -15.335,55.672 -27.836,43.171 -27.836,27.835 -27.836,12.501 -15.335,0 0,0"
         style="fill:#6d1945;fill-opacity:1;fill-rule:evenodd;stroke:none"
         id="path2946"
         inkscape:connector-curvature="0" />
    </g>
    <g
       id="g2948"
       transform="matrix(0.35277777,0,0,-0.35277777,86.157825,51.847496)">
      <path
         d="m 0,0 c 3.629,0 6.576,2.949 6.576,6.576 0,3.602 -2.947,6.549 -6.576,6.549 -3.6,0 -6.548,-2.947 -6.548,-6.549 C -6.548,2.949 -3.6,0 0,0"
         style="fill:#ffffff;fill-opacity:1;fill-rule:evenodd;stroke:none"
         id="path2950"
         inkscape:connector-curvature="0" />
    </g>
  </g>
</svg>
