<?xml version="1.0" encoding="UTF-8" standalone="no"?>
<!-- Created with Inkscape (http://www.inkscape.org/) -->

<svg
   xmlns:dc="http://purl.org/dc/elements/1.1/"
   xmlns:cc="http://creativecommons.org/ns#"
   xmlns:rdf="http://www.w3.org/1999/02/22-rdf-syntax-ns#"
   xmlns:svg="http://www.w3.org/2000/svg"
   xmlns="http://www.w3.org/2000/svg"
   xmlns:sodipodi="http://sodipodi.sourceforge.net/DTD/sodipodi-0.dtd"
   xmlns:inkscape="http://www.inkscape.org/namespaces/inkscape"
   width="210mm"
   height="297mm"
   viewBox="0 0 210 297"
   version="1.1"
   id="svg27364"
   inkscape:version="0.92.3 (2405546, 2018-03-11)"
   sodipodi:docname="char_PinkHand.svg">
  <defs
     id="defs27358" />
  <sodipodi:namedview
     id="base"
     pagecolor="#ffffff"
     bordercolor="#666666"
     borderopacity="1.0"
     inkscape:pageopacity="0.0"
     inkscape:pageshadow="2"
     inkscape:zoom="1.979899"
     inkscape:cx="136.61165"
     inkscape:cy="905.70656"
     inkscape:document-units="mm"
     inkscape:current-layer="layer1"
     showgrid="false"
     inkscape:window-width="2736"
     inkscape:window-height="1699"
     inkscape:window-x="-13"
     inkscape:window-y="-13"
     inkscape:window-maximized="1" />
  <metadata
     id="metadata27361">
    <rdf:RDF>
      <cc:Work
         rdf:about="">
        <dc:format>image/svg+xml</dc:format>
        <dc:type
           rdf:resource="http://purl.org/dc/dcmitype/StillImage" />
        <dc:title></dc:title>
      </cc:Work>
    </rdf:RDF>
  </metadata>
  <g
     inkscape:label="Layer 1"
     inkscape:groupmode="layer"
     id="layer1">
    <g
       id="g2952"
       transform="matrix(0.35277777,0,0,-0.35277777,13.785423,9.3778838)">
      <path
         d="m 0,0 c 0.283,2.381 0.991,4.705 2.211,6.861 3.316,5.725 9.496,8.787 16.016,8.787 6.491,0 12.67,-3.062 15.959,-8.787 3.033,-5.216 2.862,-11.539 1.332,-17.179 -0.624,-2.295 -1.446,-4.563 -2.381,-6.774 2.296,-4.478 3.486,-9.439 3.486,-14.543 0,-17.66 -14.314,-32.002 -31.975,-32.002 -17.66,0 -32.002,14.342 -32.002,32.002 0,16.072 11.876,29.397 27.354,31.635"
         style="fill:#6d1945;fill-opacity:1;fill-rule:evenodd;stroke:none"
         id="path2954"
         inkscape:connector-curvature="0" />
    </g>
    <g
       id="g2956"
       transform="matrix(0.35277777,0,0,-0.35277777,15.425303,12.417803)">
      <path
         d="M 0,0 C 1.814,0 3.571,-0.227 5.272,-0.623 5.159,-0.197 5.018,0.227 4.933,0.623 3.799,4.678 3.855,8.391 5.329,10.998 c 1.588,2.723 4.649,4.281 8.249,4.281 3.571,0 6.633,-1.558 8.193,-4.281 1.501,-2.607 1.558,-6.32 0.453,-10.375 -0.993,-3.684 -2.524,-7 -3.969,-9.609 2.976,-3.883 4.763,-8.758 4.763,-14.032 0,-12.726 -10.319,-23.045 -23.018,-23.045 -12.728,0 -23.046,10.319 -23.046,23.045 C -23.046,-10.318 -12.728,0 0,0"
         style="fill:#f9b1d6;fill-opacity:1;fill-rule:evenodd;stroke:none"
         id="path2958"
         inkscape:connector-curvature="0" />
    </g>
  </g>
</svg>
