<?xml version="1.0" encoding="UTF-8" standalone="no"?>
<!-- Created with Inkscape (http://www.inkscape.org/) -->

<svg
   xmlns:dc="http://purl.org/dc/elements/1.1/"
   xmlns:cc="http://creativecommons.org/ns#"
   xmlns:rdf="http://www.w3.org/1999/02/22-rdf-syntax-ns#"
   xmlns:svg="http://www.w3.org/2000/svg"
   xmlns="http://www.w3.org/2000/svg"
   xmlns:sodipodi="http://sodipodi.sourceforge.net/DTD/sodipodi-0.dtd"
   xmlns:inkscape="http://www.inkscape.org/namespaces/inkscape"
   width="210mm"
   height="297mm"
   viewBox="0 0 210 297"
   version="1.1"
   id="svg29171"
   inkscape:version="0.92.3 (2405546, 2018-03-11)"
   sodipodi:docname="char_purpleMain.svg">
  <defs
     id="defs29165">
    <clipPath
       id="clipPath8230"
       clipPathUnits="userSpaceOnUse">
      <path
         inkscape:connector-curvature="0"
         id="path8228"
         d="M 0,8812.578 H 3677 V 0 H 0 Z" />
    </clipPath>
  </defs>
  <sodipodi:namedview
     id="base"
     pagecolor="#ffffff"
     bordercolor="#666666"
     borderopacity="1.0"
     inkscape:pageopacity="0.0"
     inkscape:pageshadow="2"
     inkscape:zoom="0.98994949"
     inkscape:cx="274.47856"
     inkscape:cy="493.58261"
     inkscape:document-units="mm"
     inkscape:current-layer="layer1"
     showgrid="false"
     inkscape:window-width="2736"
     inkscape:window-height="1699"
     inkscape:window-x="-13"
     inkscape:window-y="-13"
     inkscape:window-maximized="1" />
  <metadata
     id="metadata29168">
    <rdf:RDF>
      <cc:Work
         rdf:about="">
        <dc:format>image/svg+xml</dc:format>
        <dc:type
           rdf:resource="http://purl.org/dc/dcmitype/StillImage" />
        <dc:title></dc:title>
      </cc:Work>
    </rdf:RDF>
  </metadata>
  <g
     inkscape:label="Layer 1"
     inkscape:groupmode="layer"
     id="layer1">
    <g
       id="g8232"
       transform="matrix(0.35277777,0,0,-0.35277777,103.91366,152.03282)">
      <path
         d="m 0,0 c -1.134,-8.191 -2.977,-16.695 -5.755,-24.463 -0.141,-0.426 -0.311,-0.849 -0.453,-1.275 l -2.211,-5.754 H -34.64 l -2.211,5.754 c -0.141,0.426 -0.311,0.849 -0.453,1.275 -2.778,7.768 -4.649,16.272 -5.755,24.463 -1.502,8.59 -2.239,18.851 0.738,27.185 3.203,9.071 10.998,15.42 20.778,15.42 9.808,0 17.574,-6.349 20.806,-15.42 C 2.211,18.851 1.502,8.59 0,0"
         style="fill:#53315b;fill-opacity:1;fill-rule:evenodd;stroke:none"
         id="path8234"
         inkscape:connector-curvature="0" />
    </g>
    <g
       id="g8236"
       transform="matrix(0.35277777,0,0,-0.35277777,96.313768,140.16273)">
      <path
         d="m 0,0 c 5.584,0 10.261,-3.544 12.358,-9.468 2.041,-5.754 1.9,-13.889 0.313,-22.818 -1.192,-8.902 -3.233,-16.951 -5.33,-22.819 -0.142,-0.369 -0.255,-0.738 -0.397,-1.078 H -6.917 c -0.142,0.34 -0.283,0.709 -0.396,1.078 -2.098,5.868 -4.139,13.917 -5.33,22.819 -1.587,8.929 -1.757,17.064 0.312,22.818 C -10.233,-3.544 -5.557,0 0,0"
         style="fill:#ab6eba;fill-opacity:1;fill-rule:evenodd;stroke:none"
         id="path8238"
         inkscape:connector-curvature="0" />
    </g>
    <g
       id="g8240"
       transform="matrix(0.35277777,0,0,-0.35277777,92.793575,156.49281)">
      <path
         d="M 0,0 H 19.956 C 19.758,-0.793 19.56,-1.559 19.36,-2.324 H 11.112 V -9.893 H 8.788 v 7.569 H 0.624 C 0.426,-1.559 0.198,-0.793 0,0"
         style="fill:#53315b;fill-opacity:1;fill-rule:nonzero;stroke:none"
         id="path8242"
         inkscape:connector-curvature="0" />
    </g>
    <g
       id="g8244"
       transform="matrix(0.35277777,0,0,-0.35277777,66.953627,152.03282)">
      <path
         d="m 0,0 c 1.105,-8.191 2.977,-16.695 5.726,-24.463 0.17,-0.426 0.312,-0.849 0.482,-1.275 l 2.183,-5.754 h 26.22 l 2.211,5.754 c 0.17,0.426 0.312,0.849 0.453,1.275 2.779,7.768 4.65,16.272 5.755,24.463 1.502,8.59 2.24,18.851 -0.709,27.185 -3.231,9.071 -11.026,15.42 -20.806,15.42 -9.78,0 -17.575,-6.349 -20.778,-15.42 C -2.239,18.851 -1.502,8.59 0,0"
         style="fill:#53315b;fill-opacity:1;fill-rule:evenodd;stroke:none"
         id="path8246"
         inkscape:connector-curvature="0" />
    </g>
    <g
       id="g8248"
       transform="matrix(0.35277777,0,0,-0.35277777,74.543534,140.16273)">
      <path
         d="m 0,0 c -5.584,0 -10.232,-3.544 -12.358,-9.468 -2.041,-5.754 -1.871,-13.889 -0.313,-22.818 1.219,-8.902 3.26,-16.951 5.329,-22.819 0.142,-0.369 0.284,-0.738 0.398,-1.078 H 6.945 c 0.114,0.34 0.255,0.709 0.397,1.078 2.069,5.868 4.11,13.917 5.301,22.819 1.587,8.929 1.757,17.064 -0.284,22.818 C 10.262,-3.544 5.585,0 0,0"
         style="fill:#ab6eba;fill-opacity:1;fill-rule:evenodd;stroke:none"
         id="path8250"
         inkscape:connector-curvature="0" />
    </g>
    <g
       id="g8252"
       transform="matrix(0.35277777,0,0,-0.35277777,78.063727,156.49281)">
      <path
         d="m 0,0 h -19.956 c 0.198,-0.793 0.396,-1.559 0.623,-2.324 h 8.221 v -7.569 h 2.353 v 7.569 h 8.135 C -0.397,-1.559 -0.198,-0.793 0,0"
         style="fill:#53315b;fill-opacity:1;fill-rule:nonzero;stroke:none"
         id="path8254"
         inkscape:connector-curvature="0" />
    </g>
    <g
       id="g8268"
       transform="matrix(0.35277777,0,0,-0.35277777,85.431738,101.78884)">
      <path
         d="M 0,0 C 32.258,1.049 53.915,-32.967 61.086,-60.547 73.36,-107.518 53.348,-151.115 0,-151.115 c -21.316,0 -41.357,6.974 -53.631,25.258 -12.642,18.849 -13.012,43.992 -7.455,65.31 C -53.887,-32.967 -32.258,1.049 0,0"
         style="fill:#53315b;fill-opacity:1;fill-rule:nonzero;stroke:none"
         id="path8270"
         inkscape:connector-curvature="0" />
    </g>
    <g
       id="g8272"
       transform="matrix(0.35277777,0,0,-0.35277777,85.431738,151.93842)">
      <path
         d="M 0,0 C 90.879,-0.342 55.162,135.467 0,133.17 -55.162,135.467 -90.879,-0.342 0,0"
         style="fill:#da86ef;fill-opacity:1;fill-rule:evenodd;stroke:none"
         id="path8274"
         inkscape:connector-curvature="0" />
    </g>
    <g
       id="g8276"
       transform="matrix(0.35277777,0,0,-0.35277777,103.39172,122.14866)">
      <path
         d="m 0,0 c -0.34,1.105 -0.709,2.211 -1.105,3.287 -7.03,-17.064 -22.622,-29.338 -49.805,-29.224 -27.156,-0.114 -42.776,12.16 -49.805,29.224 -0.369,-1.076 -0.737,-2.182 -1.105,-3.287 7.824,-16.611 23.896,-33.619 50.91,-33.533 C -23.867,-33.619 -7.824,-16.611 0,0"
         style="fill:#53315b;fill-opacity:1;fill-rule:evenodd;stroke:none"
         id="path8278"
         inkscape:connector-curvature="0" />
    </g>
    <g
       id="g8280"
       transform="matrix(0.35277777,0,0,-0.35277777,95.101765,123.54877)">
      <path
         d="m 0,0 c 5.329,0 10.147,-2.154 13.634,-5.641 3.487,-3.486 5.641,-8.306 5.641,-13.607 0,-5.328 -2.154,-10.147 -5.641,-13.635 -3.487,-3.486 -8.305,-5.64 -13.634,-5.64 -5.301,0 -10.12,2.154 -13.606,5.64 -3.487,3.488 -5.641,8.307 -5.641,13.635 0,5.301 2.154,10.121 5.641,13.607 C -10.12,-2.154 -5.301,0 0,0"
         style="fill:#53315b;fill-opacity:1;fill-rule:nonzero;stroke:none"
         id="path8282"
         inkscape:connector-curvature="0" />
    </g>
    <g
       id="g8284"
       transform="matrix(0.35277777,0,0,-0.35277777,95.101765,136.58846)">
      <path
         d="m 0,0 c 9.751,0 17.716,7.965 17.716,17.715 0,9.752 -7.965,17.717 -17.716,17.717 -9.751,0 -17.717,-7.965 -17.717,-17.717 C -17.717,7.965 -9.751,0 0,0"
         style="fill:#ffffff;fill-opacity:1;fill-rule:evenodd;stroke:none"
         id="path8286"
         inkscape:connector-curvature="0" />
    </g>
    <g
       id="g8288"
       transform="matrix(0.35277777,0,0,-0.35277777,23.412454,51.448083)">
      <path
         d="m 0,0 h 27.667 c 3.685,0 6.689,-3.005 6.689,-6.69 v -35.546 c 0,-3.685 -3.004,-6.691 -6.689,-6.691 H 0 c -3.685,0 -6.718,3.006 -6.718,6.691 V -6.69 C -6.718,-3.005 -3.685,0 0,0"
         style="fill:#53315b;fill-opacity:1;fill-rule:evenodd;stroke:none"
         id="path8290"
         inkscape:connector-curvature="0" />
    </g>
    <g
       id="g8292"
       transform="matrix(0.35277777,0,0,-0.35277777,147.45275,51.448083)">
      <path
         d="m 0,0 h -27.667 c -3.685,0 -6.689,-3.005 -6.689,-6.69 v -35.546 c 0,-3.685 3.004,-6.691 6.689,-6.691 H 0 c 3.685,0 6.718,3.006 6.718,6.691 V -6.69 C 6.718,-3.005 3.685,0 0,0"
         style="fill:#53315b;fill-opacity:1;fill-rule:evenodd;stroke:none"
         id="path8294"
         inkscape:connector-curvature="0" />
    </g>
    <g
       id="g8296"
       transform="matrix(0.35277777,0,0,-0.35277777,9.5624689,50.788353)">
      <path
         d="M 0,0 H -0.028 C 0.057,-0.027 0.086,-0.027 0,0 m -5.584,-9.553 c -0.255,-1.302 -0.396,-2.607 -0.453,-3.883 0.255,0.312 0.51,0.653 0.736,1.021 3.997,6.065 5.244,10.063 4.989,12.218 l -0.141,-0.086 c -1.956,-1.02 -4.139,-4.082 -5.131,-9.27 m 22.621,-7.312 c 0.425,-2.552 1.417,-5.131 2.806,-7.428 2.211,3.771 3.544,9.128 3.657,13.664 0.057,1.7 -0.085,3.26 -0.426,4.479 -0.226,0.736 -0.425,1.218 -0.651,1.388 -0.028,0.029 -0.369,-0.113 -1.077,-0.482 -3.969,-2.068 -5.131,-6.775 -4.309,-11.621 m 33.987,-1.106 c 1.191,1.757 3.572,2.183 5.301,0.992 1.729,-1.162 2.183,-3.543 0.992,-5.273 C 47.821,-36.141 38.098,-40.506 29.85,-39.6 c -3.913,0.426 -7.427,2.013 -10.404,4.366 -5.811,-3.402 -11.31,-4.337 -16.129,-3.402 -2.721,0.511 -5.215,1.644 -7.426,3.26 -2.155,1.56 -3.997,3.571 -5.444,5.897 -1.02,1.586 -1.842,3.344 -2.494,5.215 -1.729,0.057 -3.401,0.482 -4.876,1.247 -0.085,0.029 -0.17,0.085 -0.255,0.142 -1.728,0.936 -3.203,2.353 -4.252,4.167 -2.097,3.543 -2.579,8.674 -0.085,14.91 0.794,1.928 3.005,2.892 4.961,2.098 1.956,-0.766 2.892,-3.005 2.126,-4.933 -1.531,-3.798 -1.446,-6.548 -0.454,-8.248 0.341,-0.539 0.766,-0.965 1.248,-1.275 -0.142,2.607 0.029,5.301 0.567,8.05 1.473,7.71 5.385,12.642 9.071,14.57 2.267,1.219 4.592,1.445 6.604,0.708 C 4.848,6.35 6.492,4.508 7.087,1.673 7.881,-2.068 6.549,-8.276 1.049,-16.582 c -1.644,-2.551 -3.628,-4.422 -5.726,-5.67 0.425,-1.133 0.936,-2.182 1.56,-3.174 0.963,-1.531 2.154,-2.835 3.486,-3.799 1.276,-0.935 2.749,-1.615 4.394,-1.927 2.692,-0.51 5.868,-0.057 9.354,1.701 -2.324,3.43 -3.94,7.398 -4.593,11.338 -1.36,7.909 0.936,15.818 8.306,19.644 3.544,1.843 6.52,1.615 8.93,-0.028 1.757,-1.219 2.976,-3.175 3.656,-5.612 0.539,-1.928 0.766,-4.252 0.709,-6.746 -0.198,-6.209 -2.353,-13.834 -6.01,-19.079 1.673,-1.133 3.543,-1.871 5.528,-2.097 5.698,-0.623 12.784,2.976 20.381,14.06"
         style="fill:#53315b;fill-opacity:1;fill-rule:nonzero;stroke:none"
         id="path8298"
         inkscape:connector-curvature="0" />
    </g>
    <g
       id="g8300"
       transform="matrix(0.35277777,0,0,-0.35277777,161.30274,50.788353)">
      <path
         d="m 0,0 v 0 c -0.057,-0.027 -0.085,-0.027 0,0 m 5.584,-9.553 c 0.255,-1.302 0.396,-2.607 0.453,-3.883 -0.255,0.312 -0.51,0.653 -0.736,1.021 C 1.304,-6.35 0.057,-2.352 0.312,-0.197 l 0.141,-0.086 c 1.956,-1.02 4.139,-4.082 5.131,-9.27 m -22.62,-7.312 c -0.454,-2.552 -1.418,-5.131 -2.807,-7.428 -2.211,3.771 -3.543,9.128 -3.656,13.664 -0.058,1.7 0.084,3.26 0.425,4.479 0.198,0.736 0.425,1.218 0.651,1.388 0.029,0.029 0.369,-0.113 1.078,-0.482 3.968,-2.068 5.13,-6.775 4.309,-11.621 m -33.988,-1.106 c -1.191,1.757 -3.572,2.183 -5.301,0.992 -1.729,-1.162 -2.183,-3.543 -0.992,-5.273 9.496,-13.889 19.219,-18.254 27.468,-17.348 3.912,0.426 7.426,2.013 10.374,4.366 5.84,-3.402 11.339,-4.337 16.13,-3.402 2.749,0.511 5.244,1.644 7.455,3.26 2.155,1.56 3.996,3.571 5.443,5.897 0.992,1.586 1.842,3.344 2.494,5.215 1.729,0.057 3.373,0.482 4.876,1.247 0.085,0.029 0.17,0.085 0.226,0.142 1.758,0.936 3.232,2.353 4.281,4.167 2.097,3.543 2.579,8.674 0.056,14.91 -0.765,1.928 -2.976,2.892 -4.932,2.098 -1.955,-0.766 -2.92,-3.005 -2.126,-4.933 1.503,-3.798 1.418,-6.548 0.454,-8.248 -0.341,-0.539 -0.766,-0.965 -1.276,-1.275 0.17,2.607 0,5.301 -0.539,8.05 -1.473,7.71 -5.385,12.642 -9.07,14.57 -2.268,1.219 -4.593,1.445 -6.634,0.708 -2.211,-0.822 -3.854,-2.664 -4.45,-5.499 -0.794,-3.741 0.539,-9.949 6.01,-18.255 1.672,-2.551 3.656,-4.422 5.754,-5.67 -0.425,-1.133 -0.964,-2.182 -1.559,-3.174 -0.964,-1.531 -2.154,-2.835 -3.487,-3.799 -1.276,-0.935 -2.777,-1.615 -4.394,-1.927 -2.692,-0.51 -5.867,-0.057 -9.383,1.701 2.354,3.43 3.941,7.398 4.622,11.338 1.36,7.909 -0.936,15.818 -8.306,19.644 -3.544,1.843 -6.52,1.615 -8.93,-0.028 -1.785,-1.219 -2.975,-3.175 -3.656,-5.612 -0.539,-1.928 -0.766,-4.252 -0.709,-6.746 0.198,-6.209 2.353,-13.834 6.01,-19.079 -1.673,-1.133 -3.543,-1.871 -5.528,-2.097 -5.698,-0.623 -12.784,2.976 -20.381,14.06"
         style="fill:#53315b;fill-opacity:1;fill-rule:nonzero;stroke:none"
         id="path8302"
         inkscape:connector-curvature="0" />
    </g>
    <g
       id="g8304"
       transform="matrix(0.35277777,0,0,-0.35277777,85.426905,116.00881)">
      <path
         d="m 0,0 c 89.943,0 163.275,73.36 163.275,163.275 0,89.916 -73.332,163.277 -163.275,163.277 -89.915,0 -163.247,-73.361 -163.247,-163.277 C -163.247,73.36 -89.915,0 0,0"
         style="fill:#53315b;fill-opacity:1;fill-rule:evenodd;stroke:none"
         id="path8306"
         inkscape:connector-curvature="0" />
    </g>
    <g
       id="g8308"
       transform="matrix(0.35277777,0,0,-0.35277777,85.426905,112.84863)">
      <path
         d="m 0,0 c 85.011,0 154.318,69.336 154.318,154.317 0,84.984 -69.307,154.319 -154.318,154.319 -84.982,0 -154.29,-69.335 -154.29,-154.319 C -154.29,69.336 -84.982,0 0,0"
         style="fill:#da86ef;fill-opacity:1;fill-rule:evenodd;stroke:none"
         id="path8310"
         inkscape:connector-curvature="0" />
    </g>
    <g
       id="g8312"
       transform="matrix(0.35277777,0,0,-0.35277777,44.336903,95.858817)">
      <path
         d="m 0,0 v 212.315 c 1.559,1.702 3.146,3.373 4.791,5.018 V -5.018 C 3.146,-3.373 1.559,-1.729 0,0"
         style="fill:#53315b;fill-opacity:1;fill-rule:nonzero;stroke:none"
         id="path8314"
         inkscape:connector-curvature="0" />
    </g>
    <g
       id="g8316"
       transform="matrix(0.35277777,0,0,-0.35277777,124.83709,97.62888)">
      <path
         d="m 0,0 v 222.351 c 1.615,-1.645 3.203,-3.317 4.762,-5.018 V 5.018 C 3.203,3.289 1.615,1.645 0,0"
         style="fill:#53315b;fill-opacity:1;fill-rule:nonzero;stroke:none"
         id="path8318"
         inkscape:connector-curvature="0" />
    </g>
    <g
       id="g8320"
       transform="matrix(0.35277777,0,0,-0.35277777,60.336962,36.823998)">
      <path
         d="m 0,0 h 142.271 c 21.685,0 39.402,-17.744 39.402,-39.401 0,-21.685 -17.717,-39.43 -39.402,-39.43 H 0 c -21.686,0 -39.43,17.745 -39.43,39.43 C -39.43,-17.744 -21.686,0 0,0"
         style="fill:#ffffff;fill-opacity:1;fill-rule:evenodd;stroke:none"
         id="path8322"
         inkscape:connector-curvature="0" />
    </g>
    <g
       id="g8324"
       transform="matrix(0.35277777,0,0,-0.35277777,88.569202,90.056223)">
      <path
         d="m 0,0 c -4.563,1.219 -7.257,5.896 -6.037,10.46 1.219,4.535 5.895,7.257 10.459,6.038 9.043,-2.438 18.341,-3.006 27.354,-1.814 9.043,1.19 17.887,4.138 25.995,8.843 2.805,1.588 5.357,3.317 7.681,5.103 2.381,1.786 4.677,3.827 6.917,6.065 3.317,3.318 8.731,3.318 12.047,0 3.316,-3.343 3.316,-8.73 0,-12.075 C 81.779,20.013 78.889,17.489 75.799,15.108 72.681,12.699 69.506,10.573 66.331,8.73 56.324,2.977 45.354,-0.709 34.044,-2.183 22.706,-3.686 11.141,-2.977 0,0"
         style="fill:#53315b;fill-opacity:1;fill-rule:nonzero;stroke:none"
         id="path8326"
         inkscape:connector-curvature="0" />
    </g>
    <g
       id="g8328"
       transform="matrix(0.35277777,0,0,-0.35277777,72.002053,92.038199)">
      <path
         d="m 0,0 c 7.596,0 13.748,-6.151 13.748,-13.748 0,-7.597 -6.152,-13.748 -13.748,-13.748 -7.598,0 -13.777,6.151 -13.777,13.748 C -13.777,-6.151 -7.598,0 0,0 m 76.139,-2.778 c 7.595,0 13.775,-6.151 13.775,-13.748 0,-7.597 -6.18,-13.777 -13.775,-13.777 -7.598,0 -13.748,6.18 -13.748,13.777 0,0.567 0.027,1.163 0.113,1.729 -1.701,-0.766 -3.6,-1.19 -5.584,-1.19 -1.049,0 -2.041,0.113 -3.006,0.34 -1.076,-6.548 -6.746,-11.538 -13.578,-11.538 H 39.6 c -2.467,-3.741 -6.719,-6.236 -11.538,-6.236 -7.597,0 -13.748,6.151 -13.748,13.748 0,7.598 6.151,13.748 13.748,13.748 h 0.737 c 2.439,3.742 6.691,6.237 11.537,6.237 1.021,0 2.041,-0.114 3.006,-0.312 1.049,6.52 6.717,11.537 13.578,11.537 7.596,0 13.748,-6.151 13.748,-13.748 0,-0.596 -0.029,-1.19 -0.113,-1.758 1.728,0.766 3.599,1.191 5.584,1.191"
         style="fill:#ffff26;fill-opacity:1;fill-rule:evenodd;stroke:none"
         id="path8330"
         inkscape:connector-curvature="0" />
    </g>
    <g
       id="g8332"
       transform="matrix(0.35277777,0,0,-0.35277777,98.862094,92.018196)">
      <path
         d="m 0,0 c -7.598,0 -13.748,-6.151 -13.748,-13.748 0,-7.597 6.15,-13.776 13.748,-13.776 7.596,0 13.775,6.179 13.775,13.776 C 13.775,-6.151 7.596,0 0,0 m -76.139,-2.807 c -7.597,0 -13.777,-6.15 -13.777,-13.748 0,-7.596 6.18,-13.748 13.777,-13.748 7.596,0 13.748,6.152 13.748,13.748 0,0.596 -0.029,1.163 -0.113,1.758 1.701,-0.766 3.6,-1.19 5.584,-1.19 1.049,0 2.041,0.113 3.004,0.311 1.078,-6.519 6.746,-11.537 13.578,-11.537 0.256,0 0.51,0 0.738,0.028 2.465,-3.769 6.717,-6.263 11.536,-6.263 7.597,0 13.748,6.178 13.748,13.775 0,7.598 -6.151,13.748 -13.748,13.748 -0.254,0 -0.481,0 -0.737,-0.028 -2.437,3.77 -6.689,6.265 -11.537,6.265 -1.019,0 -2.041,-0.114 -3.004,-0.34 -1.049,6.548 -6.719,11.537 -13.578,11.537 -7.598,0 -13.748,-6.152 -13.748,-13.748 0,-0.596 0.027,-1.162 0.113,-1.758 -1.701,0.766 -3.599,1.19 -5.584,1.19"
         style="fill:#ffff91;fill-opacity:1;fill-rule:evenodd;stroke:none"
         id="path8334"
         inkscape:connector-curvature="0" />
    </g>
    <g
       id="g8336"
       transform="matrix(0.35277777,0,0,-0.35277777,62.362012,98.788178)">
      <path
         d="M 0,0 C 0.652,5.442 5.271,9.638 10.885,9.638 16.498,9.638 21.117,5.442 21.77,0 h 0.056 C 22.479,5.442 27.1,9.638 32.684,9.638 38.295,9.638 42.916,5.442 43.568,0 h 0.057 c 0.652,5.442 5.271,9.638 10.885,9.638 5.584,0 10.205,-4.196 10.857,-9.638 h 0.028 0.029 c 0.652,5.442 5.271,9.638 10.885,9.638 5.584,0 10.205,-4.196 10.857,-9.638 h 0.057 c 0.65,5.442 5.271,9.638 10.884,9.638 5.612,0 10.233,-4.196 10.885,-9.638 h 0.028 c 0.652,5.442 5.273,9.638 10.886,9.638 5.612,0 10.233,-4.196 10.885,-9.638 0.766,0 -10.828,-51.534 -11.934,-56.637 -4.195,-18.849 -8.39,-37.728 -12.586,-56.579 H 65.367 24.49 C 20.324,-94.365 16.1,-75.486 11.934,-56.637 10.828,-51.647 -0.766,0 0,0"
         style="fill:#ffffff;fill-opacity:1;fill-rule:evenodd;stroke:none"
         id="path8338"
         inkscape:connector-curvature="0" />
    </g>
    <g
       id="g8340"
       transform="matrix(0.35277777,0,0,-0.35277777,100.53158,101.81812)">
      <path
         d="m 0,0 -9.609,-104.627 h 7.683 c 4.196,18.851 8.391,37.73 12.586,56.579 1.106,5.103 12.699,56.637 11.934,56.637 -0.653,5.442 -5.274,9.638 -10.885,9.638 -1.107,0 -2.184,-0.17 -3.176,-0.482 L 8.193,17.66 C 4.281,16.327 1.334,12.841 0.822,8.589 H 0.795 L 0.115,1.134 Z"
         style="fill:#ff0000;fill-opacity:1;fill-rule:evenodd;stroke:none"
         id="path8342"
         inkscape:connector-curvature="0" />
    </g>
    <g
       id="g8344"
       transform="matrix(0.35277777,0,0,-0.35277777,91.451714,138.7282)">
      <path
         d="m 0,0 4.365,105.08 0.342,8.136 c -0.199,1.814 -0.879,3.514 -1.871,4.932 -1.984,2.863 -5.274,4.706 -8.986,4.706 -5.614,0 -10.233,-4.196 -10.885,-9.638 h -0.029 -0.028 V 104.967 103.323 0 Z"
         style="fill:#ff0000;fill-opacity:1;fill-rule:evenodd;stroke:none"
         id="path8346"
         inkscape:connector-curvature="0" />
    </g>
    <g
       id="g8348"
       transform="matrix(0.35277777,0,0,-0.35277777,79.402131,138.7282)">
      <path
         d="m 0,0 -4.479,106.951 -0.255,6.265 c -0.17,1.388 -0.596,2.664 -1.219,3.855 l -0.34,0.595 c -0.283,0.482 -0.625,0.936 -0.992,1.36 -2.014,2.354 -4.99,3.828 -8.334,3.828 -5.584,0 -10.205,-4.196 -10.858,-9.638 h -0.056 l 0.51,-5.669 0.425,-4.65 L -16.129,0 Z"
         style="fill:#ff0000;fill-opacity:1;fill-rule:evenodd;stroke:none"
         id="path8350"
         inkscape:connector-curvature="0" />
    </g>
    <g
       id="g8352"
       transform="matrix(0.35277777,0,0,-0.35277777,24.182074,39.49255)">
      <path
         d="m 0,0 h 347.244 v -29.311 h -21.543 l -1.105,-4.677 c -2.44,-10.459 -4.877,-20.919 -7.315,-31.408 h -63.552 -63.61 c -2.437,10.489 -4.875,20.949 -7.312,31.408 l -1.078,4.677 h -16.215 l -1.077,-4.677 C 162,-44.447 159.562,-54.907 157.123,-65.396 H 93.514 29.961 c -2.438,10.489 -4.875,20.949 -7.313,31.408 l -1.105,4.677 H 0 Z"
         style="fill:#d0d2d4;fill-opacity:1;fill-rule:evenodd;stroke:none"
         id="path8354"
         inkscape:connector-curvature="0" />
    </g>
    <g
       id="g8356"
       transform="matrix(0.35277777,0,0,-0.35277777,24.182074,39.49255)">
      <path
         d="M 0,0 H 289.502 L 181.389,-29.311 H 165.514 L 164.437,-33.902 48.359,-65.396 H 29.961 c -2.438,10.489 -4.875,20.949 -7.313,31.408 l -1.105,4.677 H 0 Z"
         style="fill:#e5e6e7;fill-opacity:1;fill-rule:evenodd;stroke:none"
         id="path8358"
         inkscape:connector-curvature="0" />
    </g>
    <g
       id="g8360"
       transform="matrix(0.35277777,0,0,-0.35277777,36.98198,44.362541)">
      <path
         d="m 0,0 h 57.26 57.287 c -1.813,-7.654 -3.627,-15.336 -5.385,-22.989 -1.785,-7.682 -3.572,-15.335 -5.357,-23.017 H 57.26 10.715 C 8.93,-38.324 7.143,-30.671 5.357,-22.989 3.572,-15.336 1.785,-7.654 0,0"
         style="fill:#ed1b23;fill-opacity:1;fill-rule:evenodd;stroke:none"
         id="path8362"
         inkscape:connector-curvature="0" />
    </g>
    <g
       id="g8364"
       transform="matrix(0.35277777,0,0,-0.35277777,93.482233,44.362541)">
      <path
         d="m 0,0 h 57.23 57.29 c -1.815,-7.654 -3.602,-15.336 -5.387,-22.989 -1.785,-7.682 -3.572,-15.335 -5.358,-23.017 H 57.23 10.715 C 8.928,-38.324 7.143,-30.671 5.357,-22.989 3.57,-15.336 1.756,-7.654 0,0"
         style="fill:#1e90ff;fill-opacity:1;fill-rule:evenodd;stroke:none"
         id="path8366"
         inkscape:connector-curvature="0" />
    </g>
    <g
       id="g8368"
       transform="matrix(0.35277777,0,0,-0.35277777,68.52183,100.82078)">
      <path
         d="m 0,0 c 2.466,0 4.903,-0.283 7.313,-0.85 7.172,-1.673 13.55,-5.812 18.029,-11.65 4.308,-5.584 6.633,-12.416 6.633,-19.504 0,-17.658 -14.316,-31.975 -31.975,-31.975 -17.66,0 -32.003,14.317 -32.003,31.975 0,7.088 2.324,13.92 6.633,19.504 4.507,5.838 10.856,9.977 18.028,11.65 C -4.933,-0.283 -2.466,0 0,0"
         style="fill:#53315b;fill-opacity:1;fill-rule:evenodd;stroke:none"
         id="path8370"
         inkscape:connector-curvature="0" />
    </g>
    <g
       id="g8372"
       transform="matrix(0.35277777,0,0,-0.35277777,68.52183,103.99094)">
      <path
         d="m 0,0 c -1.814,0 -3.601,-0.197 -5.301,-0.594 -5.244,-1.22 -9.779,-4.252 -12.954,-8.39 -3.005,-3.885 -4.791,-8.733 -4.791,-14.034 0,-12.699 10.318,-23.015 23.046,-23.015 12.699,0 23.018,10.316 23.018,23.015 0,5.301 -1.787,10.149 -4.791,14.034 -3.175,4.138 -7.71,7.17 -12.955,8.39 C 3.571,-0.197 1.814,0 0,0"
         style="fill:#da86ef;fill-opacity:1;fill-rule:evenodd;stroke:none"
         id="path8374"
         inkscape:connector-curvature="0" />
    </g>
    <g
       id="g8376"
       transform="matrix(0.35277777,0,0,-0.35277777,102.35163,100.82078)">
      <path
         d="m 0,0 c 2.438,0 4.904,-0.283 7.313,-0.85 7.172,-1.673 13.55,-5.812 18.029,-11.65 4.308,-5.584 6.634,-12.416 6.634,-19.504 0,-17.658 -14.316,-31.975 -31.976,-31.975 -17.687,0 -32.003,14.317 -32.003,31.975 0,7.088 2.324,13.92 6.634,19.504 4.507,5.838 10.856,9.977 18.027,11.65 C -4.932,-0.283 -2.466,0 0,0"
         style="fill:#53315b;fill-opacity:1;fill-rule:evenodd;stroke:none"
         id="path8378"
         inkscape:connector-curvature="0" />
    </g>
    <g
       id="g8380"
       transform="matrix(0.35277777,0,0,-0.35277777,102.35163,103.99094)">
      <path
         d="m 0,0 c 1.814,0 3.572,-0.197 5.272,-0.594 5.245,-1.22 9.781,-4.252 12.956,-8.39 3.004,-3.885 4.79,-8.733 4.79,-14.034 0,-12.699 -10.319,-23.015 -23.018,-23.015 -12.728,0 -23.045,10.316 -23.045,23.015 0,5.301 1.785,10.149 4.79,14.034 3.175,4.138 7.71,7.17 12.954,8.39 C -3.6,-0.197 -1.842,0 0,0"
         style="fill:#da86ef;fill-opacity:1;fill-rule:evenodd;stroke:none"
         id="path8382"
         inkscape:connector-curvature="0" />
    </g>
  </g>
</svg>
