%YAML 1.1
%TAG !u! tag:unity3d.com,2011:
--- !u!114 &11400000
MonoBehaviour:
  m_ObjectHideFlags: 0
  m_CorrespondingSourceObject: {fileID: 0}
  m_PrefabInstance: {fileID: 0}
  m_PrefabAsset: {fileID: 0}
  m_GameObject: {fileID: 0}
  m_Enabled: 1
  m_EditorHideFlags: 0
  m_Script: {fileID: 11500000, guid: f9c389d6a8cdf84408e0dffd88bbda59, type: 3}
  m_Name: AdjustSettings
  m_EditorClassIdentifier: 
  purchaseEventToken: jzzhxa
  purchaseVerificationFailedEventToken: 10z3jz
  purchaseVerificationUnknownEventToken: zh42uh
  purchaseNotVerifiedEventToken: j9pwl2
