%YAML 1.1
%TAG !u! tag:unity3d.com,2011:
--- !u!114 &11400000
MonoBehaviour:
  m_ObjectHideFlags: 0
  m_CorrespondingSourceObject: {fileID: 0}
  m_PrefabInstance: {fileID: 0}
  m_PrefabAsset: {fileID: 0}
  m_GameObject: {fileID: 0}
  m_Enabled: 1
  m_EditorHideFlags: 0
  m_Script: {fileID: 11500000, guid: 6429c438fe86fd3499b59efa2c1bc98f, type: 3}
  m_Name: PurchaserSettings
  m_EditorClassIdentifier: 
  handleFeedbackUi: 1
  blockNonVerifiedPurchases: 0
  productDefinitions:
  - id: com.fumbgames.spaceystarterpack
    alternatePlatformIds:
      platformSpecificIds: []
    productType: 0
    basePrice: 4.99
  - id: com.fumbgames.spaceyvault
    alternatePlatformIds:
      platformSpecificIds: []
    productType: 0
    basePrice: 4.99
  - id: com.fumbgames.spaceypack4
    alternatePlatformIds:
      platformSpecificIds: []
    productType: 0
    basePrice: 9.99
  - id: com.fumbgames.spaceymegapack
    alternatePlatformIds:
      platformSpecificIds: []
    productType: 0
    basePrice: 9.99
  - id: com.fumbgames.spaceypack3
    alternatePlatformIds:
      platformSpecificIds: []
    productType: 0
    basePrice: 6.99
  - id: com.fumbgames.spaceypack1
    alternatePlatformIds:
      platformSpecificIds: []
    productType: 0
    basePrice: 1.99
  - id: com.fumbgames.spaceypack2
    alternatePlatformIds:
      platformSpecificIds: []
    productType: 0
    basePrice: 3.99
  - id: com.fumbgames.spacey.sub01
    alternatePlatformIds:
      platformSpecificIds: []
    productType: 2
    basePrice: 6.99
  - id: com.fumbgames.extraoutposts
    alternatePlatformIds:
      platformSpecificIds: []
    productType: 1
    basePrice: 4.99
  - id: com.fumbgames.extralabs
    alternatePlatformIds:
      platformSpecificIds: []
    productType: 1
    basePrice: 4.99
  preferredVerificationPlatform:
    typeName: VerificationPlatformPlayFab
