%YAML 1.1
%TAG !u! tag:unity3d.com,2011:
--- !u!114 &11400000
MonoBehaviour:
  m_ObjectHideFlags: 0
  m_CorrespondingSourceObject: {fileID: 0}
  m_PrefabInstance: {fileID: 0}
  m_PrefabAsset: {fileID: 0}
  m_GameObject: {fileID: 0}
  m_Enabled: 1
  m_EditorHideFlags: 0
  m_Script: {fileID: 11500000, guid: 6b8485afc12de9944b5a26983119d6fa, type: 3}
  m_Name: ReviewSettings
  m_EditorClassIdentifier: 
  overrideAndroidIdentifier: 0
  googlePlayStoreIdentifier: com.fumbgames.spacey
  appStoreId: 1483483855
  useInAppReviewFlow: 1
  fallbackToStoreOnFail: 1
