%YAML 1.1
%TAG !u! tag:unity3d.com,2011:
--- !u!114 &11400000
MonoBehaviour:
  m_ObjectHideFlags: 0
  m_CorrespondingSourceObject: {fileID: 0}
  m_PrefabInstance: {fileID: 0}
  m_PrefabAsset: {fileID: 0}
  m_GameObject: {fileID: 0}
  m_Enabled: 1
  m_EditorHideFlags: 0
  m_Script: {fileID: 11500000, guid: ff2fe6b712cb4a8e9e03aaf7b349de89, type: 3}
  m_Name: DataAssetOutpostStage
  m_EditorClassIdentifier: 
  enableDownloadOptions: 1
  connectionData: {fileID: 11400000, guid: 9bf59ded0df64524f9388d916eec7bc0, type: 2}
  spreadsheetUrl: https://docs.google.com/spreadsheets/d/1P1hfGrEas15roI2kLjTBRHnPYQrM825DCH3c2rs3_fc/edit?usp=share_link
  tableName: Outpost Stages
  enableRemoteUpdates: 0
  remoteJsonData:
    key: 
    debugKey: 
    defaultValue:
    - outpostStageID: outpost_stage01
      defaultBuilt: 0
      isActive: 1
      unlockLevel: 5
      stageReward: 0
      stageRewardAmount: 1
    - outpostStageID: outpost_stage02
      defaultBuilt: 0
      isActive: 1
      unlockLevel: 15
      stageReward: 0
      stageRewardAmount: 1
    - outpostStageID: outpost_stage03
      defaultBuilt: 0
      isActive: 1
      unlockLevel: 30
      stageReward: 0
      stageRewardAmount: 1
    - outpostStageID: outpost_stage04
      defaultBuilt: 0
      isActive: 1
      unlockLevel: 45
      stageReward: 0
      stageRewardAmount: 1
    - outpostStageID: outpost_stage05
      defaultBuilt: 0
      isActive: 1
      unlockLevel: 60
      stageReward: 0
      stageRewardAmount: 1
    - outpostStageID: outpost_stage06
      defaultBuilt: 0
      isActive: 1
      unlockLevel: 75
      stageReward: 0
      stageRewardAmount: 1
    - outpostStageID: outpost_stage07
      defaultBuilt: 0
      isActive: 1
      unlockLevel: 90
      stageReward: 0
      stageRewardAmount: 1
    - outpostStageID: outpost_stage08
      defaultBuilt: 0
      isActive: 1
      unlockLevel: 105
      stageReward: 0
      stageRewardAmount: 1
    - outpostStageID: outpost_stage09
      defaultBuilt: 0
      isActive: 1
      unlockLevel: 120
      stageReward: 0
      stageRewardAmount: 1
    - outpostStageID: outpost_stage10
      defaultBuilt: 0
      isActive: 1
      unlockLevel: 135
      stageReward: 0
      stageRewardAmount: 1
    - outpostStageID: outpost_stage11
      defaultBuilt: 0
      isActive: 1
      unlockLevel: 150
      stageReward: 0
      stageRewardAmount: 1
    - outpostStageID: outpost_stage12
      defaultBuilt: 0
      isActive: 1
      unlockLevel: 165
      stageReward: 0
      stageRewardAmount: 1
    - outpostStageID: outpost_stage13
      defaultBuilt: 0
      isActive: 1
      unlockLevel: 180
      stageReward: 0
      stageRewardAmount: 1
    - outpostStageID: outpost_stage14
      defaultBuilt: 0
      isActive: 1
      unlockLevel: 195
      stageReward: 0
      stageRewardAmount: 1
    - outpostStageID: outpost_stage15
      defaultBuilt: 0
      isActive: 1
      unlockLevel: 210
      stageReward: 0
      stageRewardAmount: 1
    - outpostStageID: outpost_stage16
      defaultBuilt: 0
      isActive: 1
      unlockLevel: 225
      stageReward: 0
      stageRewardAmount: 1
    - outpostStageID: outpost_stage17
      defaultBuilt: 0
      isActive: 1
      unlockLevel: 240
      stageReward: 0
      stageRewardAmount: 1
    - outpostStageID: outpost_stage18
      defaultBuilt: 0
      isActive: 1
      unlockLevel: 255
      stageReward: 0
      stageRewardAmount: 1
    - outpostStageID: outpost_stage19
      defaultBuilt: 0
      isActive: 1
      unlockLevel: 270
      stageReward: 0
      stageRewardAmount: 1
    - outpostStageID: outpost_stage20
      defaultBuilt: 0
      isActive: 1
      unlockLevel: 285
      stageReward: 0
      stageRewardAmount: 1
    - outpostStageID: outpost_stage21
      defaultBuilt: 0
      isActive: 1
      unlockLevel: 300
      stageReward: 0
      stageRewardAmount: 1
    - outpostStageID: outpost_stage22
      defaultBuilt: 0
      isActive: 1
      unlockLevel: 315
      stageReward: 0
      stageRewardAmount: 1
    - outpostStageID: outpost_stage23
      defaultBuilt: 0
      isActive: 1
      unlockLevel: 330
      stageReward: 0
      stageRewardAmount: 1
    - outpostStageID: outpost_stage24
      defaultBuilt: 0
      isActive: 1
      unlockLevel: 345
      stageReward: 0
      stageRewardAmount: 1
    - outpostStageID: outpost_stage25
      defaultBuilt: 0
      isActive: 1
      unlockLevel: 360
      stageReward: 0
      stageRewardAmount: 1
    - outpostStageID: outpost_stage26
      defaultBuilt: 0
      isActive: 1
      unlockLevel: 375
      stageReward: 0
      stageRewardAmount: 1
    - outpostStageID: outpost_stage27
      defaultBuilt: 0
      isActive: 1
      unlockLevel: 390
      stageReward: 0
      stageRewardAmount: 1
    - outpostStageID: outpost_stage28
      defaultBuilt: 0
      isActive: 1
      unlockLevel: 405
      stageReward: 0
      stageRewardAmount: 1
    - outpostStageID: outpost_stage29
      defaultBuilt: 0
      isActive: 1
      unlockLevel: 420
      stageReward: 0
      stageRewardAmount: 1
    - outpostStageID: outpost_stage30
      defaultBuilt: 0
      isActive: 1
      unlockLevel: 435
      stageReward: 0
      stageRewardAmount: 1
    - outpostStageID: outpost_stage31
      defaultBuilt: 0
      isActive: 1
      unlockLevel: 450
      stageReward: 0
      stageRewardAmount: 1
    - outpostStageID: outpost_stage32
      defaultBuilt: 0
      isActive: 1
      unlockLevel: 465
      stageReward: 0
      stageRewardAmount: 1
    - outpostStageID: outpost_stage33
      defaultBuilt: 0
      isActive: 1
      unlockLevel: 480
      stageReward: 0
      stageRewardAmount: 1
    - outpostStageID: outpost_stage34
      defaultBuilt: 0
      isActive: 1
      unlockLevel: 495
      stageReward: 0
      stageRewardAmount: 1
    - outpostStageID: outpost_stage35
      defaultBuilt: 0
      isActive: 1
      unlockLevel: 510
      stageReward: 0
      stageRewardAmount: 1
    - outpostStageID: outpost_stage36
      defaultBuilt: 0
      isActive: 1
      unlockLevel: 525
      stageReward: 0
      stageRewardAmount: 1
    - outpostStageID: outpost_stage37
      defaultBuilt: 0
      isActive: 1
      unlockLevel: 540
      stageReward: 0
      stageRewardAmount: 1
    - outpostStageID: outpost_stage38
      defaultBuilt: 0
      isActive: 1
      unlockLevel: 555
      stageReward: 0
      stageRewardAmount: 1
    - outpostStageID: outpost_stage39
      defaultBuilt: 0
      isActive: 1
      unlockLevel: 570
      stageReward: 0
      stageRewardAmount: 1
    - outpostStageID: outpost_stage40
      defaultBuilt: 0
      isActive: 1
      unlockLevel: 585
      stageReward: 0
      stageRewardAmount: 1
    - outpostStageID: outpost_stage41
      defaultBuilt: 0
      isActive: 1
      unlockLevel: 600
      stageReward: 0
      stageRewardAmount: 1
    - outpostStageID: outpost_stage42
      defaultBuilt: 0
      isActive: 1
      unlockLevel: 615
      stageReward: 0
      stageRewardAmount: 1
    - outpostStageID: outpost_stage43
      defaultBuilt: 0
      isActive: 1
      unlockLevel: 630
      stageReward: 0
      stageRewardAmount: 1
    - outpostStageID: outpost_stage44
      defaultBuilt: 0
      isActive: 1
      unlockLevel: 645
      stageReward: 0
      stageRewardAmount: 1
    - outpostStageID: outpost_stage45
      defaultBuilt: 0
      isActive: 1
      unlockLevel: 660
      stageReward: 0
      stageRewardAmount: 1
    - outpostStageID: outpost_stage46
      defaultBuilt: 0
      isActive: 1
      unlockLevel: 675
      stageReward: 0
      stageRewardAmount: 1
    - outpostStageID: outpost_stage47
      defaultBuilt: 0
      isActive: 1
      unlockLevel: 690
      stageReward: 0
      stageRewardAmount: 1
    - outpostStageID: outpost_stage48
      defaultBuilt: 0
      isActive: 1
      unlockLevel: 705
      stageReward: 0
      stageRewardAmount: 1
    - outpostStageID: outpost_stage49
      defaultBuilt: 0
      isActive: 1
      unlockLevel: 720
      stageReward: 0
      stageRewardAmount: 1
    - outpostStageID: outpost_stage50
      defaultBuilt: 0
      isActive: 1
      unlockLevel: 735
      stageReward: 0
      stageRewardAmount: 1
    - outpostStageID: outpost_stage51
      defaultBuilt: 0
      isActive: 1
      unlockLevel: 750
      stageReward: 0
      stageRewardAmount: 1
    - outpostStageID: outpost_stage52
      defaultBuilt: 0
      isActive: 1
      unlockLevel: 765
      stageReward: 0
      stageRewardAmount: 1
    - outpostStageID: outpost_stage53
      defaultBuilt: 0
      isActive: 1
      unlockLevel: 780
      stageReward: 0
      stageRewardAmount: 1
    - outpostStageID: outpost_stage54
      defaultBuilt: 0
      isActive: 1
      unlockLevel: 795
      stageReward: 0
      stageRewardAmount: 1
    - outpostStageID: outpost_stage55
      defaultBuilt: 0
      isActive: 1
      unlockLevel: 810
      stageReward: 0
      stageRewardAmount: 1
    - outpostStageID: outpost_stage56
      defaultBuilt: 0
      isActive: 1
      unlockLevel: 825
      stageReward: 0
      stageRewardAmount: 1
    - outpostStageID: outpost_stage57
      defaultBuilt: 0
      isActive: 1
      unlockLevel: 840
      stageReward: 0
      stageRewardAmount: 1
    - outpostStageID: outpost_stage58
      defaultBuilt: 0
      isActive: 1
      unlockLevel: 855
      stageReward: 0
      stageRewardAmount: 1
    - outpostStageID: outpost_stage59
      defaultBuilt: 0
      isActive: 1
      unlockLevel: 870
      stageReward: 0
      stageRewardAmount: 1
    - outpostStageID: outpost_stage60
      defaultBuilt: 0
      isActive: 1
      unlockLevel: 885
      stageReward: 0
      stageRewardAmount: 1
    - outpostStageID: outpost_stage61
      defaultBuilt: 0
      isActive: 1
      unlockLevel: 900
      stageReward: 0
      stageRewardAmount: 1
    - outpostStageID: outpost_stage62
      defaultBuilt: 0
      isActive: 1
      unlockLevel: 915
      stageReward: 0
      stageRewardAmount: 1
    - outpostStageID: outpost_stage63
      defaultBuilt: 0
      isActive: 1
      unlockLevel: 930
      stageReward: 0
      stageRewardAmount: 1
    - outpostStageID: outpost_stage64
      defaultBuilt: 0
      isActive: 1
      unlockLevel: 945
      stageReward: 0
      stageRewardAmount: 1
    - outpostStageID: outpost_stage65
      defaultBuilt: 0
      isActive: 1
      unlockLevel: 960
      stageReward: 0
      stageRewardAmount: 1
    - outpostStageID: outpost_stage66
      defaultBuilt: 0
      isActive: 1
      unlockLevel: 975
      stageReward: 0
      stageRewardAmount: 1
    - outpostStageID: outpost_stage67
      defaultBuilt: 0
      isActive: 1
      unlockLevel: 990
      stageReward: 0
      stageRewardAmount: 1
    - outpostStageID: outpost_stage68
      defaultBuilt: 0
      isActive: 1
      unlockLevel: 1005
      stageReward: 0
      stageRewardAmount: 1
    - outpostStageID: outpost_stage69
      defaultBuilt: 0
      isActive: 1
      unlockLevel: 1020
      stageReward: 0
      stageRewardAmount: 1
    - outpostStageID: outpost_stage70
      defaultBuilt: 0
      isActive: 1
      unlockLevel: 1035
      stageReward: 0
      stageRewardAmount: 1
    - outpostStageID: outpost_stage71
      defaultBuilt: 0
      isActive: 1
      unlockLevel: 1050
      stageReward: 0
      stageRewardAmount: 1
    - outpostStageID: outpost_stage72
      defaultBuilt: 0
      isActive: 1
      unlockLevel: 1065
      stageReward: 0
      stageRewardAmount: 1
    - outpostStageID: outpost_stage73
      defaultBuilt: 0
      isActive: 1
      unlockLevel: 1080
      stageReward: 0
      stageRewardAmount: 1
    - outpostStageID: outpost_stage74
      defaultBuilt: 0
      isActive: 1
      unlockLevel: 1095
      stageReward: 0
      stageRewardAmount: 1
    - outpostStageID: outpost_stage75
      defaultBuilt: 0
      isActive: 1
      unlockLevel: 1110
      stageReward: 0
      stageRewardAmount: 1
    - outpostStageID: outpost_stage76
      defaultBuilt: 0
      isActive: 1
      unlockLevel: 1125
      stageReward: 0
      stageRewardAmount: 1
    - outpostStageID: outpost_stage77
      defaultBuilt: 0
      isActive: 1
      unlockLevel: 1140
      stageReward: 0
      stageRewardAmount: 1
    - outpostStageID: outpost_stage78
      defaultBuilt: 0
      isActive: 1
      unlockLevel: 1155
      stageReward: 0
      stageRewardAmount: 1
    - outpostStageID: outpost_stage79
      defaultBuilt: 0
      isActive: 1
      unlockLevel: 1170
      stageReward: 0
      stageRewardAmount: 1
    - outpostStageID: outpost_stage80
      defaultBuilt: 0
      isActive: 1
      unlockLevel: 1185
      stageReward: 0
      stageRewardAmount: 1
    - outpostStageID: outpost_stage81
      defaultBuilt: 0
      isActive: 1
      unlockLevel: 1200
      stageReward: 0
      stageRewardAmount: 1
    - outpostStageID: outpost_stage82
      defaultBuilt: 0
      isActive: 1
      unlockLevel: 1215
      stageReward: 0
      stageRewardAmount: 1
    - outpostStageID: outpost_stage83
      defaultBuilt: 0
      isActive: 1
      unlockLevel: 1230
      stageReward: 0
      stageRewardAmount: 1
    - outpostStageID: outpost_stage84
      defaultBuilt: 0
      isActive: 1
      unlockLevel: 1245
      stageReward: 0
      stageRewardAmount: 1
    - outpostStageID: outpost_stage85
      defaultBuilt: 0
      isActive: 1
      unlockLevel: 1260
      stageReward: 0
      stageRewardAmount: 1
    - outpostStageID: outpost_stage86
      defaultBuilt: 0
      isActive: 1
      unlockLevel: 1275
      stageReward: 0
      stageRewardAmount: 1
    - outpostStageID: outpost_stage87
      defaultBuilt: 0
      isActive: 1
      unlockLevel: 1290
      stageReward: 0
      stageRewardAmount: 1
    - outpostStageID: outpost_stage88
      defaultBuilt: 0
      isActive: 1
      unlockLevel: 1305
      stageReward: 0
      stageRewardAmount: 1
    - outpostStageID: outpost_stage89
      defaultBuilt: 0
      isActive: 1
      unlockLevel: 1320
      stageReward: 0
      stageRewardAmount: 1
    - outpostStageID: outpost_stage90
      defaultBuilt: 0
      isActive: 1
      unlockLevel: 1335
      stageReward: 0
      stageRewardAmount: 1
    - outpostStageID: outpost_stage91
      defaultBuilt: 0
      isActive: 1
      unlockLevel: 1350
      stageReward: 0
      stageRewardAmount: 1
    - outpostStageID: outpost_stage92
      defaultBuilt: 0
      isActive: 1
      unlockLevel: 1365
      stageReward: 0
      stageRewardAmount: 1
    - outpostStageID: outpost_stage93
      defaultBuilt: 0
      isActive: 1
      unlockLevel: 1380
      stageReward: 0
      stageRewardAmount: 1
    - outpostStageID: outpost_stage94
      defaultBuilt: 0
      isActive: 1
      unlockLevel: 1395
      stageReward: 0
      stageRewardAmount: 1
    - outpostStageID: outpost_stage95
      defaultBuilt: 0
      isActive: 1
      unlockLevel: 1410
      stageReward: 0
      stageRewardAmount: 1
    - outpostStageID: outpost_stage96
      defaultBuilt: 0
      isActive: 1
      unlockLevel: 1425
      stageReward: 0
      stageRewardAmount: 1
    - outpostStageID: outpost_stage97
      defaultBuilt: 0
      isActive: 1
      unlockLevel: 1440
      stageReward: 0
      stageRewardAmount: 1
    - outpostStageID: outpost_stage98
      defaultBuilt: 0
      isActive: 1
      unlockLevel: 1455
      stageReward: 0
      stageRewardAmount: 1
    - outpostStageID: outpost_stage99
      defaultBuilt: 0
      isActive: 1
      unlockLevel: 1470
      stageReward: 0
      stageRewardAmount: 1
    - outpostStageID: outpost_stage100
      defaultBuilt: 0
      isActive: 1
      unlockLevel: 1485
      stageReward: 0
      stageRewardAmount: 1
    - outpostStageID: outpost_stage101
      defaultBuilt: 0
      isActive: 1
      unlockLevel: 1500
      stageReward: 0
      stageRewardAmount: 1
    - outpostStageID: outpost_stage102
      defaultBuilt: 0
      isActive: 1
      unlockLevel: 1515
      stageReward: 0
      stageRewardAmount: 1
    - outpostStageID: outpost_stage103
      defaultBuilt: 0
      isActive: 1
      unlockLevel: 1530
      stageReward: 0
      stageRewardAmount: 1
    - outpostStageID: outpost_stage104
      defaultBuilt: 0
      isActive: 1
      unlockLevel: 1545
      stageReward: 0
      stageRewardAmount: 1
    - outpostStageID: outpost_stage105
      defaultBuilt: 0
      isActive: 1
      unlockLevel: 1560
      stageReward: 0
      stageRewardAmount: 1
    - outpostStageID: outpost_stage106
      defaultBuilt: 0
      isActive: 1
      unlockLevel: 1575
      stageReward: 0
      stageRewardAmount: 1
    - outpostStageID: outpost_stage107
      defaultBuilt: 0
      isActive: 1
      unlockLevel: 1590
      stageReward: 0
      stageRewardAmount: 1
    - outpostStageID: outpost_stage108
      defaultBuilt: 0
      isActive: 1
      unlockLevel: 1605
      stageReward: 0
      stageRewardAmount: 1
    - outpostStageID: outpost_stage109
      defaultBuilt: 0
      isActive: 1
      unlockLevel: 1620
      stageReward: 0
      stageRewardAmount: 1
    - outpostStageID: outpost_stage110
      defaultBuilt: 0
      isActive: 1
      unlockLevel: 1635
      stageReward: 0
      stageRewardAmount: 1
    - outpostStageID: outpost_stage111
      defaultBuilt: 0
      isActive: 1
      unlockLevel: 1650
      stageReward: 0
      stageRewardAmount: 1
    - outpostStageID: outpost_stage112
      defaultBuilt: 0
      isActive: 1
      unlockLevel: 1665
      stageReward: 0
      stageRewardAmount: 1
    - outpostStageID: outpost_stage113
      defaultBuilt: 0
      isActive: 1
      unlockLevel: 1680
      stageReward: 0
      stageRewardAmount: 1
    - outpostStageID: outpost_stage114
      defaultBuilt: 0
      isActive: 1
      unlockLevel: 1695
      stageReward: 0
      stageRewardAmount: 1
    - outpostStageID: outpost_stage115
      defaultBuilt: 0
      isActive: 1
      unlockLevel: 1710
      stageReward: 0
      stageRewardAmount: 1
    - outpostStageID: outpost_stage116
      defaultBuilt: 0
      isActive: 1
      unlockLevel: 1725
      stageReward: 0
      stageRewardAmount: 1
    - outpostStageID: outpost_stage117
      defaultBuilt: 0
      isActive: 1
      unlockLevel: 1740
      stageReward: 0
      stageRewardAmount: 1
    - outpostStageID: outpost_stage118
      defaultBuilt: 0
      isActive: 1
      unlockLevel: 1755
      stageReward: 0
      stageRewardAmount: 1
    - outpostStageID: outpost_stage119
      defaultBuilt: 0
      isActive: 1
      unlockLevel: 1770
      stageReward: 0
      stageRewardAmount: 1
    - outpostStageID: outpost_stage120
      defaultBuilt: 0
      isActive: 1
      unlockLevel: 1785
      stageReward: 0
      stageRewardAmount: 1
    useTestData: 0
    testData: []
  data:
  - outpostStageID: outpost_stage01
    defaultBuilt: 0
    isActive: 1
    unlockLevel: 5
    stageReward: 0
    stageRewardAmount: 1
  - outpostStageID: outpost_stage02
    defaultBuilt: 0
    isActive: 1
    unlockLevel: 15
    stageReward: 0
    stageRewardAmount: 1
  - outpostStageID: outpost_stage03
    defaultBuilt: 0
    isActive: 1
    unlockLevel: 30
    stageReward: 0
    stageRewardAmount: 1
  - outpostStageID: outpost_stage04
    defaultBuilt: 0
    isActive: 1
    unlockLevel: 45
    stageReward: 0
    stageRewardAmount: 1
  - outpostStageID: outpost_stage05
    defaultBuilt: 0
    isActive: 1
    unlockLevel: 60
    stageReward: 0
    stageRewardAmount: 1
  - outpostStageID: outpost_stage06
    defaultBuilt: 0
    isActive: 1
    unlockLevel: 75
    stageReward: 0
    stageRewardAmount: 1
  - outpostStageID: outpost_stage07
    defaultBuilt: 0
    isActive: 1
    unlockLevel: 90
    stageReward: 0
    stageRewardAmount: 1
  - outpostStageID: outpost_stage08
    defaultBuilt: 0
    isActive: 1
    unlockLevel: 105
    stageReward: 0
    stageRewardAmount: 1
  - outpostStageID: outpost_stage09
    defaultBuilt: 0
    isActive: 1
    unlockLevel: 120
    stageReward: 0
    stageRewardAmount: 1
  - outpostStageID: outpost_stage10
    defaultBuilt: 0
    isActive: 1
    unlockLevel: 135
    stageReward: 0
    stageRewardAmount: 1
  - outpostStageID: outpost_stage11
    defaultBuilt: 0
    isActive: 1
    unlockLevel: 150
    stageReward: 0
    stageRewardAmount: 1
  - outpostStageID: outpost_stage12
    defaultBuilt: 0
    isActive: 1
    unlockLevel: 165
    stageReward: 0
    stageRewardAmount: 1
  - outpostStageID: outpost_stage13
    defaultBuilt: 0
    isActive: 1
    unlockLevel: 180
    stageReward: 0
    stageRewardAmount: 1
  - outpostStageID: outpost_stage14
    defaultBuilt: 0
    isActive: 1
    unlockLevel: 195
    stageReward: 0
    stageRewardAmount: 1
  - outpostStageID: outpost_stage15
    defaultBuilt: 0
    isActive: 1
    unlockLevel: 210
    stageReward: 0
    stageRewardAmount: 1
  - outpostStageID: outpost_stage16
    defaultBuilt: 0
    isActive: 1
    unlockLevel: 225
    stageReward: 0
    stageRewardAmount: 1
  - outpostStageID: outpost_stage17
    defaultBuilt: 0
    isActive: 1
    unlockLevel: 240
    stageReward: 0
    stageRewardAmount: 1
  - outpostStageID: outpost_stage18
    defaultBuilt: 0
    isActive: 1
    unlockLevel: 255
    stageReward: 0
    stageRewardAmount: 1
  - outpostStageID: outpost_stage19
    defaultBuilt: 0
    isActive: 1
    unlockLevel: 270
    stageReward: 0
    stageRewardAmount: 1
  - outpostStageID: outpost_stage20
    defaultBuilt: 0
    isActive: 1
    unlockLevel: 285
    stageReward: 0
    stageRewardAmount: 1
  - outpostStageID: outpost_stage21
    defaultBuilt: 0
    isActive: 1
    unlockLevel: 300
    stageReward: 0
    stageRewardAmount: 1
  - outpostStageID: outpost_stage22
    defaultBuilt: 0
    isActive: 1
    unlockLevel: 315
    stageReward: 0
    stageRewardAmount: 1
  - outpostStageID: outpost_stage23
    defaultBuilt: 0
    isActive: 1
    unlockLevel: 330
    stageReward: 0
    stageRewardAmount: 1
  - outpostStageID: outpost_stage24
    defaultBuilt: 0
    isActive: 1
    unlockLevel: 345
    stageReward: 0
    stageRewardAmount: 1
  - outpostStageID: outpost_stage25
    defaultBuilt: 0
    isActive: 1
    unlockLevel: 360
    stageReward: 0
    stageRewardAmount: 1
  - outpostStageID: outpost_stage26
    defaultBuilt: 0
    isActive: 1
    unlockLevel: 375
    stageReward: 0
    stageRewardAmount: 1
  - outpostStageID: outpost_stage27
    defaultBuilt: 0
    isActive: 1
    unlockLevel: 390
    stageReward: 0
    stageRewardAmount: 1
  - outpostStageID: outpost_stage28
    defaultBuilt: 0
    isActive: 1
    unlockLevel: 405
    stageReward: 0
    stageRewardAmount: 1
  - outpostStageID: outpost_stage29
    defaultBuilt: 0
    isActive: 1
    unlockLevel: 420
    stageReward: 0
    stageRewardAmount: 1
  - outpostStageID: outpost_stage30
    defaultBuilt: 0
    isActive: 1
    unlockLevel: 435
    stageReward: 0
    stageRewardAmount: 1
  - outpostStageID: outpost_stage31
    defaultBuilt: 0
    isActive: 1
    unlockLevel: 450
    stageReward: 0
    stageRewardAmount: 1
  - outpostStageID: outpost_stage32
    defaultBuilt: 0
    isActive: 1
    unlockLevel: 465
    stageReward: 0
    stageRewardAmount: 1
  - outpostStageID: outpost_stage33
    defaultBuilt: 0
    isActive: 1
    unlockLevel: 480
    stageReward: 0
    stageRewardAmount: 1
  - outpostStageID: outpost_stage34
    defaultBuilt: 0
    isActive: 1
    unlockLevel: 495
    stageReward: 0
    stageRewardAmount: 1
  - outpostStageID: outpost_stage35
    defaultBuilt: 0
    isActive: 1
    unlockLevel: 510
    stageReward: 0
    stageRewardAmount: 1
  - outpostStageID: outpost_stage36
    defaultBuilt: 0
    isActive: 1
    unlockLevel: 525
    stageReward: 0
    stageRewardAmount: 1
  - outpostStageID: outpost_stage37
    defaultBuilt: 0
    isActive: 1
    unlockLevel: 540
    stageReward: 0
    stageRewardAmount: 1
  - outpostStageID: outpost_stage38
    defaultBuilt: 0
    isActive: 1
    unlockLevel: 555
    stageReward: 0
    stageRewardAmount: 1
  - outpostStageID: outpost_stage39
    defaultBuilt: 0
    isActive: 1
    unlockLevel: 570
    stageReward: 0
    stageRewardAmount: 1
  - outpostStageID: outpost_stage40
    defaultBuilt: 0
    isActive: 1
    unlockLevel: 585
    stageReward: 0
    stageRewardAmount: 1
  - outpostStageID: outpost_stage41
    defaultBuilt: 0
    isActive: 1
    unlockLevel: 600
    stageReward: 0
    stageRewardAmount: 1
  - outpostStageID: outpost_stage42
    defaultBuilt: 0
    isActive: 1
    unlockLevel: 615
    stageReward: 0
    stageRewardAmount: 1
  - outpostStageID: outpost_stage43
    defaultBuilt: 0
    isActive: 1
    unlockLevel: 630
    stageReward: 0
    stageRewardAmount: 1
  - outpostStageID: outpost_stage44
    defaultBuilt: 0
    isActive: 1
    unlockLevel: 645
    stageReward: 0
    stageRewardAmount: 1
  - outpostStageID: outpost_stage45
    defaultBuilt: 0
    isActive: 1
    unlockLevel: 660
    stageReward: 0
    stageRewardAmount: 1
  - outpostStageID: outpost_stage46
    defaultBuilt: 0
    isActive: 1
    unlockLevel: 675
    stageReward: 0
    stageRewardAmount: 1
  - outpostStageID: outpost_stage47
    defaultBuilt: 0
    isActive: 1
    unlockLevel: 690
    stageReward: 0
    stageRewardAmount: 1
  - outpostStageID: outpost_stage48
    defaultBuilt: 0
    isActive: 1
    unlockLevel: 705
    stageReward: 0
    stageRewardAmount: 1
  - outpostStageID: outpost_stage49
    defaultBuilt: 0
    isActive: 1
    unlockLevel: 720
    stageReward: 0
    stageRewardAmount: 1
  - outpostStageID: outpost_stage50
    defaultBuilt: 0
    isActive: 1
    unlockLevel: 735
    stageReward: 0
    stageRewardAmount: 1
  - outpostStageID: outpost_stage51
    defaultBuilt: 0
    isActive: 1
    unlockLevel: 750
    stageReward: 0
    stageRewardAmount: 1
  - outpostStageID: outpost_stage52
    defaultBuilt: 0
    isActive: 1
    unlockLevel: 765
    stageReward: 0
    stageRewardAmount: 1
  - outpostStageID: outpost_stage53
    defaultBuilt: 0
    isActive: 1
    unlockLevel: 780
    stageReward: 0
    stageRewardAmount: 1
  - outpostStageID: outpost_stage54
    defaultBuilt: 0
    isActive: 1
    unlockLevel: 795
    stageReward: 0
    stageRewardAmount: 1
  - outpostStageID: outpost_stage55
    defaultBuilt: 0
    isActive: 1
    unlockLevel: 810
    stageReward: 0
    stageRewardAmount: 1
  - outpostStageID: outpost_stage56
    defaultBuilt: 0
    isActive: 1
    unlockLevel: 825
    stageReward: 0
    stageRewardAmount: 1
  - outpostStageID: outpost_stage57
    defaultBuilt: 0
    isActive: 1
    unlockLevel: 840
    stageReward: 0
    stageRewardAmount: 1
  - outpostStageID: outpost_stage58
    defaultBuilt: 0
    isActive: 1
    unlockLevel: 855
    stageReward: 0
    stageRewardAmount: 1
  - outpostStageID: outpost_stage59
    defaultBuilt: 0
    isActive: 1
    unlockLevel: 870
    stageReward: 0
    stageRewardAmount: 1
  - outpostStageID: outpost_stage60
    defaultBuilt: 0
    isActive: 1
    unlockLevel: 885
    stageReward: 0
    stageRewardAmount: 1
  - outpostStageID: outpost_stage61
    defaultBuilt: 0
    isActive: 1
    unlockLevel: 900
    stageReward: 0
    stageRewardAmount: 1
  - outpostStageID: outpost_stage62
    defaultBuilt: 0
    isActive: 1
    unlockLevel: 915
    stageReward: 0
    stageRewardAmount: 1
  - outpostStageID: outpost_stage63
    defaultBuilt: 0
    isActive: 1
    unlockLevel: 930
    stageReward: 0
    stageRewardAmount: 1
  - outpostStageID: outpost_stage64
    defaultBuilt: 0
    isActive: 1
    unlockLevel: 945
    stageReward: 0
    stageRewardAmount: 1
  - outpostStageID: outpost_stage65
    defaultBuilt: 0
    isActive: 1
    unlockLevel: 960
    stageReward: 0
    stageRewardAmount: 1
  - outpostStageID: outpost_stage66
    defaultBuilt: 0
    isActive: 1
    unlockLevel: 975
    stageReward: 0
    stageRewardAmount: 1
  - outpostStageID: outpost_stage67
    defaultBuilt: 0
    isActive: 1
    unlockLevel: 990
    stageReward: 0
    stageRewardAmount: 1
  - outpostStageID: outpost_stage68
    defaultBuilt: 0
    isActive: 1
    unlockLevel: 1005
    stageReward: 0
    stageRewardAmount: 1
  - outpostStageID: outpost_stage69
    defaultBuilt: 0
    isActive: 1
    unlockLevel: 1020
    stageReward: 0
    stageRewardAmount: 1
  - outpostStageID: outpost_stage70
    defaultBuilt: 0
    isActive: 1
    unlockLevel: 1035
    stageReward: 0
    stageRewardAmount: 1
  - outpostStageID: outpost_stage71
    defaultBuilt: 0
    isActive: 1
    unlockLevel: 1050
    stageReward: 0
    stageRewardAmount: 1
  - outpostStageID: outpost_stage72
    defaultBuilt: 0
    isActive: 1
    unlockLevel: 1065
    stageReward: 0
    stageRewardAmount: 1
  - outpostStageID: outpost_stage73
    defaultBuilt: 0
    isActive: 1
    unlockLevel: 1080
    stageReward: 0
    stageRewardAmount: 1
  - outpostStageID: outpost_stage74
    defaultBuilt: 0
    isActive: 1
    unlockLevel: 1095
    stageReward: 0
    stageRewardAmount: 1
  - outpostStageID: outpost_stage75
    defaultBuilt: 0
    isActive: 1
    unlockLevel: 1110
    stageReward: 0
    stageRewardAmount: 1
  - outpostStageID: outpost_stage76
    defaultBuilt: 0
    isActive: 1
    unlockLevel: 1125
    stageReward: 0
    stageRewardAmount: 1
  - outpostStageID: outpost_stage77
    defaultBuilt: 0
    isActive: 1
    unlockLevel: 1140
    stageReward: 0
    stageRewardAmount: 1
  - outpostStageID: outpost_stage78
    defaultBuilt: 0
    isActive: 1
    unlockLevel: 1155
    stageReward: 0
    stageRewardAmount: 1
  - outpostStageID: outpost_stage79
    defaultBuilt: 0
    isActive: 1
    unlockLevel: 1170
    stageReward: 0
    stageRewardAmount: 1
  - outpostStageID: outpost_stage80
    defaultBuilt: 0
    isActive: 1
    unlockLevel: 1185
    stageReward: 0
    stageRewardAmount: 1
  - outpostStageID: outpost_stage81
    defaultBuilt: 0
    isActive: 1
    unlockLevel: 1200
    stageReward: 0
    stageRewardAmount: 1
  - outpostStageID: outpost_stage82
    defaultBuilt: 0
    isActive: 1
    unlockLevel: 1215
    stageReward: 0
    stageRewardAmount: 1
  - outpostStageID: outpost_stage83
    defaultBuilt: 0
    isActive: 1
    unlockLevel: 1230
    stageReward: 0
    stageRewardAmount: 1
  - outpostStageID: outpost_stage84
    defaultBuilt: 0
    isActive: 1
    unlockLevel: 1245
    stageReward: 0
    stageRewardAmount: 1
  - outpostStageID: outpost_stage85
    defaultBuilt: 0
    isActive: 1
    unlockLevel: 1260
    stageReward: 0
    stageRewardAmount: 1
  - outpostStageID: outpost_stage86
    defaultBuilt: 0
    isActive: 1
    unlockLevel: 1275
    stageReward: 0
    stageRewardAmount: 1
  - outpostStageID: outpost_stage87
    defaultBuilt: 0
    isActive: 1
    unlockLevel: 1290
    stageReward: 0
    stageRewardAmount: 1
  - outpostStageID: outpost_stage88
    defaultBuilt: 0
    isActive: 1
    unlockLevel: 1305
    stageReward: 0
    stageRewardAmount: 1
  - outpostStageID: outpost_stage89
    defaultBuilt: 0
    isActive: 1
    unlockLevel: 1320
    stageReward: 0
    stageRewardAmount: 1
  - outpostStageID: outpost_stage90
    defaultBuilt: 0
    isActive: 1
    unlockLevel: 1335
    stageReward: 0
    stageRewardAmount: 1
  - outpostStageID: outpost_stage91
    defaultBuilt: 0
    isActive: 1
    unlockLevel: 1350
    stageReward: 0
    stageRewardAmount: 1
  - outpostStageID: outpost_stage92
    defaultBuilt: 0
    isActive: 1
    unlockLevel: 1365
    stageReward: 0
    stageRewardAmount: 1
  - outpostStageID: outpost_stage93
    defaultBuilt: 0
    isActive: 1
    unlockLevel: 1380
    stageReward: 0
    stageRewardAmount: 1
  - outpostStageID: outpost_stage94
    defaultBuilt: 0
    isActive: 1
    unlockLevel: 1395
    stageReward: 0
    stageRewardAmount: 1
  - outpostStageID: outpost_stage95
    defaultBuilt: 0
    isActive: 1
    unlockLevel: 1410
    stageReward: 0
    stageRewardAmount: 1
  - outpostStageID: outpost_stage96
    defaultBuilt: 0
    isActive: 1
    unlockLevel: 1425
    stageReward: 0
    stageRewardAmount: 1
  - outpostStageID: outpost_stage97
    defaultBuilt: 0
    isActive: 1
    unlockLevel: 1440
    stageReward: 0
    stageRewardAmount: 1
  - outpostStageID: outpost_stage98
    defaultBuilt: 0
    isActive: 1
    unlockLevel: 1455
    stageReward: 0
    stageRewardAmount: 1
  - outpostStageID: outpost_stage99
    defaultBuilt: 0
    isActive: 1
    unlockLevel: 1470
    stageReward: 0
    stageRewardAmount: 1
  - outpostStageID: outpost_stage100
    defaultBuilt: 0
    isActive: 1
    unlockLevel: 1485
    stageReward: 0
    stageRewardAmount: 1
  - outpostStageID: outpost_stage101
    defaultBuilt: 0
    isActive: 1
    unlockLevel: 1500
    stageReward: 0
    stageRewardAmount: 1
  - outpostStageID: outpost_stage102
    defaultBuilt: 0
    isActive: 1
    unlockLevel: 1515
    stageReward: 0
    stageRewardAmount: 1
  - outpostStageID: outpost_stage103
    defaultBuilt: 0
    isActive: 1
    unlockLevel: 1530
    stageReward: 0
    stageRewardAmount: 1
  - outpostStageID: outpost_stage104
    defaultBuilt: 0
    isActive: 1
    unlockLevel: 1545
    stageReward: 0
    stageRewardAmount: 1
  - outpostStageID: outpost_stage105
    defaultBuilt: 0
    isActive: 1
    unlockLevel: 1560
    stageReward: 0
    stageRewardAmount: 1
  - outpostStageID: outpost_stage106
    defaultBuilt: 0
    isActive: 1
    unlockLevel: 1575
    stageReward: 0
    stageRewardAmount: 1
  - outpostStageID: outpost_stage107
    defaultBuilt: 0
    isActive: 1
    unlockLevel: 1590
    stageReward: 0
    stageRewardAmount: 1
  - outpostStageID: outpost_stage108
    defaultBuilt: 0
    isActive: 1
    unlockLevel: 1605
    stageReward: 0
    stageRewardAmount: 1
  - outpostStageID: outpost_stage109
    defaultBuilt: 0
    isActive: 1
    unlockLevel: 1620
    stageReward: 0
    stageRewardAmount: 1
  - outpostStageID: outpost_stage110
    defaultBuilt: 0
    isActive: 1
    unlockLevel: 1635
    stageReward: 0
    stageRewardAmount: 1
  - outpostStageID: outpost_stage111
    defaultBuilt: 0
    isActive: 1
    unlockLevel: 1650
    stageReward: 0
    stageRewardAmount: 1
  - outpostStageID: outpost_stage112
    defaultBuilt: 0
    isActive: 1
    unlockLevel: 1665
    stageReward: 0
    stageRewardAmount: 1
  - outpostStageID: outpost_stage113
    defaultBuilt: 0
    isActive: 1
    unlockLevel: 1680
    stageReward: 0
    stageRewardAmount: 1
  - outpostStageID: outpost_stage114
    defaultBuilt: 0
    isActive: 1
    unlockLevel: 1695
    stageReward: 0
    stageRewardAmount: 1
  - outpostStageID: outpost_stage115
    defaultBuilt: 0
    isActive: 1
    unlockLevel: 1710
    stageReward: 0
    stageRewardAmount: 1
  - outpostStageID: outpost_stage116
    defaultBuilt: 0
    isActive: 1
    unlockLevel: 1725
    stageReward: 0
    stageRewardAmount: 1
  - outpostStageID: outpost_stage117
    defaultBuilt: 0
    isActive: 1
    unlockLevel: 1740
    stageReward: 0
    stageRewardAmount: 1
  - outpostStageID: outpost_stage118
    defaultBuilt: 0
    isActive: 1
    unlockLevel: 1755
    stageReward: 0
    stageRewardAmount: 1
  - outpostStageID: outpost_stage119
    defaultBuilt: 0
    isActive: 1
    unlockLevel: 1770
    stageReward: 0
    stageRewardAmount: 1
  - outpostStageID: outpost_stage120
    defaultBuilt: 0
    isActive: 1
    unlockLevel: 1785
    stageReward: 0
    stageRewardAmount: 1
