%YAML 1.1
%TAG !u! tag:unity3d.com,2011:
--- !u!114 &11400000
MonoBehaviour:
  m_ObjectHideFlags: 0
  m_CorrespondingSourceObject: {fileID: 0}
  m_PrefabInstance: {fileID: 0}
  m_PrefabAsset: {fileID: 0}
  m_GameObject: {fileID: 0}
  m_Enabled: 1
  m_EditorHideFlags: 0
  m_Script: {fileID: 11500000, guid: 20a550cced184404b9be21742f44e564, type: 3}
  m_Name: AndroidSecuritySettings
  m_EditorClassIdentifier: 
  keystoreSignature: d6818e8035b9a4be1ce3b9d95696175e
  error: 
  signature: 6436383138653830333562396134626531636533623964393536393631373565
  lockAsset: 0
  autoImportSignature: 1
