%YAML 1.1
%TAG !u! tag:unity3d.com,2011:
--- !u!1045 &1
EditorBuildSettings:
  m_ObjectHideFlags: 0
  serializedVersion: 2
  m_Scenes:
  - enabled: 1
    path: Assets/_Game/Scenes/World/MainScene.unity
    guid: 340c47cd3b3240b4f82726026d4fff06
  - enabled: 0
    path: Assets/Old/Scenes/SetupScene.unity
    guid: 2a5279b2567684026a56ee53512a5b4d
  - enabled: 0
    path: Assets/Old/Scenes/SystemScene.unity
    guid: 99c9720ab356a0642a771bea13969a05
  - enabled: 0
    path: Assets/Old/Scenes/GalaxyScene.unity
    guid: 4961ce056be0a46eb9ad736bd3445cdc
  - enabled: 0
    path: Assets/Old/Scenes/AsteroidFieldScene.unity
    guid: c4d246c1a1b4a40d59bc58ebefbfff37
  - enabled: 0
    path: Assets/Old/Scenes/ChestScene.unity
    guid: d5c4729633c834615bf78dc495d31d30
  m_configObjects: {}
