{
    "MonoBehaviour": {
        "m_Enabled": true,
        "m_EditorHideFlags": 0,
        "m_Name": "",
        "m_EditorClassIdentifier": "",
        "ToolbarIndex": 0,
        "m_iOSNotificationSettingsValues": {
            "m_Keys": [
                "UnityNotificationRequestAuthorizationOnAppLaunch",
                "UnityNotificationDefaultAuthorizationOptions",
                "UnityAddRemoteNotificationCapability",
                "UnityNotificationRequestAuthorizationForRemoteNotificationsOnAppLaunch",
                "UnityRemoteNotificationForegroundPresentationOptions",
                "UnityUseAPSReleaseEnvironment",
                "UnityUseLocationNotificationTrigger"
            ],
            "m_Values": [
                "False",
                "7",
                "False",
                "False",
                "-1",
                "False",
                "False"
            ]
        },
        "m_AndroidNotificationSettingsValues": {
            "m_Keys": [
                "UnityNotificationAndroidRescheduleOnDeviceRestart",
                "UnityNotificationAndroidUseCustomActivity",
                "UnityNotificationAndroidCustomActivityString",
                "UnityNotificationAndroidScheduleExactAlarms"
            ],
            "m_Values": [
                "False",
                "False",
                "com.unity3d.player.UnityPlayerActivity",
                "0"
            ]
        },
        "DrawableResources": [
            {
                "Id": "icon_small",
                "Type": 0,
                "Asset": {
                    "fileID": 2800000,
                    "guid": "0295dec47f257bd4bb5cd9ed0b66816a",
                    "type": 3
                }
            },
            {
                "Id": "icon_large",
                "Type": 1,
                "Asset": {
                    "fileID": 2800000,
                    "guid": "44b36d77556e11e40a0746faab4517b1",
                    "type": 3
                }
            }
        ]
    }
}