<?xml version="1.0" encoding="UTF-8" standalone="no"?>
<!-- Created with Inkscape (http://www.inkscape.org/) -->

<svg
   xmlns:dc="http://purl.org/dc/elements/1.1/"
   xmlns:cc="http://creativecommons.org/ns#"
   xmlns:rdf="http://www.w3.org/1999/02/22-rdf-syntax-ns#"
   xmlns:svg="http://www.w3.org/2000/svg"
   xmlns="http://www.w3.org/2000/svg"
   xmlns:sodipodi="http://sodipodi.sourceforge.net/DTD/sodipodi-0.dtd"
   xmlns:inkscape="http://www.inkscape.org/namespaces/inkscape"
   width="210mm"
   height="297mm"
   viewBox="0 0 210 297"
   version="1.1"
   id="svg9462"
   inkscape:version="0.92.3 (2405546, 2018-03-11)"
   sodipodi:docname="blueShip1.svg">
  <defs
     id="defs9456" />
  <sodipodi:namedview
     id="base"
     pagecolor="#ffffff"
     bordercolor="#666666"
     borderopacity="1.0"
     inkscape:pageopacity="0.0"
     inkscape:pageshadow="2"
     inkscape:zoom="0.35"
     inkscape:cx="400"
     inkscape:cy="560"
     inkscape:document-units="mm"
     inkscape:current-layer="layer1"
     showgrid="false"
     inkscape:window-width="2736"
     inkscape:window-height="1699"
     inkscape:window-x="-13"
     inkscape:window-y="-13"
     inkscape:window-maximized="1" />
  <metadata
     id="metadata9459">
    <rdf:RDF>
      <cc:Work
         rdf:about="">
        <dc:format>image/svg+xml</dc:format>
        <dc:type
           rdf:resource="http://purl.org/dc/dcmitype/StillImage" />
        <dc:title></dc:title>
      </cc:Work>
    </rdf:RDF>
  </metadata>
  <g
     inkscape:label="Layer 1"
     inkscape:groupmode="layer"
     id="layer1">
    <path
       d="m 21.702448,5.1211159 h 0.185208 q 0.15875,0 0.291042,0.092604 l 0.198438,0.2248958 1.508125,3.3602083 -0.449792,0.2778125 -1.547813,-3.4263541 H 21.702448 V 5.1211159 m 5.371042,17.3434371 -2.315104,2.328334 q -0.15875,0.145521 -0.383646,0.145521 h -6.416146 q -0.224896,0 -0.370417,-0.145521 l -2.328333,-2.328334 0.224895,-0.529166 2.473855,2.473854 h 6.416146 l 2.473854,-2.473854 0.224896,0.529166 M 18.448073,8.7988242 19.969427,5.4386159 q 0.05292,-0.1455208 0.198438,-0.2248958 0.119062,-0.092604 0.277812,-0.092604 h 0.185209 v 0.5291667 h -0.185209 l -1.547812,3.4263541 -0.06615,0.092604 -0.383646,-0.3704167"
       id="path7043"
       inkscape:connector-curvature="0"
       style="fill:#cbcbcb;stroke:none;stroke-width:0.26458332" />
    <path
       d="m 18.448073,8.7988242 0.383646,0.3704167 -1.852084,2.1828121 -7.2231246,8.532813 -0.15875,-0.621771 8.8503126,-10.4642708 m 4.987396,0.2778125 0.449792,-0.2778125 8.837083,10.4245838 -0.145521,0.661458 -7.223125,-8.532813 -1.918229,-2.2754163"
       id="path7045"
       inkscape:connector-curvature="0"
       style="fill:#8ea8ad;stroke:none;stroke-width:0.26458332" />
    <path
       d="m 23.435469,9.0766367 1.918229,2.2754163 4.273021,8.90323 -0.9525,0.9525 H 27.576198 L 28.489011,20.29497 23.435469,9.0766367 m -6.455834,2.2754163 1.852084,-2.1828121 0.06615,-0.092604 -5.053542,11.2183333 0.912812,0.912813 h -1.098021 l -0.9525,-0.9525 4.273021,-8.90323"
       id="path7047"
       inkscape:connector-curvature="0"
       style="fill:#bdd6db;stroke:none;stroke-width:0.26458332" />
    <path
       d="m 21.702448,5.6502826 h 0.185208 l 1.547813,3.4263541 5.053542,11.2183333 -0.912813,0.912813 -0.727604,0.727604 -2.473854,2.473854 H 17.958594 L 15.484739,21.935387 14.757135,21.207783 13.844323,20.29497 18.897865,9.0766367 20.445677,5.6502826 h 0.185209 l -4.352397,13.7451044 1.719792,3.108854 h 6.336771 L 26.054844,19.395387 21.702448,5.6502826"
       id="path7049"
       inkscape:connector-curvature="0"
       style="fill:#f2f2f2;stroke:none;stroke-width:0.26458332" />
    <path
       d="m 21.702448,5.6502826 4.352396,13.7451044 -1.719792,3.108854 H 17.998281 L 16.278489,19.395387 20.630886,5.6502826 h 1.071562 m -2.831042,8.2153124 -0.0926,0.264583 h 4.775729 L 23.475156,13.865595 21.781823,7.9786159 H 20.56474 l -1.706563,5.8869791 h 0.01323 m 13.268855,8.387292 0.06614,-0.3175 0.132292,-0.727604 0.238125,-1.322917 0.9525,1.124479 v 1.243542 h -1.389058 m -22.3837506,-2.368021 0.238125,1.322917 0.1322916,0.727604 0.06615,0.3175 H 8.8040103 v -1.243542 l 0.9525001,-1.124479"
       id="path7051"
       inkscape:connector-curvature="0"
       style="fill:#36bbf5;stroke:none;stroke-width:0.26458332" />
    <path
       d="m 9.7565104,19.884866 -0.9525001,1.124479 v 1.243542 h 1.3890627 l 0.105833,0.515937 -0.105833,0.01323 H 8.8040103 q -0.2248958,0 -0.3704166,-0.14552 -0.15875,-0.158751 -0.15875,-0.383647 v -1.243542 q 0,-0.198437 0.1322916,-0.343958 l 1.1906251,-1.402292 0.15875,0.621771 M 21.702448,5.1211159 V 5.6502826 H 20.630886 V 5.1211159 h 1.071562 m 11.019896,14.1022921 1.217083,1.441979 q 0.119063,0.145521 0.119063,0.343958 v 1.243542 q 0,0.224896 -0.145521,0.383646 -0.15875,0.14552 -0.383646,0.14552 h -1.389062 -0.07938 l 0.07938,-0.529166 h 1.389062 v -1.243542 l -0.9525,-1.124479 0.145521,-0.661458"
       id="path7053"
       inkscape:connector-curvature="0"
       style="fill:#1884b4;stroke:none;stroke-width:0.26458332" />
    <path
       d="M 23.475156,13.865595 21.781823,8.5077826 H 20.56474 l -1.693334,5.3578124 h -0.01323 L 20.56474,7.9786159 h 1.217083 l 1.693333,5.8869791"
       id="path7055"
       inkscape:connector-curvature="0"
       style="fill:#8ed9fa;stroke:none;stroke-width:0.26458332" />
    <path
       d="m 23.475156,13.865595 0.07937,0.264583 h -4.775729 l 0.0926,-0.264583 1.693334,-5.3578124 h 1.217083 l 1.693333,5.3578124"
       id="path7057"
       inkscape:connector-curvature="0"
       style="fill:#4a3c55;stroke:none;stroke-width:0.26458332" />
    <path
       d="m 27.576198,21.207783 h 1.098021 l -0.727604,0.727604 h -1.098021 l 0.727604,-0.727604 m -13.917084,0 h 1.098021 l 0.727604,0.727604 h -1.09802 l -0.727605,-0.727604"
       id="path7059"
       inkscape:connector-curvature="0"
       style="fill:#ecbd02;stroke:none;stroke-width:0.26458332" />
    <path
       d="m 32.060886,22.782053 -0.211667,-0.0926 -0.185208,-0.224896 H 27.07349 l -0.224896,-0.52917 h 1.098021 4.259791 l -0.06614,0.3175 -0.07938,0.529166 m -16.801042,-0.3175 h -4.577292 l -0.198438,0.224896 -0.185208,0.07938 -0.105833,-0.515937 -0.06615,-0.3175 h 4.259792 1.09802 l -0.224895,0.529161"
       id="path7061"
       inkscape:connector-curvature="0"
       style="fill:#bf9900;stroke:none;stroke-width:0.26458332" />
    <path
       d="m 32.206406,21.935387 h -4.259791 l 0.727604,-0.727604 h 3.664479 l -0.132292,0.727604 M 9.9946354,21.207783 h 3.6644786 l 0.727605,0.727604 H 10.126927 L 9.9946354,21.207783"
       id="path7063"
       inkscape:connector-curvature="0"
       style="fill:#ffcc00;stroke:none;stroke-width:0.26458332" />
    <path
       d="m 9.9946354,21.207783 -0.238125,-1.322917 7.2231246,-8.532813 -4.273021,8.90323 0.9525,0.9525 H 9.9946354 m 18.6795836,0 0.9525,-0.9525 -4.273021,-8.90323 7.223125,8.532813 -0.238125,1.322917 h -3.664479"
       id="path7065"
       inkscape:connector-curvature="0"
       style="fill:#d3e1e7;stroke:none;stroke-width:0.26458332" />
  </g>
</svg>
