<?xml version="1.0" encoding="utf-8"?>
<svg viewBox="1745.55 65.2 98.9 81.587" width="98.9" height="81.587" xmlns="http://www.w3.org/2000/svg">
  <g transform="matrix(1, 0, 0, -1, 0, 211.987488)">
    <g transform="matrix(1, 0, 0, 1, 0, 0)">
      <path fill="#7B7B7B" stroke="none" d=" M 1763.55 109.8 Q 1762.95 110.4 1762.95 111.25 L 1762.95 125.9 Q 1762.75 126.15 1762.6 126.45 L 1761.4 129.35 Q 1761.15 130 1761.35 130.65 L 1763.3 137.9 Q 1763.45 138.55 1764 138.95 1764.55 139.4 1765.2 139.4 L 1767.8 139.4 Q 1768.45 139.4 1769 138.95 1769.55 138.55 1769.75 137.9 L 1771.7 130.65 Q 1771.85 130 1771.6 129.35 L 1770.4 126.45 Q 1770.25 126.15 1770 125.85 L 1770 111.25 Q 1770 110.4 1769.45 109.8 1768.85 109.25 1768 109.25 L 1764.95 109.25 Q 1764.1 109.25 1763.55 109.8 M 1764.95 111.25 L 1768 111.25 1768 127.25 1768.55 127.25 1769.75 130.15 1767.8 137.4 1765.2 137.4 1763.25 130.15 1764.45 127.25 1764.95 127.25 1764.95 111.25 M 1827 111.25 Q 1827 110.4 1826.45 109.8 1825.85 109.25 1825 109.25 L 1821.95 109.25 Q 1821.1 109.25 1820.55 109.8 1819.95 110.4 1819.95 111.25 L 1819.95 125.9 Q 1819.75 126.15 1819.6 126.45 L 1818.4 129.35 Q 1818.15 130 1818.35 130.65 L 1820.3 137.9 Q 1820.45 138.55 1821 138.95 1821.55 139.4 1822.2 139.4 L 1824.8 139.4 Q 1825.45 139.4 1826 138.95 1826.55 138.55 1826.75 137.9 L 1828.7 130.65 Q 1828.85 130 1828.6 129.35 L 1827.4 126.45 Q 1827.25 126.15 1827 125.85 L 1827 111.25 M 1825.55 127.25 L 1826.75 130.15 1824.8 137.4 1822.2 137.4 1820.25 130.15 1821.45 127.25 1821.95 127.25 1821.95 111.25 1825 111.25 1825 127.25 1825.55 127.25 Z"/>
      <path fill="#CBCBCB" stroke="none" d=" M 1769.75 130.15 L 1763.25 130.15 1765.2 137.4 1767.8 137.4 1769.75 130.15 M 1768 111.25 L 1764.95 111.25 1764.95 127.25 1768 127.25 1768 111.25 M 1825 127.25 L 1825 111.25 1821.95 111.25 1821.95 127.25 1825 127.25 M 1824.8 137.4 L 1826.75 130.15 1820.25 130.15 1822.2 137.4 1824.8 137.4 Z"/>
      <path fill="#AAAAAA" stroke="none" d=" M 1768.55 127.25 L 1768 127.25 1764.95 127.25 1764.45 127.25 1763.25 130.15 1769.75 130.15 1768.55 127.25 M 1826.75 130.15 L 1825.55 127.25 1825 127.25 1821.95 127.25 1821.45 127.25 1820.25 130.15 1826.75 130.15 Z"/>
    </g>
  </g>
  <g transform="matrix(1, 0, 0, -1, 0, 211.987488)">
    <g transform="matrix(1, 0, 0, 1, 0, 0)">
      <path fill="#484848" stroke="none" d=" M 1804.5 65.2 Q 1803.65 65.2 1803.1 65.75 1802.5 66.35 1802.5 67.2 L 1802.5 71.35 1801.1 72.75 Q 1800.5 73.35 1800.5 74.2 L 1800.5 91.2 Q 1800.5 91.6 1800.7 92 1800.85 92.4 1801.15 92.65 L 1804.2 95.4 Q 1804.75 95.95 1805.55 95.95 L 1814.75 95.95 Q 1815.6 95.95 1816.2 95.35 L 1818.95 92.6 Q 1819.5 92.05 1819.5 91.2 L 1819.5 74.2 Q 1819.5 73.35 1818.95 72.75 L 1817.5 71.35 1817.5 67.2 Q 1817.5 66.35 1816.95 65.75 1816.35 65.2 1815.5 65.2 L 1804.5 65.2 M 1802.5 74.2 L 1804.5 72.2 1804.5 67.2 1815.5 67.2 1815.5 72.2 1817.5 74.2 1817.5 77.2 1817.5 86.2 1817.5 91.2 1814.75 93.95 1805.55 93.95 1802.5 91.2 1802.5 86.2 1802.5 77.2 1802.5 74.2 Z"/>
      <path fill="#5B5B5B" stroke="none" d=" M 1802.5 91.2 L 1805.55 93.95 1814.75 93.95 1817.5 91.2 1817.5 86.2 1802.5 86.2 1802.5 91.2 M 1804.5 72.2 L 1802.5 74.2 1802.5 77.2 1817.5 77.2 1817.5 74.2 1815.5 72.2 1815.5 67.2 1804.5 67.2 1804.5 72.2 Z"/>
      <path fill="#626262" stroke="none" d=" M 1817.5 86.2 L 1817.5 77.2 1802.5 77.2 1802.5 86.2 1817.5 86.2 Z"/>
    </g>
  </g>
  <g transform="matrix(1, 0, 0, -1, 0, 211.987488)">
    <g transform="matrix(1, 0, 0, 1, 0, 0)">
      <path fill="#484848" stroke="none" d=" M 1787.5 71.35 L 1787.5 67.2 Q 1787.5 66.35 1786.95 65.75 1786.35 65.2 1785.5 65.2 L 1774.5 65.2 Q 1773.65 65.2 1773.1 65.75 1772.5 66.35 1772.5 67.2 L 1772.5 71.35 1771.1 72.75 Q 1770.5 73.35 1770.5 74.2 L 1770.5 91.2 Q 1770.5 91.6 1770.7 92 1770.85 92.4 1771.15 92.65 L 1774.2 95.4 Q 1774.75 95.95 1775.55 95.95 L 1784.75 95.95 Q 1785.6 95.95 1786.2 95.35 L 1788.95 92.6 Q 1789.5 92.05 1789.5 91.2 L 1789.5 74.2 Q 1789.5 73.35 1788.95 72.75 L 1787.5 71.35 M 1785.5 72.2 L 1787.5 74.2 1787.5 77.2 1787.5 86.2 1787.5 91.2 1784.75 93.95 1775.55 93.95 1772.5 91.2 1772.5 86.2 1772.5 77.2 1772.5 74.2 1774.5 72.2 1774.5 67.2 1785.5 67.2 1785.5 72.2 Z"/>
      <path fill="#5B5B5B" stroke="none" d=" M 1784.75 93.95 L 1787.5 91.2 1787.5 86.2 1772.5 86.2 1772.5 91.2 1775.55 93.95 1784.75 93.95 M 1787.5 74.2 L 1785.5 72.2 1785.5 67.2 1774.5 67.2 1774.5 72.2 1772.5 74.2 1772.5 77.2 1787.5 77.2 1787.5 74.2 Z"/>
      <path fill="#626262" stroke="none" d=" M 1787.5 86.2 L 1787.5 77.2 1772.5 77.2 1772.5 86.2 1787.5 86.2 Z"/>
    </g>
  </g>
  <g transform="matrix(1, 0, 0, -1, 0.650563, 212.507935)">
    <path stroke="none" d=" M 1833.85 86.5 L 1814.55 90.2 1819.65 108.05 1837.95 110.95 1833.85 86.5 Z" style="fill: rgb(120, 196, 23);"/>
    <path stroke="none" d=" M 1809.25 72.4 L 1804.35 83.75 1812.9 112.75 1827.15 114.9 1834.75 144.25 1838.25 143.6 1842.45 138.15 1837.95 110.95 1819.65 108.05 1814.55 90.2 1833.85 86.5 1833.45 84.3 1809.25 72.4 Z" style="fill: rgb(103, 168, 20);"/>
    <path stroke="none" d=" M 1810 70.6 L 1809.25 72.4 1833.45 84.3 1833.85 86.5 1837.95 110.95 1842.45 138.15 1838.25 143.6 1834.75 144.25 1835.1 146.25 1838.6 145.5 Q 1839.35 145.4 1839.8 144.8 L 1844.05 139.4 Q 1844.3 139.1 1844.4 138.7 1844.45 138.25 1844.45 137.85 L 1835.45 84 Q 1835.35 83.5 1835.05 83.1 1834.75 82.75 1834.3 82.5 L 1810 70.6 Z" style="fill: rgb(85, 140, 14);"/>
    <path fill="#E9E9E9" stroke="none" d=" M 1809.25 72.4 L 1807.9 71.85 1797.6 86.2 1808.3 118.25 1825.25 118.7 1832.05 144.75 1834.75 144.25 1827.15 114.9 1812.9 112.75 1804.35 83.75 1809.25 72.4 Z"/>
    <path fill="#BBBBBB" stroke="none" d=" M 1810 70.6 L 1808.75 70 Q 1808.1 69.65 1807.4 69.85 1806.65 70 1806.25 70.65 L 1795.95 85 Q 1795.7 85.4 1795.6 85.85 1795.55 86.35 1795.7 86.8 L 1806.4 118.9 Q 1806.6 119.5 1807.15 119.85 1807.65 120.25 1808.25 120.3 L 1823.7 120.6 1830.15 145.25 Q 1830.3 146.05 1830.95 146.45 1831.65 146.9 1832.4 146.75 L 1835.1 146.25 1834.75 144.25 1832.05 144.75 1825.25 118.7 1808.3 118.25 1797.6 86.2 1807.9 71.85 1809.25 72.4 1810 70.6 Z"/>
  </g>
  <g transform="matrix(1, 0, 0, -1, 0, 211.987488)">
    <path stroke="none" d=" M 1775.45 90.2 L 1756.15 86.5 1752.05 110.95 1770.35 108.05 1775.45 90.2 Z" style="fill: rgb(120, 196, 23);"/>
    <path stroke="none" d=" M 1756.55 84.3 L 1756.15 86.5 1775.45 90.2 1770.35 108.05 1752.05 110.95 1747.55 138.15 1751.75 143.6 1755.25 144.25 1762.85 114.9 1777.1 112.75 1785.65 83.75 1780.75 72.4 1756.55 84.3 Z" style="fill: rgb(103, 168, 20);"/>
    <path stroke="none" d=" M 1754.95 83.1 Q 1754.65 83.5 1754.55 84 L 1745.55 137.85 Q 1745.55 138.25 1745.6 138.7 1745.7 139.1 1745.95 139.4 L 1750.2 144.8 Q 1750.65 145.4 1751.4 145.5 L 1754.9 146.25 1755.25 144.25 1751.75 143.6 1747.55 138.15 1752.05 110.95 1756.15 86.5 1756.55 84.3 1780.75 72.4 1780 70.6 1755.7 82.5 Q 1755.25 82.75 1754.95 83.1 Z" style="fill: rgb(85, 140, 14);"/>
    <path fill="#E9E9E9" stroke="none" d=" M 1792.4 86.2 L 1782.1 71.85 1780.75 72.4 1785.65 83.75 1777.1 112.75 1762.85 114.9 1755.25 144.25 1757.95 144.75 1764.75 118.7 1781.7 118.25 1792.4 86.2 Z"/>
    <path fill="#BBBBBB" stroke="none" d=" M 1783.75 70.65 Q 1783.35 70 1782.6 69.85 1781.9 69.65 1781.25 70 L 1780 70.6 1780.75 72.4 1782.1 71.85 1792.4 86.2 1781.7 118.25 1764.75 118.7 1757.95 144.75 1755.25 144.25 1754.9 146.25 1757.6 146.75 Q 1758.35 146.9 1759.05 146.45 1759.7 146.05 1759.85 145.25 L 1766.3 120.6 1781.75 120.3 Q 1782.35 120.25 1782.85 119.85 1783.4 119.5 1783.6 118.9 L 1794.3 86.8 Q 1794.45 86.35 1794.4 85.85 1794.3 85.4 1794.05 85 L 1783.75 70.65 Z"/>
  </g>
  <g transform="matrix(1, 0, 0, -1, 0, 211.987488)">
    <g transform="matrix(1, 0, 0, 1, 0, 0)">
      <path fill="#A3A3A3" stroke="none" d=" M 1801.85 73.3 L 1788.15 73.3 Q 1787.55 73.3 1787.05 73.6 L 1774.15 82.2 Q 1773.65 82.55 1773.4 83.15 1773.15 83.75 1773.3 84.35 L 1785.3 136.7 Q 1785.45 137.4 1786 137.8 1786.55 138.25 1787.25 138.25 L 1802.75 138.25 Q 1803.45 138.25 1804 137.8 1804.55 137.4 1804.7 136.7 L 1816.7 84.35 Q 1816.85 83.75 1816.6 83.15 1816.35 82.55 1815.85 82.2 L 1802.95 73.6 Q 1802.45 73.3 1801.85 73.3 M 1798.45 75.3 L 1801.85 75.3 1814.75 83.9 1811.3 98.5 1802.75 136.25 1787.25 136.25 1778.7 98.5 1775.25 83.9 1788.15 75.3 1791.55 75.3 1798.45 75.3 Z"/>
      <path fill="#EEEEEE" stroke="none" d=" M 1798.45 75.3 L 1791.55 75.3 1778.7 98.5 1787.25 136.25 1802.75 136.25 1811.3 98.5 1798.45 75.3 Z"/>
      <path fill="#D9D9D9" stroke="none" d=" M 1791.55 75.3 L 1788.15 75.3 1775.25 83.9 1778.7 98.5 1791.55 75.3 M 1801.85 75.3 L 1798.45 75.3 1811.3 98.5 1814.75 83.9 1801.85 75.3 Z"/>
    </g>
  </g>
  <g transform="matrix(1, 0, 0, -1, 0, 211.987488)">
    <g transform="matrix(1, 0, 0, 1, 0, 0)">
      <path fill="#5D4B6B" stroke="none" d=" M 1795 90.9 L 1786.75 94.95 Q 1787.6 114.6 1795 122.7 L 1795 90.9 Z"/>
      <path fill="#4A3C55" stroke="none" d=" M 1803.25 94.95 L 1795 90.9 1795 122.7 Q 1802.4 114.6 1803.25 94.95 Z"/>
    </g>
  </g>
</svg>