{
  "notificationTexts": [
    "💰 Your ships have been busy. Come back to claim your earnings!",
    "💰 Your income has stopped! Login to start earning again!",
    "💰 Earnings are waiting for you, come back to claim them!"
  ]
}
